<?xml version="1.0" encoding="utf-8" standalone="no"?>
<!DOCTYPE svg PUBLIC "-//W3C//DTD SVG 1.1//EN"
  "http://www.w3.org/Graphics/SVG/1.1/DTD/svg11.dtd">
<!-- Created with matplotlib (http://matplotlib.org/) -->
<svg height="345.6pt" version="1.1" viewBox="0 0 460.8 345.6" width="460.8pt" xmlns="http://www.w3.org/2000/svg" xmlns:xlink="http://www.w3.org/1999/xlink">
 <defs>
  <style type="text/css">
*{stroke-linecap:butt;stroke-linejoin:round;}
  </style>
 </defs>
 <g id="figure_1">
  <g id="patch_1">
   <path d="M 0 345.6 
L 460.8 345.6 
L 460.8 0 
L 0 0 
z
" style="fill:#ffffff;"/>
  </g>
  <g id="axes_1">
   <g id="patch_2">
    <path d="M 57.6 307.584 
L 321.12 307.584 
L 321.12 41.472 
L 57.6 41.472 
z
" style="fill:#ffffff;"/>
   </g>
   <g id="matplotlib.axis_1">
    <g id="xtick_1">
     <g id="line2d_1">
      <defs>
       <path d="M 0 0 
L 0 3.5 
" id="m2a7e4d9765" style="stroke:#000000;stroke-width:0.8;"/>
      </defs>
      <g>
       <use style="stroke:#000000;stroke-width:0.8;" x="57.6" xlink:href="#m2a7e4d9765" y="307.584"/>
      </g>
     </g>
     <g id="text_1">
      <!-- 0.0 -->
      <defs>
       <path d="M 31.78125 66.40625 
Q 24.171875 66.40625 20.328125 58.90625 
Q 16.5 51.421875 16.5 36.375 
Q 16.5 21.390625 20.328125 13.890625 
Q 24.171875 6.390625 31.78125 6.390625 
Q 39.453125 6.390625 43.28125 13.890625 
Q 47.125 21.390625 47.125 36.375 
Q 47.125 51.421875 43.28125 58.90625 
Q 39.453125 66.40625 31.78125 66.40625 
z
M 31.78125 74.21875 
Q 44.046875 74.21875 50.515625 64.515625 
Q 56.984375 54.828125 56.984375 36.375 
Q 56.984375 17.96875 50.515625 8.265625 
Q 44.046875 -1.421875 31.78125 -1.421875 
Q 19.53125 -1.421875 13.0625 8.265625 
Q 6.59375 17.96875 6.59375 36.375 
Q 6.59375 54.828125 13.0625 64.515625 
Q 19.53125 74.21875 31.78125 74.21875 
z
" id="DejaVuSans-30"/>
       <path d="M 10.6875 12.40625 
L 21 12.40625 
L 21 0 
L 10.6875 0 
z
" id="DejaVuSans-2e"/>
      </defs>
      <g transform="translate(49.648438 322.182437)scale(0.1 -0.1)">
       <use xlink:href="#DejaVuSans-30"/>
       <use x="63.623047" xlink:href="#DejaVuSans-2e"/>
       <use x="95.410156" xlink:href="#DejaVuSans-30"/>
      </g>
     </g>
    </g>
    <g id="xtick_2">
     <g id="line2d_2">
      <g>
       <use style="stroke:#000000;stroke-width:0.8;" x="123.427338" xlink:href="#m2a7e4d9765" y="307.584"/>
      </g>
     </g>
     <g id="text_2">
      <!-- 0.5 -->
      <defs>
       <path d="M 10.796875 72.90625 
L 49.515625 72.90625 
L 49.515625 64.59375 
L 19.828125 64.59375 
L 19.828125 46.734375 
Q 21.96875 47.46875 24.109375 47.828125 
Q 26.265625 48.1875 28.421875 48.1875 
Q 40.625 48.1875 47.75 41.5 
Q 54.890625 34.8125 54.890625 23.390625 
Q 54.890625 11.625 47.5625 5.09375 
Q 40.234375 -1.421875 26.90625 -1.421875 
Q 22.3125 -1.421875 17.546875 -0.640625 
Q 12.796875 0.140625 7.71875 1.703125 
L 7.71875 11.625 
Q 12.109375 9.234375 16.796875 8.0625 
Q 21.484375 6.890625 26.703125 6.890625 
Q 35.15625 6.890625 40.078125 11.328125 
Q 45.015625 15.765625 45.015625 23.390625 
Q 45.015625 31 40.078125 35.4375 
Q 35.15625 39.890625 26.703125 39.890625 
Q 22.75 39.890625 18.8125 39.015625 
Q 14.890625 38.140625 10.796875 36.28125 
z
" id="DejaVuSans-35"/>
      </defs>
      <g transform="translate(115.475776 322.182437)scale(0.1 -0.1)">
       <use xlink:href="#DejaVuSans-30"/>
       <use x="63.623047" xlink:href="#DejaVuSans-2e"/>
       <use x="95.410156" xlink:href="#DejaVuSans-35"/>
      </g>
     </g>
    </g>
    <g id="xtick_3">
     <g id="line2d_3">
      <g>
       <use style="stroke:#000000;stroke-width:0.8;" x="189.254676" xlink:href="#m2a7e4d9765" y="307.584"/>
      </g>
     </g>
     <g id="text_3">
      <!-- 1.0 -->
      <defs>
       <path d="M 12.40625 8.296875 
L 28.515625 8.296875 
L 28.515625 63.921875 
L 10.984375 60.40625 
L 10.984375 69.390625 
L 28.421875 72.90625 
L 38.28125 72.90625 
L 38.28125 8.296875 
L 54.390625 8.296875 
L 54.390625 0 
L 12.40625 0 
z
" id="DejaVuSans-31"/>
      </defs>
      <g transform="translate(181.303114 322.182437)scale(0.1 -0.1)">
       <use xlink:href="#DejaVuSans-31"/>
       <use x="63.623047" xlink:href="#DejaVuSans-2e"/>
       <use x="95.410156" xlink:href="#DejaVuSans-30"/>
      </g>
     </g>
    </g>
    <g id="xtick_4">
     <g id="line2d_4">
      <g>
       <use style="stroke:#000000;stroke-width:0.8;" x="255.082014" xlink:href="#m2a7e4d9765" y="307.584"/>
      </g>
     </g>
     <g id="text_4">
      <!-- 1.5 -->
      <g transform="translate(247.130452 322.182437)scale(0.1 -0.1)">
       <use xlink:href="#DejaVuSans-31"/>
       <use x="63.623047" xlink:href="#DejaVuSans-2e"/>
       <use x="95.410156" xlink:href="#DejaVuSans-35"/>
      </g>
     </g>
    </g>
    <g id="xtick_5">
     <g id="line2d_5">
      <g>
       <use style="stroke:#000000;stroke-width:0.8;" x="320.909353" xlink:href="#m2a7e4d9765" y="307.584"/>
      </g>
     </g>
     <g id="text_5">
      <!-- 2.0 -->
      <defs>
       <path d="M 19.1875 8.296875 
L 53.609375 8.296875 
L 53.609375 0 
L 7.328125 0 
L 7.328125 8.296875 
Q 12.9375 14.109375 22.625 23.890625 
Q 32.328125 33.6875 34.8125 36.53125 
Q 39.546875 41.84375 41.421875 45.53125 
Q 43.3125 49.21875 43.3125 52.78125 
Q 43.3125 58.59375 39.234375 62.25 
Q 35.15625 65.921875 28.609375 65.921875 
Q 23.96875 65.921875 18.8125 64.3125 
Q 13.671875 62.703125 7.8125 59.421875 
L 7.8125 69.390625 
Q 13.765625 71.78125 18.9375 73 
Q 24.125 74.21875 28.421875 74.21875 
Q 39.75 74.21875 46.484375 68.546875 
Q 53.21875 62.890625 53.21875 53.421875 
Q 53.21875 48.921875 51.53125 44.890625 
Q 49.859375 40.875 45.40625 35.40625 
Q 44.1875 33.984375 37.640625 27.21875 
Q 31.109375 20.453125 19.1875 8.296875 
z
" id="DejaVuSans-32"/>
      </defs>
      <g transform="translate(312.95779 322.182437)scale(0.1 -0.1)">
       <use xlink:href="#DejaVuSans-32"/>
       <use x="63.623047" xlink:href="#DejaVuSans-2e"/>
       <use x="95.410156" xlink:href="#DejaVuSans-30"/>
      </g>
     </g>
    </g>
    <g id="text_6">
     <!-- Time (nsec) -->
     <defs>
      <path d="M -0.296875 72.90625 
L 61.375 72.90625 
L 61.375 64.59375 
L 35.5 64.59375 
L 35.5 0 
L 25.59375 0 
L 25.59375 64.59375 
L -0.296875 64.59375 
z
" id="DejaVuSans-54"/>
      <path d="M 9.421875 54.6875 
L 18.40625 54.6875 
L 18.40625 0 
L 9.421875 0 
z
M 9.421875 75.984375 
L 18.40625 75.984375 
L 18.40625 64.59375 
L 9.421875 64.59375 
z
" id="DejaVuSans-69"/>
      <path d="M 52 44.1875 
Q 55.375 50.25 60.0625 53.125 
Q 64.75 56 71.09375 56 
Q 79.640625 56 84.28125 50.015625 
Q 88.921875 44.046875 88.921875 33.015625 
L 88.921875 0 
L 79.890625 0 
L 79.890625 32.71875 
Q 79.890625 40.578125 77.09375 44.375 
Q 74.3125 48.1875 68.609375 48.1875 
Q 61.625 48.1875 57.5625 43.546875 
Q 53.515625 38.921875 53.515625 30.90625 
L 53.515625 0 
L 44.484375 0 
L 44.484375 32.71875 
Q 44.484375 40.625 41.703125 44.40625 
Q 38.921875 48.1875 33.109375 48.1875 
Q 26.21875 48.1875 22.15625 43.53125 
Q 18.109375 38.875 18.109375 30.90625 
L 18.109375 0 
L 9.078125 0 
L 9.078125 54.6875 
L 18.109375 54.6875 
L 18.109375 46.1875 
Q 21.1875 51.21875 25.484375 53.609375 
Q 29.78125 56 35.6875 56 
Q 41.65625 56 45.828125 52.96875 
Q 50 49.953125 52 44.1875 
z
" id="DejaVuSans-6d"/>
      <path d="M 56.203125 29.59375 
L 56.203125 25.203125 
L 14.890625 25.203125 
Q 15.484375 15.921875 20.484375 11.0625 
Q 25.484375 6.203125 34.421875 6.203125 
Q 39.59375 6.203125 44.453125 7.46875 
Q 49.3125 8.734375 54.109375 11.28125 
L 54.109375 2.78125 
Q 49.265625 0.734375 44.1875 -0.34375 
Q 39.109375 -1.421875 33.890625 -1.421875 
Q 20.796875 -1.421875 13.15625 6.1875 
Q 5.515625 13.8125 5.515625 26.8125 
Q 5.515625 40.234375 12.765625 48.109375 
Q 20.015625 56 32.328125 56 
Q 43.359375 56 49.78125 48.890625 
Q 56.203125 41.796875 56.203125 29.59375 
z
M 47.21875 32.234375 
Q 47.125 39.59375 43.09375 43.984375 
Q 39.0625 48.390625 32.421875 48.390625 
Q 24.90625 48.390625 20.390625 44.140625 
Q 15.875 39.890625 15.1875 32.171875 
z
" id="DejaVuSans-65"/>
      <path id="DejaVuSans-20"/>
      <path d="M 31 75.875 
Q 24.46875 64.65625 21.28125 53.65625 
Q 18.109375 42.671875 18.109375 31.390625 
Q 18.109375 20.125 21.3125 9.0625 
Q 24.515625 -2 31 -13.1875 
L 23.1875 -13.1875 
Q 15.875 -1.703125 12.234375 9.375 
Q 8.59375 20.453125 8.59375 31.390625 
Q 8.59375 42.28125 12.203125 53.3125 
Q 15.828125 64.359375 23.1875 75.875 
z
" id="DejaVuSans-28"/>
      <path d="M 54.890625 33.015625 
L 54.890625 0 
L 45.90625 0 
L 45.90625 32.71875 
Q 45.90625 40.484375 42.875 44.328125 
Q 39.84375 48.1875 33.796875 48.1875 
Q 26.515625 48.1875 22.3125 43.546875 
Q 18.109375 38.921875 18.109375 30.90625 
L 18.109375 0 
L 9.078125 0 
L 9.078125 54.6875 
L 18.109375 54.6875 
L 18.109375 46.1875 
Q 21.34375 51.125 25.703125 53.5625 
Q 30.078125 56 35.796875 56 
Q 45.21875 56 50.046875 50.171875 
Q 54.890625 44.34375 54.890625 33.015625 
z
" id="DejaVuSans-6e"/>
      <path d="M 44.28125 53.078125 
L 44.28125 44.578125 
Q 40.484375 46.53125 36.375 47.5 
Q 32.28125 48.484375 27.875 48.484375 
Q 21.1875 48.484375 17.84375 46.4375 
Q 14.5 44.390625 14.5 40.28125 
Q 14.5 37.15625 16.890625 35.375 
Q 19.28125 33.59375 26.515625 31.984375 
L 29.59375 31.296875 
Q 39.15625 29.25 43.1875 25.515625 
Q 47.21875 21.78125 47.21875 15.09375 
Q 47.21875 7.46875 41.1875 3.015625 
Q 35.15625 -1.421875 24.609375 -1.421875 
Q 20.21875 -1.421875 15.453125 -0.5625 
Q 10.6875 0.296875 5.421875 2 
L 5.421875 11.28125 
Q 10.40625 8.6875 15.234375 7.390625 
Q 20.0625 6.109375 24.8125 6.109375 
Q 31.15625 6.109375 34.5625 8.28125 
Q 37.984375 10.453125 37.984375 14.40625 
Q 37.984375 18.0625 35.515625 20.015625 
Q 33.0625 21.96875 24.703125 23.78125 
L 21.578125 24.515625 
Q 13.234375 26.265625 9.515625 29.90625 
Q 5.8125 33.546875 5.8125 39.890625 
Q 5.8125 47.609375 11.28125 51.796875 
Q 16.75 56 26.8125 56 
Q 31.78125 56 36.171875 55.265625 
Q 40.578125 54.546875 44.28125 53.078125 
z
" id="DejaVuSans-73"/>
      <path d="M 48.78125 52.59375 
L 48.78125 44.1875 
Q 44.96875 46.296875 41.140625 47.34375 
Q 37.3125 48.390625 33.40625 48.390625 
Q 24.65625 48.390625 19.8125 42.84375 
Q 14.984375 37.3125 14.984375 27.296875 
Q 14.984375 17.28125 19.8125 11.734375 
Q 24.65625 6.203125 33.40625 6.203125 
Q 37.3125 6.203125 41.140625 7.25 
Q 44.96875 8.296875 48.78125 10.40625 
L 48.78125 2.09375 
Q 45.015625 0.34375 40.984375 -0.53125 
Q 36.96875 -1.421875 32.421875 -1.421875 
Q 20.0625 -1.421875 12.78125 6.34375 
Q 5.515625 14.109375 5.515625 27.296875 
Q 5.515625 40.671875 12.859375 48.328125 
Q 20.21875 56 33.015625 56 
Q 37.15625 56 41.109375 55.140625 
Q 45.0625 54.296875 48.78125 52.59375 
z
" id="DejaVuSans-63"/>
      <path d="M 8.015625 75.875 
L 15.828125 75.875 
Q 23.140625 64.359375 26.78125 53.3125 
Q 30.421875 42.28125 30.421875 31.390625 
Q 30.421875 20.453125 26.78125 9.375 
Q 23.140625 -1.703125 15.828125 -13.1875 
L 8.015625 -13.1875 
Q 14.5 -2 17.703125 9.0625 
Q 20.90625 20.125 20.90625 31.390625 
Q 20.90625 42.671875 17.703125 53.65625 
Q 14.5 64.65625 8.015625 75.875 
z
" id="DejaVuSans-29"/>
     </defs>
     <g transform="translate(159.882656 335.860562)scale(0.1 -0.1)">
      <use xlink:href="#DejaVuSans-54"/>
      <use x="61.037109" xlink:href="#DejaVuSans-69"/>
      <use x="88.820312" xlink:href="#DejaVuSans-6d"/>
      <use x="186.232422" xlink:href="#DejaVuSans-65"/>
      <use x="247.755859" xlink:href="#DejaVuSans-20"/>
      <use x="279.542969" xlink:href="#DejaVuSans-28"/>
      <use x="318.556641" xlink:href="#DejaVuSans-6e"/>
      <use x="381.935547" xlink:href="#DejaVuSans-73"/>
      <use x="434.035156" xlink:href="#DejaVuSans-65"/>
      <use x="495.558594" xlink:href="#DejaVuSans-63"/>
      <use x="550.539062" xlink:href="#DejaVuSans-29"/>
     </g>
    </g>
   </g>
   <g id="matplotlib.axis_2">
    <g id="ytick_1">
     <g id="line2d_6">
      <defs>
       <path d="M 0 0 
L -3.5 0 
" id="m85a8b04344" style="stroke:#000000;stroke-width:0.8;"/>
      </defs>
      <g>
       <use style="stroke:#000000;stroke-width:0.8;" x="57.6" xlink:href="#m85a8b04344" y="282.903647"/>
      </g>
     </g>
     <g id="text_7">
      <!-- 304000 -->
      <defs>
       <path d="M 40.578125 39.3125 
Q 47.65625 37.796875 51.625 33 
Q 55.609375 28.21875 55.609375 21.1875 
Q 55.609375 10.40625 48.1875 4.484375 
Q 40.765625 -1.421875 27.09375 -1.421875 
Q 22.515625 -1.421875 17.65625 -0.515625 
Q 12.796875 0.390625 7.625 2.203125 
L 7.625 11.71875 
Q 11.71875 9.328125 16.59375 8.109375 
Q 21.484375 6.890625 26.8125 6.890625 
Q 36.078125 6.890625 40.9375 10.546875 
Q 45.796875 14.203125 45.796875 21.1875 
Q 45.796875 27.640625 41.28125 31.265625 
Q 36.765625 34.90625 28.71875 34.90625 
L 20.21875 34.90625 
L 20.21875 43.015625 
L 29.109375 43.015625 
Q 36.375 43.015625 40.234375 45.921875 
Q 44.09375 48.828125 44.09375 54.296875 
Q 44.09375 59.90625 40.109375 62.90625 
Q 36.140625 65.921875 28.71875 65.921875 
Q 24.65625 65.921875 20.015625 65.03125 
Q 15.375 64.15625 9.8125 62.3125 
L 9.8125 71.09375 
Q 15.4375 72.65625 20.34375 73.4375 
Q 25.25 74.21875 29.59375 74.21875 
Q 40.828125 74.21875 47.359375 69.109375 
Q 53.90625 64.015625 53.90625 55.328125 
Q 53.90625 49.265625 50.4375 45.09375 
Q 46.96875 40.921875 40.578125 39.3125 
z
" id="DejaVuSans-33"/>
       <path d="M 37.796875 64.3125 
L 12.890625 25.390625 
L 37.796875 25.390625 
z
M 35.203125 72.90625 
L 47.609375 72.90625 
L 47.609375 25.390625 
L 58.015625 25.390625 
L 58.015625 17.1875 
L 47.609375 17.1875 
L 47.609375 0 
L 37.796875 0 
L 37.796875 17.1875 
L 4.890625 17.1875 
L 4.890625 26.703125 
z
" id="DejaVuSans-34"/>
      </defs>
      <g transform="translate(12.425 286.702865)scale(0.1 -0.1)">
       <use xlink:href="#DejaVuSans-33"/>
       <use x="63.623047" xlink:href="#DejaVuSans-30"/>
       <use x="127.246094" xlink:href="#DejaVuSans-34"/>
       <use x="190.869141" xlink:href="#DejaVuSans-30"/>
       <use x="254.492188" xlink:href="#DejaVuSans-30"/>
       <use x="318.115234" xlink:href="#DejaVuSans-30"/>
      </g>
     </g>
    </g>
    <g id="ytick_2">
     <g id="line2d_7">
      <g>
       <use style="stroke:#000000;stroke-width:0.8;" x="57.6" xlink:href="#m85a8b04344" y="234.77698"/>
      </g>
     </g>
     <g id="text_8">
      <!-- 305000 -->
      <g transform="translate(12.425 238.576199)scale(0.1 -0.1)">
       <use xlink:href="#DejaVuSans-33"/>
       <use x="63.623047" xlink:href="#DejaVuSans-30"/>
       <use x="127.246094" xlink:href="#DejaVuSans-35"/>
       <use x="190.869141" xlink:href="#DejaVuSans-30"/>
       <use x="254.492188" xlink:href="#DejaVuSans-30"/>
       <use x="318.115234" xlink:href="#DejaVuSans-30"/>
      </g>
     </g>
    </g>
    <g id="ytick_3">
     <g id="line2d_8">
      <g>
       <use style="stroke:#000000;stroke-width:0.8;" x="57.6" xlink:href="#m85a8b04344" y="186.650313"/>
      </g>
     </g>
     <g id="text_9">
      <!-- 306000 -->
      <defs>
       <path d="M 33.015625 40.375 
Q 26.375 40.375 22.484375 35.828125 
Q 18.609375 31.296875 18.609375 23.390625 
Q 18.609375 15.53125 22.484375 10.953125 
Q 26.375 6.390625 33.015625 6.390625 
Q 39.65625 6.390625 43.53125 10.953125 
Q 47.40625 15.53125 47.40625 23.390625 
Q 47.40625 31.296875 43.53125 35.828125 
Q 39.65625 40.375 33.015625 40.375 
z
M 52.59375 71.296875 
L 52.59375 62.3125 
Q 48.875 64.0625 45.09375 64.984375 
Q 41.3125 65.921875 37.59375 65.921875 
Q 27.828125 65.921875 22.671875 59.328125 
Q 17.53125 52.734375 16.796875 39.40625 
Q 19.671875 43.65625 24.015625 45.921875 
Q 28.375 48.1875 33.59375 48.1875 
Q 44.578125 48.1875 50.953125 41.515625 
Q 57.328125 34.859375 57.328125 23.390625 
Q 57.328125 12.15625 50.6875 5.359375 
Q 44.046875 -1.421875 33.015625 -1.421875 
Q 20.359375 -1.421875 13.671875 8.265625 
Q 6.984375 17.96875 6.984375 36.375 
Q 6.984375 53.65625 15.1875 63.9375 
Q 23.390625 74.21875 37.203125 74.21875 
Q 40.921875 74.21875 44.703125 73.484375 
Q 48.484375 72.75 52.59375 71.296875 
z
" id="DejaVuSans-36"/>
      </defs>
      <g transform="translate(12.425 190.449532)scale(0.1 -0.1)">
       <use xlink:href="#DejaVuSans-33"/>
       <use x="63.623047" xlink:href="#DejaVuSans-30"/>
       <use x="127.246094" xlink:href="#DejaVuSans-36"/>
       <use x="190.869141" xlink:href="#DejaVuSans-30"/>
       <use x="254.492188" xlink:href="#DejaVuSans-30"/>
       <use x="318.115234" xlink:href="#DejaVuSans-30"/>
      </g>
     </g>
    </g>
    <g id="ytick_4">
     <g id="line2d_9">
      <g>
       <use style="stroke:#000000;stroke-width:0.8;" x="57.6" xlink:href="#m85a8b04344" y="138.523647"/>
      </g>
     </g>
     <g id="text_10">
      <!-- 307000 -->
      <defs>
       <path d="M 8.203125 72.90625 
L 55.078125 72.90625 
L 55.078125 68.703125 
L 28.609375 0 
L 18.3125 0 
L 43.21875 64.59375 
L 8.203125 64.59375 
z
" id="DejaVuSans-37"/>
      </defs>
      <g transform="translate(12.425 142.322865)scale(0.1 -0.1)">
       <use xlink:href="#DejaVuSans-33"/>
       <use x="63.623047" xlink:href="#DejaVuSans-30"/>
       <use x="127.246094" xlink:href="#DejaVuSans-37"/>
       <use x="190.869141" xlink:href="#DejaVuSans-30"/>
       <use x="254.492188" xlink:href="#DejaVuSans-30"/>
       <use x="318.115234" xlink:href="#DejaVuSans-30"/>
      </g>
     </g>
    </g>
    <g id="ytick_5">
     <g id="line2d_10">
      <g>
       <use style="stroke:#000000;stroke-width:0.8;" x="57.6" xlink:href="#m85a8b04344" y="90.39698"/>
      </g>
     </g>
     <g id="text_11">
      <!-- 308000 -->
      <defs>
       <path d="M 31.78125 34.625 
Q 24.75 34.625 20.71875 30.859375 
Q 16.703125 27.09375 16.703125 20.515625 
Q 16.703125 13.921875 20.71875 10.15625 
Q 24.75 6.390625 31.78125 6.390625 
Q 38.8125 6.390625 42.859375 10.171875 
Q 46.921875 13.96875 46.921875 20.515625 
Q 46.921875 27.09375 42.890625 30.859375 
Q 38.875 34.625 31.78125 34.625 
z
M 21.921875 38.8125 
Q 15.578125 40.375 12.03125 44.71875 
Q 8.5 49.078125 8.5 55.328125 
Q 8.5 64.0625 14.71875 69.140625 
Q 20.953125 74.21875 31.78125 74.21875 
Q 42.671875 74.21875 48.875 69.140625 
Q 55.078125 64.0625 55.078125 55.328125 
Q 55.078125 49.078125 51.53125 44.71875 
Q 48 40.375 41.703125 38.8125 
Q 48.828125 37.15625 52.796875 32.3125 
Q 56.78125 27.484375 56.78125 20.515625 
Q 56.78125 9.90625 50.3125 4.234375 
Q 43.84375 -1.421875 31.78125 -1.421875 
Q 19.734375 -1.421875 13.25 4.234375 
Q 6.78125 9.90625 6.78125 20.515625 
Q 6.78125 27.484375 10.78125 32.3125 
Q 14.796875 37.15625 21.921875 38.8125 
z
M 18.3125 54.390625 
Q 18.3125 48.734375 21.84375 45.5625 
Q 25.390625 42.390625 31.78125 42.390625 
Q 38.140625 42.390625 41.71875 45.5625 
Q 45.3125 48.734375 45.3125 54.390625 
Q 45.3125 60.0625 41.71875 63.234375 
Q 38.140625 66.40625 31.78125 66.40625 
Q 25.390625 66.40625 21.84375 63.234375 
Q 18.3125 60.0625 18.3125 54.390625 
z
" id="DejaVuSans-38"/>
      </defs>
      <g transform="translate(12.425 94.196199)scale(0.1 -0.1)">
       <use xlink:href="#DejaVuSans-33"/>
       <use x="63.623047" xlink:href="#DejaVuSans-30"/>
       <use x="127.246094" xlink:href="#DejaVuSans-38"/>
       <use x="190.869141" xlink:href="#DejaVuSans-30"/>
       <use x="254.492188" xlink:href="#DejaVuSans-30"/>
       <use x="318.115234" xlink:href="#DejaVuSans-30"/>
      </g>
     </g>
    </g>
    <g id="ytick_6">
     <g id="line2d_11">
      <g>
       <use style="stroke:#000000;stroke-width:0.8;" x="57.6" xlink:href="#m85a8b04344" y="42.270313"/>
      </g>
     </g>
     <g id="text_12">
      <!-- 309000 -->
      <defs>
       <path d="M 10.984375 1.515625 
L 10.984375 10.5 
Q 14.703125 8.734375 18.5 7.8125 
Q 22.3125 6.890625 25.984375 6.890625 
Q 35.75 6.890625 40.890625 13.453125 
Q 46.046875 20.015625 46.78125 33.40625 
Q 43.953125 29.203125 39.59375 26.953125 
Q 35.25 24.703125 29.984375 24.703125 
Q 19.046875 24.703125 12.671875 31.3125 
Q 6.296875 37.9375 6.296875 49.421875 
Q 6.296875 60.640625 12.9375 67.421875 
Q 19.578125 74.21875 30.609375 74.21875 
Q 43.265625 74.21875 49.921875 64.515625 
Q 56.59375 54.828125 56.59375 36.375 
Q 56.59375 19.140625 48.40625 8.859375 
Q 40.234375 -1.421875 26.421875 -1.421875 
Q 22.703125 -1.421875 18.890625 -0.6875 
Q 15.09375 0.046875 10.984375 1.515625 
z
M 30.609375 32.421875 
Q 37.25 32.421875 41.125 36.953125 
Q 45.015625 41.5 45.015625 49.421875 
Q 45.015625 57.28125 41.125 61.84375 
Q 37.25 66.40625 30.609375 66.40625 
Q 23.96875 66.40625 20.09375 61.84375 
Q 16.21875 57.28125 16.21875 49.421875 
Q 16.21875 41.5 20.09375 36.953125 
Q 23.96875 32.421875 30.609375 32.421875 
z
" id="DejaVuSans-39"/>
      </defs>
      <g transform="translate(12.425 46.069532)scale(0.1 -0.1)">
       <use xlink:href="#DejaVuSans-33"/>
       <use x="63.623047" xlink:href="#DejaVuSans-30"/>
       <use x="127.246094" xlink:href="#DejaVuSans-39"/>
       <use x="190.869141" xlink:href="#DejaVuSans-30"/>
       <use x="254.492188" xlink:href="#DejaVuSans-30"/>
       <use x="318.115234" xlink:href="#DejaVuSans-30"/>
      </g>
     </g>
    </g>
    <g id="text_13">
     <!-- Volume (Angstrom^3) -->
     <defs>
      <path d="M 28.609375 0 
L 0.78125 72.90625 
L 11.078125 72.90625 
L 34.1875 11.53125 
L 57.328125 72.90625 
L 67.578125 72.90625 
L 39.796875 0 
z
" id="DejaVuSans-56"/>
      <path d="M 30.609375 48.390625 
Q 23.390625 48.390625 19.1875 42.75 
Q 14.984375 37.109375 14.984375 27.296875 
Q 14.984375 17.484375 19.15625 11.84375 
Q 23.34375 6.203125 30.609375 6.203125 
Q 37.796875 6.203125 41.984375 11.859375 
Q 46.1875 17.53125 46.1875 27.296875 
Q 46.1875 37.015625 41.984375 42.703125 
Q 37.796875 48.390625 30.609375 48.390625 
z
M 30.609375 56 
Q 42.328125 56 49.015625 48.375 
Q 55.71875 40.765625 55.71875 27.296875 
Q 55.71875 13.875 49.015625 6.21875 
Q 42.328125 -1.421875 30.609375 -1.421875 
Q 18.84375 -1.421875 12.171875 6.21875 
Q 5.515625 13.875 5.515625 27.296875 
Q 5.515625 40.765625 12.171875 48.375 
Q 18.84375 56 30.609375 56 
z
" id="DejaVuSans-6f"/>
      <path d="M 9.421875 75.984375 
L 18.40625 75.984375 
L 18.40625 0 
L 9.421875 0 
z
" id="DejaVuSans-6c"/>
      <path d="M 8.5 21.578125 
L 8.5 54.6875 
L 17.484375 54.6875 
L 17.484375 21.921875 
Q 17.484375 14.15625 20.5 10.265625 
Q 23.53125 6.390625 29.59375 6.390625 
Q 36.859375 6.390625 41.078125 11.03125 
Q 45.3125 15.671875 45.3125 23.6875 
L 45.3125 54.6875 
L 54.296875 54.6875 
L 54.296875 0 
L 45.3125 0 
L 45.3125 8.40625 
Q 42.046875 3.421875 37.71875 1 
Q 33.40625 -1.421875 27.6875 -1.421875 
Q 18.265625 -1.421875 13.375 4.4375 
Q 8.5 10.296875 8.5 21.578125 
z
M 31.109375 56 
z
" id="DejaVuSans-75"/>
      <path d="M 34.1875 63.1875 
L 20.796875 26.90625 
L 47.609375 26.90625 
z
M 28.609375 72.90625 
L 39.796875 72.90625 
L 67.578125 0 
L 57.328125 0 
L 50.6875 18.703125 
L 17.828125 18.703125 
L 11.1875 0 
L 0.78125 0 
z
" id="DejaVuSans-41"/>
      <path d="M 45.40625 27.984375 
Q 45.40625 37.75 41.375 43.109375 
Q 37.359375 48.484375 30.078125 48.484375 
Q 22.859375 48.484375 18.828125 43.109375 
Q 14.796875 37.75 14.796875 27.984375 
Q 14.796875 18.265625 18.828125 12.890625 
Q 22.859375 7.515625 30.078125 7.515625 
Q 37.359375 7.515625 41.375 12.890625 
Q 45.40625 18.265625 45.40625 27.984375 
z
M 54.390625 6.78125 
Q 54.390625 -7.171875 48.1875 -13.984375 
Q 42 -20.796875 29.203125 -20.796875 
Q 24.46875 -20.796875 20.265625 -20.09375 
Q 16.0625 -19.390625 12.109375 -17.921875 
L 12.109375 -9.1875 
Q 16.0625 -11.328125 19.921875 -12.34375 
Q 23.78125 -13.375 27.78125 -13.375 
Q 36.625 -13.375 41.015625 -8.765625 
Q 45.40625 -4.15625 45.40625 5.171875 
L 45.40625 9.625 
Q 42.625 4.78125 38.28125 2.390625 
Q 33.9375 0 27.875 0 
Q 17.828125 0 11.671875 7.65625 
Q 5.515625 15.328125 5.515625 27.984375 
Q 5.515625 40.671875 11.671875 48.328125 
Q 17.828125 56 27.875 56 
Q 33.9375 56 38.28125 53.609375 
Q 42.625 51.21875 45.40625 46.390625 
L 45.40625 54.6875 
L 54.390625 54.6875 
z
" id="DejaVuSans-67"/>
      <path d="M 18.3125 70.21875 
L 18.3125 54.6875 
L 36.8125 54.6875 
L 36.8125 47.703125 
L 18.3125 47.703125 
L 18.3125 18.015625 
Q 18.3125 11.328125 20.140625 9.421875 
Q 21.96875 7.515625 27.59375 7.515625 
L 36.8125 7.515625 
L 36.8125 0 
L 27.59375 0 
Q 17.1875 0 13.234375 3.875 
Q 9.28125 7.765625 9.28125 18.015625 
L 9.28125 47.703125 
L 2.6875 47.703125 
L 2.6875 54.6875 
L 9.28125 54.6875 
L 9.28125 70.21875 
z
" id="DejaVuSans-74"/>
      <path d="M 41.109375 46.296875 
Q 39.59375 47.171875 37.8125 47.578125 
Q 36.03125 48 33.890625 48 
Q 26.265625 48 22.1875 43.046875 
Q 18.109375 38.09375 18.109375 28.8125 
L 18.109375 0 
L 9.078125 0 
L 9.078125 54.6875 
L 18.109375 54.6875 
L 18.109375 46.1875 
Q 20.953125 51.171875 25.484375 53.578125 
Q 30.03125 56 36.53125 56 
Q 37.453125 56 38.578125 55.875 
Q 39.703125 55.765625 41.0625 55.515625 
z
" id="DejaVuSans-72"/>
      <path d="M 46.6875 72.90625 
L 73.1875 45.703125 
L 63.375 45.703125 
L 41.890625 64.984375 
L 20.40625 45.703125 
L 10.59375 45.703125 
L 37.109375 72.90625 
z
" id="DejaVuSans-5e"/>
     </defs>
     <g transform="translate(6.345312 230.680344)rotate(-90)scale(0.1 -0.1)">
      <use xlink:href="#DejaVuSans-56"/>
      <use x="68.298828" xlink:href="#DejaVuSans-6f"/>
      <use x="129.480469" xlink:href="#DejaVuSans-6c"/>
      <use x="157.263672" xlink:href="#DejaVuSans-75"/>
      <use x="220.642578" xlink:href="#DejaVuSans-6d"/>
      <use x="318.054688" xlink:href="#DejaVuSans-65"/>
      <use x="379.578125" xlink:href="#DejaVuSans-20"/>
      <use x="411.365234" xlink:href="#DejaVuSans-28"/>
      <use x="450.378906" xlink:href="#DejaVuSans-41"/>
      <use x="518.787109" xlink:href="#DejaVuSans-6e"/>
      <use x="582.166016" xlink:href="#DejaVuSans-67"/>
      <use x="645.642578" xlink:href="#DejaVuSans-73"/>
      <use x="697.742188" xlink:href="#DejaVuSans-74"/>
      <use x="736.951172" xlink:href="#DejaVuSans-72"/>
      <use x="778.033203" xlink:href="#DejaVuSans-6f"/>
      <use x="839.214844" xlink:href="#DejaVuSans-6d"/>
      <use x="936.626953" xlink:href="#DejaVuSans-5e"/>
      <use x="1020.416016" xlink:href="#DejaVuSans-33"/>
      <use x="1084.039062" xlink:href="#DejaVuSans-29"/>
     </g>
    </g>
   </g>
   <g id="line2d_12">
    <path clip-path="url(#pf37cd73cea)" d="M 57.6 53.568 
L 58.231942 177.111704 
L 58.863885 185.850544 
L 59.495827 205.851746 
L 60.12777 219.897273 
L 60.759712 145.561498 
L 61.391655 265.92119 
L 62.023597 185.23024 
L 62.65554 163.988621 
L 63.287482 168.935128 
L 63.919424 180.552616 
L 64.551367 174.452658 
L 65.183309 216.695599 
L 65.815252 161.015885 
L 66.447194 170.815629 
L 67.079137 188.184736 
L 67.711079 198.748972 
L 68.343022 172.724333 
L 68.974964 199.893761 
L 69.606906 197.974085 
L 70.238849 209.166567 
L 70.870791 201.921578 
L 71.502734 178.649592 
L 72.134676 210.682268 
L 72.766619 173.138078 
L 73.398561 210.755517 
L 74.030504 191.363887 
L 74.662446 185.628777 
L 75.294388 177.240154 
L 75.926331 162.196047 
L 76.558273 235.906946 
L 77.190216 201.093511 
L 77.822158 199.485503 
L 78.454101 205.921723 
L 79.086043 207.482567 
L 79.717986 154.984025 
L 80.349928 199.848763 
L 80.981871 192.35573 
L 81.613813 250.329016 
L 82.245755 200.530285 
L 82.877698 186.932624 
L 83.50964 190.850424 
L 84.141583 205.416922 
L 84.773525 210.467382 
L 85.405468 225.02594 
L 86.03741 227.941838 
L 86.669353 230.14681 
L 87.301295 233.672617 
L 87.933237 181.33145 
L 88.56518 198.573984 
L 89.197122 188.689873 
L 89.829065 227.708857 
L 90.461007 213.396853 
L 91.09295 187.054337 
L 91.724892 178.709654 
L 92.356835 187.106025 
L 92.988777 201.455087 
L 93.620719 228.099934 
L 94.252662 190.975457 
L 94.884604 171.192702 
L 95.516547 172.068655 
L 96.148489 177.783937 
L 96.780432 234.098538 
L 97.412374 223.541232 
L 98.044317 202.42147 
L 98.676259 198.377386 
L 99.308201 274.367468 
L 99.940144 243.024351 
L 100.572086 197.66078 
L 101.204029 164.68795 
L 101.835971 213.401858 
L 102.467914 205.636861 
L 103.099856 221.252376 
L 103.731799 203.696009 
L 104.363741 153.851942 
L 104.995683 210.592319 
L 105.627626 181.171333 
L 106.891511 176.386098 
L 107.523453 211.72652 
L 108.155396 218.022595 
L 108.787338 220.91111 
L 109.419281 198.154079 
L 110.051223 209.531367 
L 110.683165 207.694131 
L 111.315108 221.277354 
L 111.94705 230.43634 
L 112.578993 192.294031 
L 113.210935 249.727144 
L 113.842878 215.358496 
L 114.47482 211.804774 
L 115.106763 220.691363 
L 115.738705 241.396129 
L 116.370647 225.007652 
L 117.00259 192.003972 
L 117.634532 183.52439 
L 118.266475 251.070455 
L 118.898417 202.22983 
L 119.53036 178.738 
L 120.162302 198.788966 
L 121.426187 226.129436 
L 122.058129 223.231633 
L 122.690072 259.773345 
L 123.322014 236.790311 
L 123.953957 244.401351 
L 124.585899 206.541401 
L 125.217842 196.392546 
L 125.849784 207.459273 
L 126.481727 245.259401 
L 127.113669 216.407513 
L 127.745612 244.457851 
L 128.377554 214.86563 
L 129.009496 202.224825 
L 129.641439 263.756356 
L 130.273381 206.581395 
L 130.905324 170.780593 
L 131.537266 227.367687 
L 132.169209 190.500398 
L 132.801151 223.820896 
L 133.433094 158.438413 
L 134.065036 235.461101 
L 134.696978 176.105857 
L 135.328921 201.48507 
L 135.960863 187.276104 
L 136.592806 207.892365 
L 137.224748 209.727916 
L 137.856691 198.564021 
L 138.488633 221.483769 
L 139.120576 208.25216 
L 139.752518 237.720214 
L 140.38446 245.186249 
L 141.016403 193.937509 
L 141.648345 155.566791 
L 142.280288 251.180184 
L 142.91223 231.890631 
L 143.544173 199.260559 
L 144.176115 228.687368 
L 144.808058 169.65929 
L 145.44 182.452128 
L 146.071942 209.86782 
L 146.703885 247.698749 
L 147.335827 249.723823 
L 147.96777 188.603197 
L 148.599712 260.687367 
L 149.231655 244.251677 
L 149.863597 196.700846 
L 150.49554 226.259234 
L 151.127482 215.21864 
L 151.759424 243.539883 
L 152.391367 222.191231 
L 153.023309 249.323169 
L 153.655252 245.43901 
L 154.287194 254.23719 
L 154.919137 177.216813 
L 155.551079 247.860022 
L 156.183022 247.534156 
L 156.814964 191.173835 
L 157.446906 204.742234 
L 158.078849 201.876628 
L 158.710791 214.221166 
L 159.342734 195.98756 
L 159.974676 205.546912 
L 160.606619 246.218902 
L 161.238561 208.635248 
L 161.870504 252.428638 
L 162.502446 275.113094 
L 163.134388 196.957505 
L 163.766331 172.495731 
L 164.398273 220.771254 
L 165.030216 236.231368 
L 165.662158 221.052602 
L 166.294101 239.681328 
L 166.926043 193.389154 
L 167.557986 237.838317 
L 168.189928 231.825757 
L 168.821871 213.18702 
L 169.453813 243.598117 
L 170.085755 189.300071 
L 170.717698 254.37849 
L 171.34964 226.523882 
L 171.981583 212.527541 
L 172.613525 209.682918 
L 173.245468 258.588466 
L 173.87741 182.225355 
L 174.509353 232.020429 
L 175.141295 234.547753 
L 175.773237 201.253436 
L 176.40518 208.392064 
L 177.037122 177.285201 
L 177.669065 210.767212 
L 178.301007 228.594195 
L 178.93295 178.255964 
L 179.564892 219.897273 
L 180.196835 222.166301 
L 180.828777 177.845636 
L 181.460719 191.47891 
L 182.092662 237.269412 
L 182.724604 207.529201 
L 183.356547 222.93036 
L 183.988489 233.05366 
L 184.620432 256.530955 
L 185.252374 236.272949 
L 185.884317 242.583655 
L 186.516259 225.020935 
L 187.148201 182.718942 
L 187.780144 213.127103 
L 188.412086 212.154511 
L 189.044029 217.32163 
L 189.675971 217.957672 
L 190.307914 221.360565 
L 190.939856 209.113291 
L 191.571799 201.818299 
L 192.203741 225.586856 
L 192.835683 228.947012 
L 193.467626 204.717256 
L 194.099568 237.124695 
L 194.731511 212.39269 
L 195.363453 244.193444 
L 195.995396 226.039584 
L 196.627338 225.180763 
L 197.259281 174.596171 
L 197.891223 250.360587 
L 198.523165 192.04897 
L 199.155108 252.915728 
L 199.78705 278.221596 
L 200.418993 285.481311 
L 201.050935 269.064198 
L 201.682878 238.789781 
L 202.31482 245.690087 
L 202.946763 207.810742 
L 203.578705 243.283801 
L 204.210647 228.993598 
L 204.84259 186.2807 
L 205.474532 212.988883 
L 206.106475 204.42739 
L 206.738417 257.478329 
L 207.37036 233.810693 
L 208.002302 249.589165 
L 208.634245 225.703371 
L 209.898129 255.684985 
L 210.530072 244.985031 
L 211.162014 248.82602 
L 211.793957 214.817311 
L 212.425899 268.808405 
L 213.057842 244.11697 
L 213.689784 203.166182 
L 214.321727 245.295977 
L 214.953669 222.281132 
L 215.585612 225.819885 
L 216.849496 252.879152 
L 217.481439 257.657793 
L 218.113381 217.213442 
L 218.745324 219.322882 
L 219.377266 226.400726 
L 220.009209 208.24215 
L 220.641151 252.626487 
L 221.273094 266.961159 
L 221.905036 209.652935 
L 222.536978 207.487572 
L 223.168921 241.790335 
L 223.800863 240.326707 
L 224.432806 221.132492 
L 225.064748 241.645618 
L 225.696691 231.042014 
L 226.328633 166.600551 
L 226.960576 218.455495 
L 227.592518 233.724209 
L 228.22446 257.817333 
L 228.856403 208.223814 
L 229.488345 238.322375 
L 230.120288 249.68229 
L 230.75223 219.35787 
L 231.384173 211.12359 
L 232.016115 236.109896 
L 232.648058 251.996413 
L 233.28 245.640227 
L 233.911942 210.867123 
L 234.543885 206.493082 
L 235.175827 198.115722 
L 235.80777 224.723031 
L 237.071655 264.917701 
L 237.703597 207.276007 
L 238.33554 211.689848 
L 238.967482 197.09919 
L 239.599424 239.872631 
L 240.231367 198.770629 
L 240.863309 170.395147 
L 241.495252 240.574511 
L 242.127194 191.303873 
L 242.759137 237.259402 
L 243.391079 231.41976 
L 244.023022 229.805688 
L 244.654964 295.488 
L 245.286906 233.268305 
L 245.918849 202.073226 
L 246.550791 220.964386 
L 247.182734 213.613375 
L 247.814676 212.062926 
L 248.446619 199.868784 
L 249.078561 198.097385 
L 249.710504 206.526434 
L 250.342446 241.695525 
L 250.974388 178.743006 
L 251.606331 242.859709 
L 252.238273 209.727916 
L 252.870216 210.50906 
L 253.502158 223.807565 
L 254.134101 214.977188 
L 254.766043 266.989409 
L 255.397986 222.03145 
L 256.029928 216.898741 
L 256.661871 230.0353 
L 257.293813 230.777461 
L 257.925755 167.29141 
L 258.557698 220.388358 
L 259.18964 245.884663 
L 259.821583 223.184999 
L 260.453525 180.437546 
L 261.085468 209.139953 
L 261.71741 230.361455 
L 262.349353 255.93096 
L 262.981295 194.835889 
L 263.613237 224.962701 
L 264.24518 264.950908 
L 264.877122 235.900304 
L 265.509065 213.918113 
L 266.141007 223.229949 
L 266.77295 153.512986 
L 267.404892 226.017927 
L 268.036835 262.659742 
L 268.668777 222.291142 
L 269.300719 202.64473 
L 269.932662 216.692278 
L 270.564604 216.392545 
L 271.196547 212.679092 
L 271.828489 280.202345 
L 272.460432 232.037081 
L 273.092374 203.985875 
L 274.356259 217.371586 
L 274.988201 213.530115 
L 276.252086 208.262122 
L 276.884029 197.552447 
L 277.515971 232.09695 
L 278.147914 244.111965 
L 279.411799 192.677408 
L 280.043741 195.947567 
L 280.675683 223.068484 
L 281.307626 222.707293 
L 281.939568 228.627451 
L 282.571511 210.40246 
L 283.203453 248.857639 
L 283.835396 231.028731 
L 284.467338 260.413141 
L 285.099281 233.324902 
L 285.731223 260.207111 
L 286.363165 191.657267 
L 286.995108 234.487835 
L 287.62705 237.765117 
L 288.258993 206.288207 
L 288.890935 228.609163 
L 289.522878 233.900545 
L 290.15482 233.69259 
L 290.786763 272.87275 
L 291.418705 230.502899 
L 292.050647 220.99769 
L 292.68259 220.922756 
L 293.314532 267.045862 
L 293.946475 227.838655 
L 294.578417 237.765117 
L 295.21036 243.443438 
L 295.842302 205.893376 
L 296.474245 254.897103 
L 297.106187 283.98409 
L 297.738129 232.579468 
L 298.370072 201.275093 
L 299.002014 212.923912 
L 299.633957 232.779146 
L 300.265899 229.664195 
L 300.897842 216.763842 
L 301.529784 207.262676 
L 302.161727 260.919963 
L 302.793669 271.818102 
L 303.425612 240.015664 
L 304.057554 270.783379 
L 304.689496 254.873858 
L 305.321439 251.253337 
L 305.953381 239.76117 
L 306.585324 224.63982 
L 307.217266 264.15677 
L 307.849209 242.285943 
L 308.481151 258.93416 
L 309.113094 258.227853 
L 309.745036 230.829053 
L 310.376978 280.20735 
L 311.008921 253.381161 
L 311.640863 278.945517 
L 312.272806 219.772385 
L 312.904748 265.39454 
L 313.536691 203.299493 
L 314.168633 265.017371 
L 314.800576 228.431094 
L 315.432518 240.98532 
L 316.06446 231.09529 
L 316.696403 239.995691 
L 317.328345 238.247538 
L 317.960288 248.250762 
L 318.59223 231.080274 
L 319.224173 294.6916 
L 319.856115 232.163509 
L 320.488058 285.210791 
L 321.12 258.409002 
L 321.12 258.409002 
" style="fill:none;stroke:#1f77b4;stroke-linecap:square;stroke-width:1.5;"/>
   </g>
   <g id="patch_3">
    <path d="M 57.6 307.584 
L 57.6 41.472 
" style="fill:none;stroke:#000000;stroke-linecap:square;stroke-linejoin:miter;stroke-width:0.8;"/>
   </g>
   <g id="patch_4">
    <path d="M 321.12 307.584 
L 321.12 41.472 
" style="fill:none;stroke:#000000;stroke-linecap:square;stroke-linejoin:miter;stroke-width:0.8;"/>
   </g>
   <g id="patch_5">
    <path d="M 57.6 307.584 
L 321.12 307.584 
" style="fill:none;stroke:#000000;stroke-linecap:square;stroke-linejoin:miter;stroke-width:0.8;"/>
   </g>
   <g id="patch_6">
    <path d="M 57.6 41.472 
L 321.12 41.472 
" style="fill:none;stroke:#000000;stroke-linecap:square;stroke-linejoin:miter;stroke-width:0.8;"/>
   </g>
  </g>
  <g id="axes_2">
   <g id="patch_7">
    <path d="M 328.32 307.584 
L 414.72 307.584 
L 414.72 41.472 
L 328.32 41.472 
z
" style="fill:#ffffff;"/>
   </g>
   <g id="patch_8">
    <path clip-path="url(#p842e48f3e4)" d="M 328.32 291.8592 
L 336.185546 291.8592 
L 336.185546 274.9248 
L 328.32 274.9248 
z
" style="fill:#0000ff;"/>
   </g>
   <g id="patch_9">
    <path clip-path="url(#p842e48f3e4)" d="M 328.32 267.6672 
L 361.597311 267.6672 
L 361.597311 250.7328 
L 328.32 250.7328 
z
" style="fill:#0000ff;"/>
   </g>
   <g id="patch_10">
    <path clip-path="url(#p842e48f3e4)" d="M 328.32 243.4752 
L 403.34521 243.4752 
L 403.34521 226.5408 
L 328.32 226.5408 
z
" style="fill:#0000ff;"/>
   </g>
   <g id="patch_11">
    <path clip-path="url(#p842e48f3e4)" d="M 328.32 219.2832 
L 410.605714 219.2832 
L 410.605714 202.3488 
L 328.32 202.3488 
z
" style="fill:#0000ff;"/>
   </g>
   <g id="patch_12">
    <path clip-path="url(#p842e48f3e4)" d="M 328.32 195.0912 
L 368.252773 195.0912 
L 368.252773 178.1568 
L 328.32 178.1568 
z
" style="fill:#0000ff;"/>
   </g>
   <g id="patch_13">
    <path clip-path="url(#p842e48f3e4)" d="M 328.32 170.8992 
L 341.630924 170.8992 
L 341.630924 153.9648 
L 328.32 153.9648 
z
" style="fill:#0000ff;"/>
   </g>
   <g id="patch_14">
    <path clip-path="url(#p842e48f3e4)" d="M 328.32 146.7072 
L 328.925042 146.7072 
L 328.925042 129.7728 
L 328.32 129.7728 
z
" style="fill:#0000ff;"/>
   </g>
   <g id="patch_15">
    <path clip-path="url(#p842e48f3e4)" d="M 328.32 122.5152 
L 328.32 122.5152 
L 328.32 105.5808 
L 328.32 105.5808 
z
" style="fill:#0000ff;"/>
   </g>
   <g id="patch_16">
    <path clip-path="url(#p842e48f3e4)" d="M 328.32 98.3232 
L 328.32 98.3232 
L 328.32 81.3888 
L 328.32 81.3888 
z
" style="fill:#0000ff;"/>
   </g>
   <g id="patch_17">
    <path clip-path="url(#p842e48f3e4)" d="M 328.32 74.1312 
L 328.925042 74.1312 
L 328.925042 57.1968 
L 328.32 57.1968 
z
" style="fill:#0000ff;"/>
   </g>
   <g id="matplotlib.axis_3">
    <g id="ytick_7">
     <g id="line2d_13">
      <defs>
       <path d="M 0 0 
L -3.5 0 
" id="m2a163ba106" style="stroke:#888888;stroke-width:0.8;"/>
      </defs>
      <g>
       <use style="fill:#888888;stroke:#888888;stroke-width:0.8;" x="328.32" xlink:href="#m2a163ba106" y="282.903647"/>
      </g>
     </g>
    </g>
    <g id="ytick_8">
     <g id="line2d_14">
      <g>
       <use style="fill:#888888;stroke:#888888;stroke-width:0.8;" x="328.32" xlink:href="#m2a163ba106" y="234.77698"/>
      </g>
     </g>
    </g>
    <g id="ytick_9">
     <g id="line2d_15">
      <g>
       <use style="fill:#888888;stroke:#888888;stroke-width:0.8;" x="328.32" xlink:href="#m2a163ba106" y="186.650313"/>
      </g>
     </g>
    </g>
    <g id="ytick_10">
     <g id="line2d_16">
      <g>
       <use style="fill:#888888;stroke:#888888;stroke-width:0.8;" x="328.32" xlink:href="#m2a163ba106" y="138.523647"/>
      </g>
     </g>
    </g>
    <g id="ytick_11">
     <g id="line2d_17">
      <g>
       <use style="fill:#888888;stroke:#888888;stroke-width:0.8;" x="328.32" xlink:href="#m2a163ba106" y="90.39698"/>
      </g>
     </g>
    </g>
    <g id="ytick_12">
     <g id="line2d_18">
      <g>
       <use style="fill:#888888;stroke:#888888;stroke-width:0.8;" x="328.32" xlink:href="#m2a163ba106" y="42.270313"/>
      </g>
     </g>
    </g>
   </g>
   <g id="patch_18">
    <path d="M 328.32 307.584 
L 328.32 41.472 
" style="fill:none;stroke:#888888;stroke-linecap:square;stroke-linejoin:miter;stroke-width:0.8;"/>
   </g>
   <g id="patch_19">
    <path d="M 414.72 307.584 
L 414.72 41.472 
" style="fill:none;stroke:#888888;stroke-linecap:square;stroke-linejoin:miter;stroke-width:0.8;"/>
   </g>
   <g id="patch_20">
    <path d="M 328.32 307.584 
L 414.72 307.584 
" style="fill:none;stroke:#888888;stroke-linecap:square;stroke-linejoin:miter;stroke-width:0.8;"/>
   </g>
   <g id="patch_21">
    <path d="M 328.32 41.472 
L 414.72 41.472 
" style="fill:none;stroke:#888888;stroke-linecap:square;stroke-linejoin:miter;stroke-width:0.8;"/>
   </g>
  </g>
 </g>
 <defs>
  <clipPath id="pf37cd73cea">
   <rect height="266.112" width="263.52" x="57.6" y="41.472"/>
  </clipPath>
  <clipPath id="p842e48f3e4">
   <rect height="266.112" width="86.4" x="328.32" y="41.472"/>
  </clipPath>
 </defs>
</svg>
