#     Frame      Time       Volume      Density CohesiveEnergy SolubilParam   SolubilVdw   SolubilEle    HeatOfVap
#    Number      nsec   Angstrom^3       g/cm^3     kcal/mol    MPa^(1/2)    MPa^(1/2)    MPa^(1/2)     kcal/mol
         0      0.000   227331.278        1.141       30.062       21.433       19.329        9.261       30.738
         1      0.005   229185.759        1.132       29.431       21.121       19.046        9.129       30.106
         2      0.010   229738.624        1.129       29.251       21.031       18.983        9.054       29.927
         3      0.014   230497.060        1.125       29.138       20.956       18.903        9.046       29.814
         4      0.019   229762.984        1.129       29.254       21.031       18.995        9.029       29.930
         5      0.024   230467.509        1.125       29.040       20.922       18.906        8.961       29.716
         6      0.029   230976.013        1.123       29.020       20.892       18.868        8.971       29.696
         7      0.034   230817.496        1.124       29.003       20.893       18.889        8.928       29.679
         8      0.038   231421.578        1.121       28.866       20.816       18.834        8.865       29.541
         9      0.043   230636.259        1.125       28.968       20.888       18.884        8.928       29.643
        10      0.048   231571.672        1.120       28.850       20.804       18.796        8.918       29.526
        11      0.053   230907.719        1.123       29.029       20.898       18.869        8.982       29.704
        12      0.058   231077.918        1.122       29.046       20.897       18.862        8.994       29.721
        13      0.062   231184.326        1.122       28.895       20.837       18.800        8.987       29.571
        14      0.067   231280.369        1.121       29.006       20.873       18.829        9.008       29.682
        15      0.072   232075.212        1.118       28.711       20.731       18.721        8.906       29.387
        16      0.077   231185.374        1.122       28.982       20.869       18.829        8.999       29.658
        17      0.082   230863.134        1.123       28.968       20.878       18.870        8.934       29.643
        18      0.086   231281.819        1.121       28.999       20.870       18.855        8.947       29.674
        19      0.091   231669.544        1.120       28.825       20.790       18.811        8.853       29.501
        20      0.096   230491.119        1.125       28.998       20.906       18.896        8.944       29.673
        21      0.101   231181.359        1.122       28.777       20.795       18.789        8.910       29.453
        22      0.106   231501.625        1.120       28.817       20.795       18.782        8.926       29.493
        23      0.110   231035.116        1.123       28.815       20.815       18.800        8.936       29.491
        24      0.115   231627.143        1.120       28.943       20.835       18.840        8.896       29.619
        25      0.120   231310.462        1.121       28.842       20.813       18.809        8.910       29.518
        26      0.125   231793.700        1.119       28.696       20.738       18.741        8.880       29.372
        27      0.130   231472.447        1.120       28.796       20.789       18.813        8.846       29.472
        28      0.134   231084.912        1.122       28.914       20.849       18.839        8.931       29.590
        29      0.139   231862.670        1.119       28.789       20.769       18.772        8.886       29.465
        30      0.144   231348.533        1.121       28.636       20.736       18.769        8.817       29.312
        31      0.149   232873.562        1.114       28.481       20.613       18.653        8.771       29.157
        32      0.154   231905.675        1.118       28.587       20.694       18.721        8.819       29.263
        33      0.158   231609.742        1.120       28.785       20.779       18.769        8.915       29.461
        34      0.163   231903.677        1.118       28.701       20.735       18.756        8.841       29.377
        35      0.168   230213.493        1.127       28.886       20.878       18.911        8.847       29.562
        36      0.173   230794.505        1.124       28.887       20.852       18.847        8.921       29.563
        37      0.178   230660.728        1.124       29.085       20.929       18.908        8.974       29.760
        38      0.182   230494.770        1.125       28.792       20.831       18.837        8.895       29.468
        39      0.187   231358.820        1.121       28.783       20.789       18.811        8.852       29.459
        40      0.192   232901.212        1.114       28.573       20.645       18.680        8.790       29.249
        41      0.197   232229.457        1.117       28.656       20.704       18.710        8.865       29.332
        42      0.202   232215.924        1.117       28.704       20.722       18.708        8.912       29.380
        43      0.206   231621.514        1.120       28.629       20.722       18.761        8.798       29.305
        44      0.211   232062.676        1.118       28.710       20.731       18.758        8.828       29.386
        45      0.216   230956.824        1.123       28.974       20.876       18.881        8.906       29.650
        46      0.221   232289.524        1.117       28.710       20.721       18.770        8.778       29.386
        47      0.226   231476.221        1.120       28.747       20.771       18.803        8.826       29.423
        48      0.230   231058.694        1.122       28.832       20.820       18.838        8.865       29.507
        49      0.235   232233.269        1.117       28.586       20.679       18.718        8.788       29.262
        50      0.240   232618.904        1.115       28.479       20.623       18.690        8.717       29.155
        51      0.245   231899.079        1.118       28.561       20.685       18.756        8.721       29.236
        52      0.250   232045.068        1.118       28.602       20.693       18.740        8.775       29.278
        53      0.254   233642.834        1.110       28.389       20.545       18.594        8.738       29.065
        54      0.259   232152.895        1.117       28.593       20.685       18.740        8.757       29.269
        55      0.264   231592.530        1.120       28.701       20.749       18.770        8.843       29.377
        56      0.269   232393.209        1.116       28.534       20.653       18.727        8.709       29.210
        57      0.274   231905.517        1.118       28.699       20.734       18.780        8.789       29.375
        58      0.278   231604.072        1.120       28.682       20.742       18.755        8.858       29.358
        59      0.283   231696.109        1.119       28.702       20.745       18.763        8.849       29.378
        60      0.288   231857.383        1.119       28.630       20.711       18.742        8.815       29.305
        61      0.293   231299.387        1.121       28.682       20.755       18.788        8.821       29.357
        62      0.298   232461.607        1.116       28.522       20.646       18.684        8.783       29.198
        63      0.302   231720.766        1.119       28.753       20.762       18.792        8.827       29.428
        64      0.307   231322.341        1.121       28.679       20.753       18.763        8.869       29.355
        65      0.312   232382.146        1.116       28.592       20.674       18.737        8.739       29.268
        66      0.317   232174.492        1.117       28.508       20.653       18.682        8.806       29.183
        67      0.322   232006.273        1.118       28.820       20.773       18.772        8.895       29.495
        68      0.326   232251.839        1.117       28.684       20.713       18.759        8.784       29.360
        69      0.331   231950.839        1.118       28.619       20.704       18.730        8.822       29.295
        70      0.336   232392.361        1.116       28.599       20.677       18.709        8.803       29.275
        71      0.341   232297.119        1.116       28.650       20.699       18.711        8.851       29.325
        72      0.346   231954.388        1.118       28.703       20.734       18.785        8.775       29.379
        73      0.350   232111.169        1.117       28.562       20.675       18.725        8.767       29.237
        74      0.355   232378.072        1.116       28.538       20.655       18.691        8.792       29.214
        75      0.360   232143.145        1.117       28.717       20.730       18.745        8.852       29.392
        76      0.365   232735.652        1.114       28.591       20.658       18.694        8.792       29.267
        77      0.370   232971.325        1.113       28.429       20.589       18.641        8.744       29.105
        78      0.374   232355.094        1.116       28.668       20.703       18.721        8.839       29.344
        79      0.379   232346.391        1.116       28.551       20.661       18.737        8.707       29.226
        80      0.384   232249.436        1.117       28.703       20.720       18.715        8.893       29.378
        81      0.389   232477.958        1.116       28.697       20.708       18.746        8.797       29.373
        82      0.394   231260.018        1.121       28.610       20.731       18.755        8.834       29.286
        83      0.398   231344.746        1.121       28.778       20.788       18.831        8.806       29.454
        84      0.403   231863.260        1.119       28.740       20.751       18.783        8.821       29.416
        85      0.408   231115.863        1.122       28.756       20.790       18.795        8.888       29.432
        86      0.413   231061.333        1.122       28.923       20.853       18.861        8.896       29.599
        87      0.418   232173.629        1.117       28.628       20.697       18.712        8.843       29.304
        88      0.422   232524.896        1.115       28.622       20.679       18.711        8.805       29.298
        89      0.427   232909.990        1.114       28.626       20.663       18.674        8.847       29.302
        90      0.432   232707.019        1.115       28.421       20.598       18.655        8.733       29.096
        91      0.437   233802.728        1.109       28.418       20.549       18.590        8.756       29.094
        92      0.442   233103.344        1.113       28.353       20.556       18.633        8.680       29.029
        93      0.446   233095.931        1.113       28.421       20.581       18.626        8.755       29.096
        94      0.451   233858.688        1.109       28.422       20.548       18.613        8.703       29.097
        95      0.456   233167.179        1.112       28.409       20.573       18.597        8.799       29.084
        96      0.461   232312.712        1.116       28.569       20.669       18.725        8.751       29.244
        97      0.466   233037.602        1.113       28.566       20.636       18.654        8.824       29.241
        98      0.470   232700.423        1.115       28.675       20.690       18.690        8.874       29.351
        99      0.475   233079.525        1.113       28.399       20.574       18.584        8.827       29.075
       100      0.480   233424.603        1.111       28.533       20.607       18.624        8.819       29.209
       101      0.485   233500.825        1.111       28.427       20.565       18.592        8.791       29.103
       102      0.490   232950.124        1.113       28.439       20.594       18.668        8.695       29.114
       103      0.494   233951.855        1.109       28.342       20.515       18.585        8.686       29.018
       104      0.499   233446.294        1.111       28.393       20.555       18.582        8.789       29.069
       105      0.504   232544.141        1.115       28.512       20.638       18.673        8.790       29.187
       106      0.509   233201.662        1.112       28.459       20.590       18.618        8.794       29.135
       107      0.514   232591.375        1.115       28.568       20.657       18.704        8.767       29.244
       108      0.518   232936.001        1.113       28.308       20.547       18.645        8.634       28.983
       109      0.523   233230.350        1.112       28.372       20.557       18.630        8.691       29.048
       110      0.528   233162.032        1.112       28.363       20.557       18.633        8.683       29.038
       111      0.533   233686.275        1.110       28.231       20.486       18.543        8.709       28.907
       112      0.538   234125.005        1.108       28.112       20.424       18.499        8.656       28.788
       113      0.542   233374.948        1.111       28.372       20.551       18.610        8.718       29.047
       114      0.547   234076.349        1.108       28.377       20.522       18.515        8.850       29.053
       115      0.552   232878.460        1.114       28.293       20.544       18.622        8.677       28.969
       116      0.557   233232.858        1.112       28.339       20.545       18.639        8.641       29.014
       117      0.562   233297.352        1.112       28.306       20.531       18.586        8.721       28.982
       118      0.566   232550.000        1.115       28.440       20.612       18.675        8.725       29.116
       119      0.571   233733.678        1.110       28.453       20.564       18.612        8.745       29.128
       120      0.576   233664.380        1.110       28.291       20.509       18.562        8.721       28.966
       121      0.581   232237.484        1.117       28.512       20.652       18.668        8.833       29.188
       122      0.586   233179.250        1.112       28.592       20.639       18.684        8.768       29.268
       123      0.590   233802.483        1.109       28.443       20.558       18.573        8.813       29.119
       124      0.595   232653.507        1.115       28.419       20.600       18.647        8.754       29.095
       125      0.600   233441.373        1.111       28.385       20.553       18.605        8.734       29.061
       126      0.605   232572.444        1.115       28.645       20.685       18.677        8.890       29.321
       127      0.610   232792.463        1.114       28.542       20.638       18.682        8.770       29.218
       128      0.614   233270.551        1.112       28.459       20.587       18.646        8.727       29.135
       129      0.619   233015.445        1.113       28.404       20.578       18.620        8.762       29.080
       130      0.624   232673.392        1.115       28.615       20.670       18.705        8.797       29.291
       131      0.629   233037.515        1.113       28.348       20.557       18.651        8.644       29.024
       132      0.634   232768.636        1.114       28.473       20.614       18.685        8.706       29.148
       133      0.638   232882.452        1.114       28.393       20.580       18.649        8.703       29.069
       134      0.643   233157.560        1.112       28.406       20.573       18.657        8.670       29.082
       135      0.648   233274.806        1.112       28.473       20.592       18.638        8.756       29.149
       136      0.653   232446.223        1.116       28.495       20.637       18.676        8.778       29.171
       137      0.658   233279.565        1.112       28.358       20.550       18.600        8.738       29.034
       138      0.662   233015.057        1.113       28.543       20.628       18.686        8.740       29.218
       139      0.667   233187.759        1.112       28.403       20.570       18.636        8.709       29.079
       140      0.672   232083.292        1.118       28.440       20.633       18.668        8.786       29.115
       141      0.677   233299.143        1.112       28.338       20.542       18.576        8.770       29.014
       142      0.682   233912.083        1.109       28.345       20.517       18.550        8.768       29.020
       143      0.686   233542.225        1.111       28.336       20.531       18.602        8.687       29.012
       144      0.691   233071.638        1.113       28.444       20.590       18.646        8.734       29.120
       145      0.696   233265.690        1.112       28.281       20.523       18.583        8.710       28.956
       146      0.701   233920.349        1.109       28.218       20.471       18.516        8.731       28.893
       147      0.706   232965.920        1.113       28.503       20.616       18.627        8.835       29.178
       148      0.710   232251.492        1.117       28.560       20.669       18.671        8.865       29.236
       149      0.715   231981.106        1.118       28.551       20.677       18.736        8.748       29.227
       150      0.720   234184.039        1.107       28.319       20.496       18.576        8.663       28.995
       151      0.725   232863.230        1.114       28.536       20.633       18.645        8.836       29.212
       152      0.730   233393.907        1.111       28.368       20.548       18.614        8.703       29.043
       153      0.734   233254.855        1.112       28.393       20.564       18.585        8.802       29.068
       154      0.739   232753.109        1.114       28.398       20.588       18.625        8.774       29.074
       155      0.744   233110.092        1.113       28.417       20.579       18.624        8.754       29.092
       156      0.749   232993.075        1.113       28.276       20.533       18.576        8.749       28.952
       157      0.754   232751.106        1.114       28.422       20.597       18.655        8.731       29.098
       158      0.758   232951.955        1.113       28.519       20.623       18.680        8.737       29.194
       159      0.763   233020.908        1.113       28.411       20.580       18.641        8.722       29.086
       160      0.768   233892.138        1.109       28.223       20.474       18.534        8.700       28.899
       161      0.773   233493.275        1.111       28.364       20.543       18.625        8.667       29.039
       162      0.778   233180.504        1.112       28.361       20.555       18.642        8.660       29.036
       163      0.782   232809.173        1.114       28.513       20.627       18.669        8.772       29.189
       164      0.787   233136.521        1.112       28.485       20.602       18.646        8.763       29.161
       165      0.792   233114.272        1.113       28.387       20.568       18.593        8.793       29.063
       166      0.797   232880.751        1.114       28.495       20.617       18.659        8.770       29.171
       167      0.802   232672.570        1.115       28.584       20.659       18.669        8.847       29.260
       168      0.806   232506.904        1.115       28.525       20.645       18.701        8.745       29.200
       169      0.811   232883.143        1.114       28.484       20.613       18.642        8.796       29.160
       170      0.816   232413.442        1.116       28.563       20.662       18.726        8.733       29.239
       171      0.821   232977.119        1.113       28.330       20.553       18.650        8.638       29.006
       172      0.826   233936.681        1.109       28.468       20.561       18.604        8.753       29.143
       173      0.830   232772.469        1.114       28.471       20.613       18.636        8.809       29.147
       174      0.835   232002.290        1.118       28.579       20.687       18.758        8.722       29.255
       175      0.840   232873.532        1.114       28.509       20.623       18.655        8.792       29.185
       176      0.845   232288.804        1.117       28.725       20.727       18.739        8.858       29.401
       177      0.850   232416.736        1.116       28.555       20.660       18.686        8.811       29.231
       178      0.854   232821.405        1.114       28.400       20.586       18.595        8.831       29.076
       179      0.859   232528.149        1.115       28.530       20.646       18.655        8.846       29.206
       180      0.864   231910.330        1.118       28.665       20.722       18.755        8.811       29.340
       181      0.869   233714.583        1.110       28.222       20.482       18.529        8.728       28.897
       182      0.874   232163.334        1.117       28.582       20.681       18.714        8.802       29.258
       183      0.878   233925.406        1.109       28.418       20.543       18.591        8.740       29.094
       184      0.883   232642.016        1.115       28.483       20.623       18.643        8.818       29.158
       185      0.888   233036.073        1.113       28.354       20.559       18.590        8.780       29.030
       186      0.893   233007.937        1.113       28.348       20.558       18.592        8.774       29.024
       187      0.898   234284.180        1.107       28.208       20.452       18.525        8.665       28.884
       188      0.902   233236.783        1.112       28.342       20.546       18.598        8.732       29.017
       189      0.907   233926.231        1.109       28.449       20.555       18.574        8.803       29.125
       190      0.912   233013.788        1.113       28.348       20.558       18.612        8.731       29.023
       191      0.917   232899.887        1.114       28.323       20.554       18.580        8.788       28.999
       192      0.922   233478.408        1.111       28.363       20.543       18.604        8.712       29.039
       193      0.926   233693.654        1.110       28.395       20.545       18.591        8.745       29.070
       194      0.931   231469.505        1.120       28.583       20.712       18.757        8.784       29.259
       195      0.936   232301.059        1.116       28.513       20.649       18.692        8.776       29.188
       196      0.941   232726.275        1.114       28.469       20.614       18.682        8.714       29.144
       197      0.946   232525.428        1.115       28.477       20.627       18.683        8.741       29.153
       198      0.950   232567.361        1.115       28.323       20.569       18.657        8.660       28.999
       199      0.955   233065.842        1.113       28.309       20.541       18.593        8.733       28.984
       200      0.960   232350.837        1.116       28.399       20.606       18.659        8.743       29.075
       201      0.965   233251.538        1.112       28.163       20.481       18.578        8.621       28.839
       202      0.970   232601.540        1.115       28.469       20.620       18.724        8.637       29.145
       203      0.974   232719.478        1.114       28.460       20.612       18.654        8.767       29.136
       204      0.979   232656.399        1.115       28.448       20.610       18.673        8.724       29.124
       205      0.984   233933.369        1.109       28.198       20.463       18.538        8.666       28.874
       206      0.989   232812.761        1.114       28.358       20.571       18.611        8.763       29.034
       207      0.994   232011.317        1.118       28.473       20.648       18.711        8.731       29.148
       208      0.998   233508.548        1.111       28.377       20.547       18.599        8.732       29.053
       209      1.003   233258.504        1.112       28.215       20.499       18.589        8.640       28.890
       210      1.008   233522.347        1.111       28.262       20.505       18.573        8.688       28.938
       211      1.013   232993.117        1.113       28.472       20.604       18.669        8.717       29.148
       212      1.018   233154.807        1.112       28.249       20.516       18.631        8.589       28.925
       213      1.022   233469.661        1.111       28.285       20.515       18.590        8.677       28.960
       214      1.027   233491.253        1.111       28.346       20.536       18.606        8.693       29.022
       215      1.032   232572.760        1.115       28.430       20.607       18.694        8.671       29.106
       216      1.037   232880.347        1.114       28.358       20.568       18.656        8.658       29.034
       217      1.042   232659.755        1.115       28.397       20.592       18.651        8.726       29.073
       218      1.046   232182.574        1.117       28.425       20.623       18.690        8.716       29.101
       219      1.051   233392.668        1.111       28.283       20.518       18.606        8.648       28.959
       220      1.056   232978.659        1.113       28.405       20.580       18.641        8.721       29.081
       221      1.061   233793.902        1.109       28.339       20.521       18.566        8.740       29.015
       222      1.066   233938.025        1.109       28.149       20.445       18.532        8.635       28.825
       223      1.070   233162.262        1.112       28.179       20.490       18.572        8.657       28.855
       224      1.075   233688.643        1.110       28.244       20.491       18.586        8.628       28.920
       225      1.080   234034.855        1.108       28.138       20.437       18.545        8.589       28.814
       226      1.085   234240.332        1.107       28.109       20.418       18.501        8.638       28.785
       227      1.090   232714.638        1.114       28.370       20.579       18.656        8.686       29.046
       228      1.094   233554.309        1.110       28.164       20.467       18.563        8.623       28.839
       229      1.099   234406.912        1.106       28.191       20.440       18.544        8.598       28.867
       230      1.104   234067.443        1.108       28.119       20.429       18.519        8.625       28.795
       231      1.109   233093.670        1.113       28.477       20.601       18.693        8.659       29.153
       232      1.114   233311.694        1.112       28.243       20.507       18.589        8.658       28.918
       233      1.118   233767.494        1.109       28.174       20.462       18.517        8.705       28.849
       234      1.123   231956.616        1.118       28.383       20.618       18.675        8.736       29.059
       235      1.128   233321.748        1.112       28.449       20.581       18.629        8.749       29.125
       236      1.133   233151.359        1.112       28.252       20.517       18.574        8.715       28.928
       237      1.138   231838.176        1.119       28.565       20.689       18.721        8.806       29.241
       238      1.142   232660.807        1.115       28.380       20.585       18.628        8.762       29.055
       239      1.147   232696.564        1.115       28.493       20.625       18.652        8.803       29.168
       240      1.152   232809.316        1.114       28.426       20.595       18.663        8.709       29.102
       241      1.157   233095.629        1.113       28.407       20.576       18.618        8.760       29.083
       242      1.162   233415.049        1.111       28.367       20.547       18.591        8.751       29.042
       243      1.166   233430.779        1.111       28.405       20.560       18.590        8.782       29.080
       244      1.171   233126.990        1.113       28.422       20.580       18.597        8.815       29.098
       245      1.176   232910.824        1.114       28.421       20.589       18.610        8.807       29.096
       246      1.181   232883.905        1.114       28.350       20.564       18.593        8.787       29.025
       247      1.186   232484.347        1.116       28.456       20.621       18.633        8.833       29.131
       248      1.190   232152.405        1.117       28.491       20.648       18.718        8.717       29.167
       249      1.195   232952.747        1.113       28.456       20.600       18.639        8.772       29.132
       250      1.200   233625.132        1.110       28.363       20.537       18.596        8.714       29.039
       251      1.205   233599.081        1.110       28.412       20.555       18.616        8.716       29.088
       252      1.210   233315.287        1.112       28.307       20.530       18.565        8.765       28.983
       253      1.214   232695.599        1.115       28.504       20.629       18.677        8.759       29.179
       254      1.219   232685.042        1.115       28.412       20.596       18.639        8.761       29.088
       255      1.224   232663.843        1.115       28.428       20.603       18.681        8.689       29.104
       256      1.229   233273.997        1.112       28.280       20.522       18.617        8.635       28.956
       257      1.234   232331.184        1.116       28.389       20.603       18.668        8.717       29.064
       258      1.238   232353.068        1.116       28.479       20.635       18.674        8.780       29.155
       259      1.243   232556.767        1.115       28.517       20.640       18.677        8.784       29.193
       260      1.248   233615.889        1.110       28.385       20.545       18.594        8.738       29.060
       261      1.253   232870.939        1.114       28.424       20.592       18.635        8.761       29.100
       262      1.258   233520.559        1.111       28.314       20.523       18.584        8.708       28.989
       263      1.262   234004.397        1.108       28.344       20.513       18.595        8.661       29.019
       264      1.267   233509.327        1.111       28.333       20.531       18.600        8.692       29.008
       265      1.272   234088.901        1.108       28.065       20.408       18.476        8.666       28.740
       266      1.277   232820.843        1.114       28.470       20.611       18.657        8.759       29.146
       267      1.282   233732.638        1.110       28.215       20.478       18.547        8.681       28.890
       268      1.286   234270.624        1.107       28.284       20.480       18.549        8.680       28.960
       269      1.291   234633.791        1.105       28.095       20.395       18.458        8.676       28.771
       270      1.296   234189.114        1.107       28.201       20.453       18.513        8.695       28.876
       271      1.301   234015.399        1.108       28.300       20.497       18.572        8.672       28.976
       272      1.306   233564.256        1.110       28.376       20.544       18.571        8.786       29.051
       273      1.310   232963.757        1.113       28.343       20.558       18.627        8.700       29.018
       274      1.315   234121.521        1.108       28.180       20.449       18.525        8.658       28.856
       275      1.320   233545.258        1.111       28.183       20.475       18.544        8.681       28.859
       276      1.325   233392.638        1.111       28.305       20.526       18.575        8.733       28.980
       277      1.330   233615.541        1.110       28.311       20.518       18.587        8.690       28.987
       278      1.334   233702.377        1.110       28.485       20.577       18.617        8.766       29.161
       279      1.339   234021.180        1.108       28.232       20.472       18.521        8.722       28.908
       280      1.344   232882.177        1.114       28.372       20.573       18.646        8.692       29.048
       281      1.349   233981.124        1.108       28.164       20.449       18.529        8.650       28.839
       282      1.354   232433.386        1.116       28.344       20.582       18.620        8.772       29.020
       283      1.358   233671.226        1.110       28.213       20.480       18.580        8.615       28.889
       284      1.363   233115.816        1.113       28.418       20.579       18.623        8.755       29.093
       285      1.368   233734.401        1.110       28.412       20.550       18.622        8.689       29.088
       286      1.373   234012.794        1.108       28.314       20.502       18.566        8.697       28.989
       287      1.378   234310.236        1.107       28.133       20.423       18.514        8.623       28.809
       288      1.382   234146.236        1.108       28.206       20.457       18.521        8.686       28.882
       289      1.387   234817.347        1.104       28.156       20.410       18.471        8.682       28.832
       290      1.392   233865.363        1.109       28.030       20.405       18.467        8.680       28.706
       291      1.397   232949.418        1.113       28.245       20.524       18.584        8.710       28.921
       292      1.402   233965.210        1.109       28.237       20.476       18.540        8.691       28.913
       293      1.406   234117.950        1.108       28.320       20.499       18.572        8.678       28.996
       294      1.411   232802.691        1.114       28.386       20.581       18.647        8.711       29.062
       295      1.416   234080.484        1.108       28.212       20.462       18.534        8.671       28.887
       296      1.421   233313.655        1.112       28.279       20.520       18.578        8.713       28.955
       297      1.426   234363.670        1.107       28.138       20.423       18.476        8.701       28.814
       298      1.430   233311.490        1.112       28.447       20.581       18.633        8.739       29.123
       299      1.435   233892.717        1.109       28.178       20.458       18.516        8.700       28.854
       300      1.440   233724.505        1.110       28.168       20.462       18.568        8.596       28.844
       301      1.445   232837.410        1.114       28.335       20.561       18.645        8.669       29.011
       302      1.450   232620.559        1.115       28.390       20.591       18.655        8.716       29.065
       303      1.454   233464.724        1.111       28.407       20.560       18.654        8.645       29.083
       304      1.459   233655.658        1.110       28.165       20.463       18.557        8.624       28.840
       305      1.464   232904.903        1.114       28.474       20.608       18.688        8.688       29.149
       306      1.469   233216.518        1.112       28.287       20.527       18.628        8.624       28.963
       307      1.474   234188.955        1.107       28.200       20.453       18.525        8.668       28.875
       308      1.478   233215.464        1.112       28.315       20.537       18.644        8.614       28.991
       309      1.483   232228.078        1.117       28.422       20.620       18.719        8.647       29.097
       310      1.488   232781.817        1.114       28.384       20.581       18.644        8.718       29.059
       311      1.493   232304.958        1.116       28.462       20.631       18.687        8.741       29.138
       312      1.498   232954.650        1.113       28.332       20.555       18.597        8.755       29.008
       313      1.502   232219.547        1.117       28.457       20.633       18.688        8.745       29.133
       314      1.507   232216.154        1.117       28.470       20.638       18.704        8.722       29.146
       315      1.512   232687.750        1.115       28.465       20.615       18.685        8.709       29.141
       316      1.517   232840.307        1.114       28.344       20.564       18.621        8.725       29.019
       317      1.522   231065.331        1.122       28.483       20.694       18.774        8.705       29.159
       318      1.526   231976.507        1.118       28.555       20.679       18.719        8.789       29.231
       319      1.531   233761.744        1.109       28.323       20.516       18.584        8.691       28.999
       320      1.536   232376.750        1.116       28.495       20.640       18.698        8.739       29.171
       321      1.541   233162.001        1.112       28.310       20.538       18.575        8.761       28.986
       322      1.546   232659.050        1.115       28.372       20.582       18.666        8.673       29.047
       323      1.550   232451.737        1.116       28.276       20.557       18.638        8.672       28.951
       324      1.555   233632.018        1.110       28.265       20.501       18.568        8.691       28.941
       325      1.560   234127.565        1.108       28.252       20.474       18.540        8.688       28.927
       326      1.565   233667.716        1.110       28.337       20.525       18.593        8.695       29.012
       327      1.570   232740.333        1.114       28.339       20.567       18.673        8.620       29.014
       328      1.574   234874.800        1.104       28.018       20.357       18.470        8.559       28.694
       329      1.579   234175.043        1.108       28.073       20.407       18.491        8.633       28.748
       330      1.584   233869.133        1.109       28.353       20.522       18.575        8.725       29.029
       331      1.589   233917.616        1.109       28.129       20.439       18.516        8.654       28.805
       332      1.594   233564.400        1.110       28.126       20.453       18.543        8.631       28.802
       333      1.598   235306.908        1.102       28.043       20.347       18.411        8.664       28.718
       334      1.603   233511.088        1.111       28.369       20.544       18.581        8.763       29.045
       335      1.608   233471.597        1.111       28.363       20.543       18.563        8.800       29.039
       336      1.613   234737.247        1.105       28.286       20.460       18.505        8.728       28.961
       337      1.618   233829.831        1.109       28.308       20.508       18.569        8.703       28.984
       338      1.622   232148.048        1.117       28.313       20.584       18.661        8.686       28.988
       339      1.627   233606.387        1.110       28.199       20.478       18.538        8.700       28.875
       340      1.632   232944.893        1.113       28.345       20.560       18.592        8.778       29.021
       341      1.637   233857.227        1.109       28.320       20.511       18.569        8.711       28.995
       342      1.642   233917.385        1.109       28.303       20.502       18.568        8.693       28.979
       343      1.646   233931.144        1.109       28.276       20.492       18.548        8.712       28.951
       344      1.651   234082.104        1.108       28.208       20.461       18.531        8.675       28.884
       345      1.656   233569.251        1.110       28.323       20.525       18.565        8.751       28.999
       346      1.661   233487.012        1.111       28.273       20.510       18.582        8.682       28.949
       347      1.666   234051.700        1.108       28.133       20.435       18.492        8.696       28.809
       348      1.670   234829.387        1.104       28.031       20.364       18.445        8.629       28.707
       349      1.675   234148.027        1.108       28.095       20.416       18.511        8.613       28.770
       350      1.680   234399.400        1.106       28.160       20.429       18.503        8.659       28.836
       351      1.685   234221.804        1.107       28.309       20.491       18.552        8.699       28.984
       352      1.690   233336.307        1.112       28.321       20.534       18.582        8.739       28.996
       353      1.694   233005.038        1.113       28.485       20.608       18.656        8.754       29.161
       354      1.699   233420.967        1.111       28.268       20.511       18.570        8.711       28.944
       355      1.704   233861.908        1.109       28.299       20.503       18.605        8.615       28.975
       356      1.709   232523.369        1.115       28.515       20.640       18.693        8.752       29.191
       357      1.714   234608.985        1.105       28.302       20.471       18.521        8.721       28.977
       358      1.718   234036.301        1.108       28.213       20.464       18.532        8.680       28.888
       359      1.723   234303.553        1.107       28.287       20.479       18.555        8.667       28.963
       360      1.728   233081.802        1.113       28.347       20.555       18.629        8.686       29.023
       361      1.733   233705.773        1.110       28.241       20.489       18.544        8.712       28.917
       362      1.738   233400.676        1.111       28.246       20.504       18.580        8.673       28.922
       363      1.742   234382.281        1.107       28.258       20.465       18.517        8.714       28.933
       364      1.747   232895.219        1.114       28.196       20.508       18.622        8.592       28.872
       365      1.752   233791.878        1.109       28.313       20.511       18.575        8.700       28.989
       366      1.757   234445.163        1.106       28.270       20.467       18.545        8.660       28.946
       367      1.762   234037.487        1.108       28.265       20.483       18.558        8.669       28.941
       368      1.766   234183.690        1.107       28.090       20.413       18.534        8.555       28.766
       369      1.771   232477.902        1.116       28.414       20.606       18.671        8.718       29.089
       370      1.776   232183.594        1.117       28.473       20.640       18.700        8.737       29.149
       371      1.781   232802.359        1.114       28.289       20.546       18.608        8.711       28.964
       372      1.786   233729.460        1.110       28.259       20.494       18.581        8.646       28.935
       373      1.790   233175.269        1.112       28.288       20.529       18.603        8.683       28.964
       374      1.795   232895.910        1.114       28.244       20.526       18.629        8.616       28.920
       375      1.800   233835.639        1.109       28.278       20.497       18.585        8.644       28.954
       376      1.805   232649.833        1.115       28.413       20.598       18.665        8.711       29.088
       377      1.810   233855.869        1.109       28.264       20.491       18.586        8.627       28.940
       378      1.814   232771.647        1.114       28.309       20.555       18.618        8.709       28.985
       379      1.819   233628.135        1.110       28.355       20.534       18.585        8.730       29.030
       380      1.824   233350.677        1.111       28.376       20.553       18.650        8.637       29.051
       381      1.829   232903.620        1.114       28.385       20.576       18.621        8.754       29.061
       382      1.834   232951.479        1.113       28.278       20.535       18.605        8.693       28.953
       383      1.838   233245.811        1.112       28.410       20.570       18.671        8.633       29.086
       384      1.843   232437.618        1.116       28.387       20.598       18.669        8.702       29.063
       385      1.848   232847.858        1.114       28.401       20.585       18.643        8.727       29.077
       386      1.853   232583.284        1.115       28.358       20.581       18.649        8.705       29.034
       387      1.858   232553.600        1.115       28.443       20.613       18.702        8.667       29.119
       388      1.862   233495.729        1.111       28.200       20.483       18.557        8.671       28.875
       389      1.867   232146.783        1.117       28.500       20.652       18.697        8.769       29.175
       390      1.872   233342.394        1.111       28.263       20.513       18.585        8.682       28.938
       391      1.877   232897.797        1.114       28.471       20.608       18.653        8.761       29.146
       392      1.882   233430.968        1.111       28.110       20.453       18.546        8.623       28.785
       393      1.886   233230.233        1.112       28.135       20.471       18.567        8.621       28.810
       394      1.891   234155.996        1.108       28.204       20.456       18.547        8.627       28.879
       395      1.896   233037.183        1.113       28.158       20.488       18.579        8.635       28.834
       396      1.901   233849.394        1.109       28.013       20.400       18.483        8.632       28.688
       397      1.906   234023.103        1.108       27.937       20.365       18.489        8.536       28.613
       398      1.910   232494.193        1.116       28.406       20.602       18.659        8.735       29.082
       399      1.915   233057.581        1.113       28.273       20.529       18.635        8.612       28.949
       400      1.920   233607.831        1.110       28.188       20.474       18.563        8.636       28.864
       401      1.925   233848.630        1.109       28.179       20.460       18.555        8.621       28.854
       402      1.930   233928.210        1.109       28.079       20.420       18.513        8.619       28.755
       403      1.934   233829.513        1.109       28.190       20.465       18.534        8.678       28.866
       404      1.939   233451.650        1.111       28.222       20.493       18.552        8.705       28.897
       405      1.944   232710.086        1.114       28.377       20.582       18.645        8.717       29.053
       406      1.949   233819.055        1.109       28.237       20.482       18.574        8.634       28.913
       407      1.954   233952.650        1.109       28.129       20.438       18.547        8.585       28.805
       408      1.958   234073.876        1.108       28.148       20.439       18.549        8.583       28.823
       409      1.963   233548.868        1.110       28.246       20.498       18.596        8.622       28.922
       410      1.968   234211.648        1.107       28.044       20.395       18.504        8.578       28.720
       411      1.973   234443.947        1.106       28.080       20.398       18.467        8.663       28.755
       412      1.978   233701.352        1.110       28.224       20.483       18.540        8.706       28.900
       413      1.982   235143.745        1.103       28.013       20.344       18.427        8.620       28.689
       414      1.987   232690.816        1.115       28.313       20.560       18.641        8.673       28.989
       415      1.992   232869.355        1.114       28.377       20.575       18.652        8.685       29.052
       416      1.997   232658.963        1.115       28.232       20.532       18.573        8.753       28.908
       417      2.002   233325.285        1.112       28.233       20.503       18.570        8.689       28.908
