<?xml version="1.0" encoding="utf-8" standalone="no"?>
<!DOCTYPE svg PUBLIC "-//W3C//DTD SVG 1.1//EN"
  "http://www.w3.org/Graphics/SVG/1.1/DTD/svg11.dtd">
<!-- Created with matplotlib (http://matplotlib.org/) -->
<svg height="345.6pt" version="1.1" viewBox="0 0 460.8 345.6" width="460.8pt" xmlns="http://www.w3.org/2000/svg" xmlns:xlink="http://www.w3.org/1999/xlink">
 <defs>
  <style type="text/css">
*{stroke-linecap:butt;stroke-linejoin:round;}
  </style>
 </defs>
 <g id="figure_1">
  <g id="patch_1">
   <path d="M 0 345.6 
L 460.8 345.6 
L 460.8 0 
L 0 0 
z
" style="fill:#ffffff;"/>
  </g>
  <g id="axes_1">
   <g id="patch_2">
    <path d="M 57.6 307.584 
L 321.12 307.584 
L 321.12 41.472 
L 57.6 41.472 
z
" style="fill:#ffffff;"/>
   </g>
   <g id="matplotlib.axis_1">
    <g id="xtick_1">
     <g id="line2d_1">
      <defs>
       <path d="M 0 0 
L 0 3.5 
" id="m9e22394a48" style="stroke:#000000;stroke-width:0.8;"/>
      </defs>
      <g>
       <use style="stroke:#000000;stroke-width:0.8;" x="57.6" xlink:href="#m9e22394a48" y="307.584"/>
      </g>
     </g>
     <g id="text_1">
      <!-- 0.0 -->
      <defs>
       <path d="M 31.78125 66.40625 
Q 24.171875 66.40625 20.328125 58.90625 
Q 16.5 51.421875 16.5 36.375 
Q 16.5 21.390625 20.328125 13.890625 
Q 24.171875 6.390625 31.78125 6.390625 
Q 39.453125 6.390625 43.28125 13.890625 
Q 47.125 21.390625 47.125 36.375 
Q 47.125 51.421875 43.28125 58.90625 
Q 39.453125 66.40625 31.78125 66.40625 
z
M 31.78125 74.21875 
Q 44.046875 74.21875 50.515625 64.515625 
Q 56.984375 54.828125 56.984375 36.375 
Q 56.984375 17.96875 50.515625 8.265625 
Q 44.046875 -1.421875 31.78125 -1.421875 
Q 19.53125 -1.421875 13.0625 8.265625 
Q 6.59375 17.96875 6.59375 36.375 
Q 6.59375 54.828125 13.0625 64.515625 
Q 19.53125 74.21875 31.78125 74.21875 
z
" id="DejaVuSans-30"/>
       <path d="M 10.6875 12.40625 
L 21 12.40625 
L 21 0 
L 10.6875 0 
z
" id="DejaVuSans-2e"/>
      </defs>
      <g transform="translate(49.648438 322.182437)scale(0.1 -0.1)">
       <use xlink:href="#DejaVuSans-30"/>
       <use x="63.623047" xlink:href="#DejaVuSans-2e"/>
       <use x="95.410156" xlink:href="#DejaVuSans-30"/>
      </g>
     </g>
    </g>
    <g id="xtick_2">
     <g id="line2d_2">
      <g>
       <use style="stroke:#000000;stroke-width:0.8;" x="123.427338" xlink:href="#m9e22394a48" y="307.584"/>
      </g>
     </g>
     <g id="text_2">
      <!-- 0.5 -->
      <defs>
       <path d="M 10.796875 72.90625 
L 49.515625 72.90625 
L 49.515625 64.59375 
L 19.828125 64.59375 
L 19.828125 46.734375 
Q 21.96875 47.46875 24.109375 47.828125 
Q 26.265625 48.1875 28.421875 48.1875 
Q 40.625 48.1875 47.75 41.5 
Q 54.890625 34.8125 54.890625 23.390625 
Q 54.890625 11.625 47.5625 5.09375 
Q 40.234375 -1.421875 26.90625 -1.421875 
Q 22.3125 -1.421875 17.546875 -0.640625 
Q 12.796875 0.140625 7.71875 1.703125 
L 7.71875 11.625 
Q 12.109375 9.234375 16.796875 8.0625 
Q 21.484375 6.890625 26.703125 6.890625 
Q 35.15625 6.890625 40.078125 11.328125 
Q 45.015625 15.765625 45.015625 23.390625 
Q 45.015625 31 40.078125 35.4375 
Q 35.15625 39.890625 26.703125 39.890625 
Q 22.75 39.890625 18.8125 39.015625 
Q 14.890625 38.140625 10.796875 36.28125 
z
" id="DejaVuSans-35"/>
      </defs>
      <g transform="translate(115.475776 322.182437)scale(0.1 -0.1)">
       <use xlink:href="#DejaVuSans-30"/>
       <use x="63.623047" xlink:href="#DejaVuSans-2e"/>
       <use x="95.410156" xlink:href="#DejaVuSans-35"/>
      </g>
     </g>
    </g>
    <g id="xtick_3">
     <g id="line2d_3">
      <g>
       <use style="stroke:#000000;stroke-width:0.8;" x="189.254676" xlink:href="#m9e22394a48" y="307.584"/>
      </g>
     </g>
     <g id="text_3">
      <!-- 1.0 -->
      <defs>
       <path d="M 12.40625 8.296875 
L 28.515625 8.296875 
L 28.515625 63.921875 
L 10.984375 60.40625 
L 10.984375 69.390625 
L 28.421875 72.90625 
L 38.28125 72.90625 
L 38.28125 8.296875 
L 54.390625 8.296875 
L 54.390625 0 
L 12.40625 0 
z
" id="DejaVuSans-31"/>
      </defs>
      <g transform="translate(181.303114 322.182437)scale(0.1 -0.1)">
       <use xlink:href="#DejaVuSans-31"/>
       <use x="63.623047" xlink:href="#DejaVuSans-2e"/>
       <use x="95.410156" xlink:href="#DejaVuSans-30"/>
      </g>
     </g>
    </g>
    <g id="xtick_4">
     <g id="line2d_4">
      <g>
       <use style="stroke:#000000;stroke-width:0.8;" x="255.082014" xlink:href="#m9e22394a48" y="307.584"/>
      </g>
     </g>
     <g id="text_4">
      <!-- 1.5 -->
      <g transform="translate(247.130452 322.182437)scale(0.1 -0.1)">
       <use xlink:href="#DejaVuSans-31"/>
       <use x="63.623047" xlink:href="#DejaVuSans-2e"/>
       <use x="95.410156" xlink:href="#DejaVuSans-35"/>
      </g>
     </g>
    </g>
    <g id="xtick_5">
     <g id="line2d_5">
      <g>
       <use style="stroke:#000000;stroke-width:0.8;" x="320.909353" xlink:href="#m9e22394a48" y="307.584"/>
      </g>
     </g>
     <g id="text_5">
      <!-- 2.0 -->
      <defs>
       <path d="M 19.1875 8.296875 
L 53.609375 8.296875 
L 53.609375 0 
L 7.328125 0 
L 7.328125 8.296875 
Q 12.9375 14.109375 22.625 23.890625 
Q 32.328125 33.6875 34.8125 36.53125 
Q 39.546875 41.84375 41.421875 45.53125 
Q 43.3125 49.21875 43.3125 52.78125 
Q 43.3125 58.59375 39.234375 62.25 
Q 35.15625 65.921875 28.609375 65.921875 
Q 23.96875 65.921875 18.8125 64.3125 
Q 13.671875 62.703125 7.8125 59.421875 
L 7.8125 69.390625 
Q 13.765625 71.78125 18.9375 73 
Q 24.125 74.21875 28.421875 74.21875 
Q 39.75 74.21875 46.484375 68.546875 
Q 53.21875 62.890625 53.21875 53.421875 
Q 53.21875 48.921875 51.53125 44.890625 
Q 49.859375 40.875 45.40625 35.40625 
Q 44.1875 33.984375 37.640625 27.21875 
Q 31.109375 20.453125 19.1875 8.296875 
z
" id="DejaVuSans-32"/>
      </defs>
      <g transform="translate(312.95779 322.182437)scale(0.1 -0.1)">
       <use xlink:href="#DejaVuSans-32"/>
       <use x="63.623047" xlink:href="#DejaVuSans-2e"/>
       <use x="95.410156" xlink:href="#DejaVuSans-30"/>
      </g>
     </g>
    </g>
    <g id="text_6">
     <!-- Time (nsec) -->
     <defs>
      <path d="M -0.296875 72.90625 
L 61.375 72.90625 
L 61.375 64.59375 
L 35.5 64.59375 
L 35.5 0 
L 25.59375 0 
L 25.59375 64.59375 
L -0.296875 64.59375 
z
" id="DejaVuSans-54"/>
      <path d="M 9.421875 54.6875 
L 18.40625 54.6875 
L 18.40625 0 
L 9.421875 0 
z
M 9.421875 75.984375 
L 18.40625 75.984375 
L 18.40625 64.59375 
L 9.421875 64.59375 
z
" id="DejaVuSans-69"/>
      <path d="M 52 44.1875 
Q 55.375 50.25 60.0625 53.125 
Q 64.75 56 71.09375 56 
Q 79.640625 56 84.28125 50.015625 
Q 88.921875 44.046875 88.921875 33.015625 
L 88.921875 0 
L 79.890625 0 
L 79.890625 32.71875 
Q 79.890625 40.578125 77.09375 44.375 
Q 74.3125 48.1875 68.609375 48.1875 
Q 61.625 48.1875 57.5625 43.546875 
Q 53.515625 38.921875 53.515625 30.90625 
L 53.515625 0 
L 44.484375 0 
L 44.484375 32.71875 
Q 44.484375 40.625 41.703125 44.40625 
Q 38.921875 48.1875 33.109375 48.1875 
Q 26.21875 48.1875 22.15625 43.53125 
Q 18.109375 38.875 18.109375 30.90625 
L 18.109375 0 
L 9.078125 0 
L 9.078125 54.6875 
L 18.109375 54.6875 
L 18.109375 46.1875 
Q 21.1875 51.21875 25.484375 53.609375 
Q 29.78125 56 35.6875 56 
Q 41.65625 56 45.828125 52.96875 
Q 50 49.953125 52 44.1875 
z
" id="DejaVuSans-6d"/>
      <path d="M 56.203125 29.59375 
L 56.203125 25.203125 
L 14.890625 25.203125 
Q 15.484375 15.921875 20.484375 11.0625 
Q 25.484375 6.203125 34.421875 6.203125 
Q 39.59375 6.203125 44.453125 7.46875 
Q 49.3125 8.734375 54.109375 11.28125 
L 54.109375 2.78125 
Q 49.265625 0.734375 44.1875 -0.34375 
Q 39.109375 -1.421875 33.890625 -1.421875 
Q 20.796875 -1.421875 13.15625 6.1875 
Q 5.515625 13.8125 5.515625 26.8125 
Q 5.515625 40.234375 12.765625 48.109375 
Q 20.015625 56 32.328125 56 
Q 43.359375 56 49.78125 48.890625 
Q 56.203125 41.796875 56.203125 29.59375 
z
M 47.21875 32.234375 
Q 47.125 39.59375 43.09375 43.984375 
Q 39.0625 48.390625 32.421875 48.390625 
Q 24.90625 48.390625 20.390625 44.140625 
Q 15.875 39.890625 15.1875 32.171875 
z
" id="DejaVuSans-65"/>
      <path id="DejaVuSans-20"/>
      <path d="M 31 75.875 
Q 24.46875 64.65625 21.28125 53.65625 
Q 18.109375 42.671875 18.109375 31.390625 
Q 18.109375 20.125 21.3125 9.0625 
Q 24.515625 -2 31 -13.1875 
L 23.1875 -13.1875 
Q 15.875 -1.703125 12.234375 9.375 
Q 8.59375 20.453125 8.59375 31.390625 
Q 8.59375 42.28125 12.203125 53.3125 
Q 15.828125 64.359375 23.1875 75.875 
z
" id="DejaVuSans-28"/>
      <path d="M 54.890625 33.015625 
L 54.890625 0 
L 45.90625 0 
L 45.90625 32.71875 
Q 45.90625 40.484375 42.875 44.328125 
Q 39.84375 48.1875 33.796875 48.1875 
Q 26.515625 48.1875 22.3125 43.546875 
Q 18.109375 38.921875 18.109375 30.90625 
L 18.109375 0 
L 9.078125 0 
L 9.078125 54.6875 
L 18.109375 54.6875 
L 18.109375 46.1875 
Q 21.34375 51.125 25.703125 53.5625 
Q 30.078125 56 35.796875 56 
Q 45.21875 56 50.046875 50.171875 
Q 54.890625 44.34375 54.890625 33.015625 
z
" id="DejaVuSans-6e"/>
      <path d="M 44.28125 53.078125 
L 44.28125 44.578125 
Q 40.484375 46.53125 36.375 47.5 
Q 32.28125 48.484375 27.875 48.484375 
Q 21.1875 48.484375 17.84375 46.4375 
Q 14.5 44.390625 14.5 40.28125 
Q 14.5 37.15625 16.890625 35.375 
Q 19.28125 33.59375 26.515625 31.984375 
L 29.59375 31.296875 
Q 39.15625 29.25 43.1875 25.515625 
Q 47.21875 21.78125 47.21875 15.09375 
Q 47.21875 7.46875 41.1875 3.015625 
Q 35.15625 -1.421875 24.609375 -1.421875 
Q 20.21875 -1.421875 15.453125 -0.5625 
Q 10.6875 0.296875 5.421875 2 
L 5.421875 11.28125 
Q 10.40625 8.6875 15.234375 7.390625 
Q 20.0625 6.109375 24.8125 6.109375 
Q 31.15625 6.109375 34.5625 8.28125 
Q 37.984375 10.453125 37.984375 14.40625 
Q 37.984375 18.0625 35.515625 20.015625 
Q 33.0625 21.96875 24.703125 23.78125 
L 21.578125 24.515625 
Q 13.234375 26.265625 9.515625 29.90625 
Q 5.8125 33.546875 5.8125 39.890625 
Q 5.8125 47.609375 11.28125 51.796875 
Q 16.75 56 26.8125 56 
Q 31.78125 56 36.171875 55.265625 
Q 40.578125 54.546875 44.28125 53.078125 
z
" id="DejaVuSans-73"/>
      <path d="M 48.78125 52.59375 
L 48.78125 44.1875 
Q 44.96875 46.296875 41.140625 47.34375 
Q 37.3125 48.390625 33.40625 48.390625 
Q 24.65625 48.390625 19.8125 42.84375 
Q 14.984375 37.3125 14.984375 27.296875 
Q 14.984375 17.28125 19.8125 11.734375 
Q 24.65625 6.203125 33.40625 6.203125 
Q 37.3125 6.203125 41.140625 7.25 
Q 44.96875 8.296875 48.78125 10.40625 
L 48.78125 2.09375 
Q 45.015625 0.34375 40.984375 -0.53125 
Q 36.96875 -1.421875 32.421875 -1.421875 
Q 20.0625 -1.421875 12.78125 6.34375 
Q 5.515625 14.109375 5.515625 27.296875 
Q 5.515625 40.671875 12.859375 48.328125 
Q 20.21875 56 33.015625 56 
Q 37.15625 56 41.109375 55.140625 
Q 45.0625 54.296875 48.78125 52.59375 
z
" id="DejaVuSans-63"/>
      <path d="M 8.015625 75.875 
L 15.828125 75.875 
Q 23.140625 64.359375 26.78125 53.3125 
Q 30.421875 42.28125 30.421875 31.390625 
Q 30.421875 20.453125 26.78125 9.375 
Q 23.140625 -1.703125 15.828125 -13.1875 
L 8.015625 -13.1875 
Q 14.5 -2 17.703125 9.0625 
Q 20.90625 20.125 20.90625 31.390625 
Q 20.90625 42.671875 17.703125 53.65625 
Q 14.5 64.65625 8.015625 75.875 
z
" id="DejaVuSans-29"/>
     </defs>
     <g transform="translate(159.882656 335.860562)scale(0.1 -0.1)">
      <use xlink:href="#DejaVuSans-54"/>
      <use x="61.037109" xlink:href="#DejaVuSans-69"/>
      <use x="88.820312" xlink:href="#DejaVuSans-6d"/>
      <use x="186.232422" xlink:href="#DejaVuSans-65"/>
      <use x="247.755859" xlink:href="#DejaVuSans-20"/>
      <use x="279.542969" xlink:href="#DejaVuSans-28"/>
      <use x="318.556641" xlink:href="#DejaVuSans-6e"/>
      <use x="381.935547" xlink:href="#DejaVuSans-73"/>
      <use x="434.035156" xlink:href="#DejaVuSans-65"/>
      <use x="495.558594" xlink:href="#DejaVuSans-63"/>
      <use x="550.539062" xlink:href="#DejaVuSans-29"/>
     </g>
    </g>
   </g>
   <g id="matplotlib.axis_2">
    <g id="ytick_1">
     <g id="line2d_6">
      <defs>
       <path d="M 0 0 
L -3.5 0 
" id="m29b1915901" style="stroke:#000000;stroke-width:0.8;"/>
      </defs>
      <g>
       <use style="stroke:#000000;stroke-width:0.8;" x="57.6" xlink:href="#m29b1915901" y="288.365588"/>
      </g>
     </g>
     <g id="text_7">
      <!-- 28.0 -->
      <defs>
       <path d="M 31.78125 34.625 
Q 24.75 34.625 20.71875 30.859375 
Q 16.703125 27.09375 16.703125 20.515625 
Q 16.703125 13.921875 20.71875 10.15625 
Q 24.75 6.390625 31.78125 6.390625 
Q 38.8125 6.390625 42.859375 10.171875 
Q 46.921875 13.96875 46.921875 20.515625 
Q 46.921875 27.09375 42.890625 30.859375 
Q 38.875 34.625 31.78125 34.625 
z
M 21.921875 38.8125 
Q 15.578125 40.375 12.03125 44.71875 
Q 8.5 49.078125 8.5 55.328125 
Q 8.5 64.0625 14.71875 69.140625 
Q 20.953125 74.21875 31.78125 74.21875 
Q 42.671875 74.21875 48.875 69.140625 
Q 55.078125 64.0625 55.078125 55.328125 
Q 55.078125 49.078125 51.53125 44.71875 
Q 48 40.375 41.703125 38.8125 
Q 48.828125 37.15625 52.796875 32.3125 
Q 56.78125 27.484375 56.78125 20.515625 
Q 56.78125 9.90625 50.3125 4.234375 
Q 43.84375 -1.421875 31.78125 -1.421875 
Q 19.734375 -1.421875 13.25 4.234375 
Q 6.78125 9.90625 6.78125 20.515625 
Q 6.78125 27.484375 10.78125 32.3125 
Q 14.796875 37.15625 21.921875 38.8125 
z
M 18.3125 54.390625 
Q 18.3125 48.734375 21.84375 45.5625 
Q 25.390625 42.390625 31.78125 42.390625 
Q 38.140625 42.390625 41.71875 45.5625 
Q 45.3125 48.734375 45.3125 54.390625 
Q 45.3125 60.0625 41.71875 63.234375 
Q 38.140625 66.40625 31.78125 66.40625 
Q 25.390625 66.40625 21.84375 63.234375 
Q 18.3125 60.0625 18.3125 54.390625 
z
" id="DejaVuSans-38"/>
      </defs>
      <g transform="translate(28.334375 292.164807)scale(0.1 -0.1)">
       <use xlink:href="#DejaVuSans-32"/>
       <use x="63.623047" xlink:href="#DejaVuSans-38"/>
       <use x="127.246094" xlink:href="#DejaVuSans-2e"/>
       <use x="159.033203" xlink:href="#DejaVuSans-30"/>
      </g>
     </g>
    </g>
    <g id="ytick_2">
     <g id="line2d_7">
      <g>
       <use style="stroke:#000000;stroke-width:0.8;" x="57.6" xlink:href="#m29b1915901" y="231.43175"/>
      </g>
     </g>
     <g id="text_8">
      <!-- 28.5 -->
      <g transform="translate(28.334375 235.230969)scale(0.1 -0.1)">
       <use xlink:href="#DejaVuSans-32"/>
       <use x="63.623047" xlink:href="#DejaVuSans-38"/>
       <use x="127.246094" xlink:href="#DejaVuSans-2e"/>
       <use x="159.033203" xlink:href="#DejaVuSans-35"/>
      </g>
     </g>
    </g>
    <g id="ytick_3">
     <g id="line2d_8">
      <g>
       <use style="stroke:#000000;stroke-width:0.8;" x="57.6" xlink:href="#m29b1915901" y="174.497912"/>
      </g>
     </g>
     <g id="text_9">
      <!-- 29.0 -->
      <defs>
       <path d="M 10.984375 1.515625 
L 10.984375 10.5 
Q 14.703125 8.734375 18.5 7.8125 
Q 22.3125 6.890625 25.984375 6.890625 
Q 35.75 6.890625 40.890625 13.453125 
Q 46.046875 20.015625 46.78125 33.40625 
Q 43.953125 29.203125 39.59375 26.953125 
Q 35.25 24.703125 29.984375 24.703125 
Q 19.046875 24.703125 12.671875 31.3125 
Q 6.296875 37.9375 6.296875 49.421875 
Q 6.296875 60.640625 12.9375 67.421875 
Q 19.578125 74.21875 30.609375 74.21875 
Q 43.265625 74.21875 49.921875 64.515625 
Q 56.59375 54.828125 56.59375 36.375 
Q 56.59375 19.140625 48.40625 8.859375 
Q 40.234375 -1.421875 26.421875 -1.421875 
Q 22.703125 -1.421875 18.890625 -0.6875 
Q 15.09375 0.046875 10.984375 1.515625 
z
M 30.609375 32.421875 
Q 37.25 32.421875 41.125 36.953125 
Q 45.015625 41.5 45.015625 49.421875 
Q 45.015625 57.28125 41.125 61.84375 
Q 37.25 66.40625 30.609375 66.40625 
Q 23.96875 66.40625 20.09375 61.84375 
Q 16.21875 57.28125 16.21875 49.421875 
Q 16.21875 41.5 20.09375 36.953125 
Q 23.96875 32.421875 30.609375 32.421875 
z
" id="DejaVuSans-39"/>
      </defs>
      <g transform="translate(28.334375 178.297131)scale(0.1 -0.1)">
       <use xlink:href="#DejaVuSans-32"/>
       <use x="63.623047" xlink:href="#DejaVuSans-39"/>
       <use x="127.246094" xlink:href="#DejaVuSans-2e"/>
       <use x="159.033203" xlink:href="#DejaVuSans-30"/>
      </g>
     </g>
    </g>
    <g id="ytick_4">
     <g id="line2d_9">
      <g>
       <use style="stroke:#000000;stroke-width:0.8;" x="57.6" xlink:href="#m29b1915901" y="117.564074"/>
      </g>
     </g>
     <g id="text_10">
      <!-- 29.5 -->
      <g transform="translate(28.334375 121.363293)scale(0.1 -0.1)">
       <use xlink:href="#DejaVuSans-32"/>
       <use x="63.623047" xlink:href="#DejaVuSans-39"/>
       <use x="127.246094" xlink:href="#DejaVuSans-2e"/>
       <use x="159.033203" xlink:href="#DejaVuSans-35"/>
      </g>
     </g>
    </g>
    <g id="ytick_5">
     <g id="line2d_10">
      <g>
       <use style="stroke:#000000;stroke-width:0.8;" x="57.6" xlink:href="#m29b1915901" y="60.630236"/>
      </g>
     </g>
     <g id="text_11">
      <!-- 30.0 -->
      <defs>
       <path d="M 40.578125 39.3125 
Q 47.65625 37.796875 51.625 33 
Q 55.609375 28.21875 55.609375 21.1875 
Q 55.609375 10.40625 48.1875 4.484375 
Q 40.765625 -1.421875 27.09375 -1.421875 
Q 22.515625 -1.421875 17.65625 -0.515625 
Q 12.796875 0.390625 7.625 2.203125 
L 7.625 11.71875 
Q 11.71875 9.328125 16.59375 8.109375 
Q 21.484375 6.890625 26.8125 6.890625 
Q 36.078125 6.890625 40.9375 10.546875 
Q 45.796875 14.203125 45.796875 21.1875 
Q 45.796875 27.640625 41.28125 31.265625 
Q 36.765625 34.90625 28.71875 34.90625 
L 20.21875 34.90625 
L 20.21875 43.015625 
L 29.109375 43.015625 
Q 36.375 43.015625 40.234375 45.921875 
Q 44.09375 48.828125 44.09375 54.296875 
Q 44.09375 59.90625 40.109375 62.90625 
Q 36.140625 65.921875 28.71875 65.921875 
Q 24.65625 65.921875 20.015625 65.03125 
Q 15.375 64.15625 9.8125 62.3125 
L 9.8125 71.09375 
Q 15.4375 72.65625 20.34375 73.4375 
Q 25.25 74.21875 29.59375 74.21875 
Q 40.828125 74.21875 47.359375 69.109375 
Q 53.90625 64.015625 53.90625 55.328125 
Q 53.90625 49.265625 50.4375 45.09375 
Q 46.96875 40.921875 40.578125 39.3125 
z
" id="DejaVuSans-33"/>
      </defs>
      <g transform="translate(28.334375 64.429455)scale(0.1 -0.1)">
       <use xlink:href="#DejaVuSans-33"/>
       <use x="63.623047" xlink:href="#DejaVuSans-30"/>
       <use x="127.246094" xlink:href="#DejaVuSans-2e"/>
       <use x="159.033203" xlink:href="#DejaVuSans-30"/>
      </g>
     </g>
    </g>
    <g id="text_12">
     <!-- Cohesive energy (kcal/mol) -->
     <defs>
      <path d="M 64.40625 67.28125 
L 64.40625 56.890625 
Q 59.421875 61.53125 53.78125 63.8125 
Q 48.140625 66.109375 41.796875 66.109375 
Q 29.296875 66.109375 22.65625 58.46875 
Q 16.015625 50.828125 16.015625 36.375 
Q 16.015625 21.96875 22.65625 14.328125 
Q 29.296875 6.6875 41.796875 6.6875 
Q 48.140625 6.6875 53.78125 8.984375 
Q 59.421875 11.28125 64.40625 15.921875 
L 64.40625 5.609375 
Q 59.234375 2.09375 53.4375 0.328125 
Q 47.65625 -1.421875 41.21875 -1.421875 
Q 24.65625 -1.421875 15.125 8.703125 
Q 5.609375 18.84375 5.609375 36.375 
Q 5.609375 53.953125 15.125 64.078125 
Q 24.65625 74.21875 41.21875 74.21875 
Q 47.75 74.21875 53.53125 72.484375 
Q 59.328125 70.75 64.40625 67.28125 
z
" id="DejaVuSans-43"/>
      <path d="M 30.609375 48.390625 
Q 23.390625 48.390625 19.1875 42.75 
Q 14.984375 37.109375 14.984375 27.296875 
Q 14.984375 17.484375 19.15625 11.84375 
Q 23.34375 6.203125 30.609375 6.203125 
Q 37.796875 6.203125 41.984375 11.859375 
Q 46.1875 17.53125 46.1875 27.296875 
Q 46.1875 37.015625 41.984375 42.703125 
Q 37.796875 48.390625 30.609375 48.390625 
z
M 30.609375 56 
Q 42.328125 56 49.015625 48.375 
Q 55.71875 40.765625 55.71875 27.296875 
Q 55.71875 13.875 49.015625 6.21875 
Q 42.328125 -1.421875 30.609375 -1.421875 
Q 18.84375 -1.421875 12.171875 6.21875 
Q 5.515625 13.875 5.515625 27.296875 
Q 5.515625 40.765625 12.171875 48.375 
Q 18.84375 56 30.609375 56 
z
" id="DejaVuSans-6f"/>
      <path d="M 54.890625 33.015625 
L 54.890625 0 
L 45.90625 0 
L 45.90625 32.71875 
Q 45.90625 40.484375 42.875 44.328125 
Q 39.84375 48.1875 33.796875 48.1875 
Q 26.515625 48.1875 22.3125 43.546875 
Q 18.109375 38.921875 18.109375 30.90625 
L 18.109375 0 
L 9.078125 0 
L 9.078125 75.984375 
L 18.109375 75.984375 
L 18.109375 46.1875 
Q 21.34375 51.125 25.703125 53.5625 
Q 30.078125 56 35.796875 56 
Q 45.21875 56 50.046875 50.171875 
Q 54.890625 44.34375 54.890625 33.015625 
z
" id="DejaVuSans-68"/>
      <path d="M 2.984375 54.6875 
L 12.5 54.6875 
L 29.59375 8.796875 
L 46.6875 54.6875 
L 56.203125 54.6875 
L 35.6875 0 
L 23.484375 0 
z
" id="DejaVuSans-76"/>
      <path d="M 41.109375 46.296875 
Q 39.59375 47.171875 37.8125 47.578125 
Q 36.03125 48 33.890625 48 
Q 26.265625 48 22.1875 43.046875 
Q 18.109375 38.09375 18.109375 28.8125 
L 18.109375 0 
L 9.078125 0 
L 9.078125 54.6875 
L 18.109375 54.6875 
L 18.109375 46.1875 
Q 20.953125 51.171875 25.484375 53.578125 
Q 30.03125 56 36.53125 56 
Q 37.453125 56 38.578125 55.875 
Q 39.703125 55.765625 41.0625 55.515625 
z
" id="DejaVuSans-72"/>
      <path d="M 45.40625 27.984375 
Q 45.40625 37.75 41.375 43.109375 
Q 37.359375 48.484375 30.078125 48.484375 
Q 22.859375 48.484375 18.828125 43.109375 
Q 14.796875 37.75 14.796875 27.984375 
Q 14.796875 18.265625 18.828125 12.890625 
Q 22.859375 7.515625 30.078125 7.515625 
Q 37.359375 7.515625 41.375 12.890625 
Q 45.40625 18.265625 45.40625 27.984375 
z
M 54.390625 6.78125 
Q 54.390625 -7.171875 48.1875 -13.984375 
Q 42 -20.796875 29.203125 -20.796875 
Q 24.46875 -20.796875 20.265625 -20.09375 
Q 16.0625 -19.390625 12.109375 -17.921875 
L 12.109375 -9.1875 
Q 16.0625 -11.328125 19.921875 -12.34375 
Q 23.78125 -13.375 27.78125 -13.375 
Q 36.625 -13.375 41.015625 -8.765625 
Q 45.40625 -4.15625 45.40625 5.171875 
L 45.40625 9.625 
Q 42.625 4.78125 38.28125 2.390625 
Q 33.9375 0 27.875 0 
Q 17.828125 0 11.671875 7.65625 
Q 5.515625 15.328125 5.515625 27.984375 
Q 5.515625 40.671875 11.671875 48.328125 
Q 17.828125 56 27.875 56 
Q 33.9375 56 38.28125 53.609375 
Q 42.625 51.21875 45.40625 46.390625 
L 45.40625 54.6875 
L 54.390625 54.6875 
z
" id="DejaVuSans-67"/>
      <path d="M 32.171875 -5.078125 
Q 28.375 -14.84375 24.75 -17.8125 
Q 21.140625 -20.796875 15.09375 -20.796875 
L 7.90625 -20.796875 
L 7.90625 -13.28125 
L 13.1875 -13.28125 
Q 16.890625 -13.28125 18.9375 -11.515625 
Q 21 -9.765625 23.484375 -3.21875 
L 25.09375 0.875 
L 2.984375 54.6875 
L 12.5 54.6875 
L 29.59375 11.921875 
L 46.6875 54.6875 
L 56.203125 54.6875 
z
" id="DejaVuSans-79"/>
      <path d="M 9.078125 75.984375 
L 18.109375 75.984375 
L 18.109375 31.109375 
L 44.921875 54.6875 
L 56.390625 54.6875 
L 27.390625 29.109375 
L 57.625 0 
L 45.90625 0 
L 18.109375 26.703125 
L 18.109375 0 
L 9.078125 0 
z
" id="DejaVuSans-6b"/>
      <path d="M 34.28125 27.484375 
Q 23.390625 27.484375 19.1875 25 
Q 14.984375 22.515625 14.984375 16.5 
Q 14.984375 11.71875 18.140625 8.90625 
Q 21.296875 6.109375 26.703125 6.109375 
Q 34.1875 6.109375 38.703125 11.40625 
Q 43.21875 16.703125 43.21875 25.484375 
L 43.21875 27.484375 
z
M 52.203125 31.203125 
L 52.203125 0 
L 43.21875 0 
L 43.21875 8.296875 
Q 40.140625 3.328125 35.546875 0.953125 
Q 30.953125 -1.421875 24.3125 -1.421875 
Q 15.921875 -1.421875 10.953125 3.296875 
Q 6 8.015625 6 15.921875 
Q 6 25.140625 12.171875 29.828125 
Q 18.359375 34.515625 30.609375 34.515625 
L 43.21875 34.515625 
L 43.21875 35.40625 
Q 43.21875 41.609375 39.140625 45 
Q 35.0625 48.390625 27.6875 48.390625 
Q 23 48.390625 18.546875 47.265625 
Q 14.109375 46.140625 10.015625 43.890625 
L 10.015625 52.203125 
Q 14.9375 54.109375 19.578125 55.046875 
Q 24.21875 56 28.609375 56 
Q 40.484375 56 46.34375 49.84375 
Q 52.203125 43.703125 52.203125 31.203125 
z
" id="DejaVuSans-61"/>
      <path d="M 9.421875 75.984375 
L 18.40625 75.984375 
L 18.40625 0 
L 9.421875 0 
z
" id="DejaVuSans-6c"/>
      <path d="M 25.390625 72.90625 
L 33.6875 72.90625 
L 8.296875 -9.28125 
L 0 -9.28125 
z
" id="DejaVuSans-2f"/>
     </defs>
     <g transform="translate(22.254687 243.044406)rotate(-90)scale(0.1 -0.1)">
      <use xlink:href="#DejaVuSans-43"/>
      <use x="69.824219" xlink:href="#DejaVuSans-6f"/>
      <use x="131.005859" xlink:href="#DejaVuSans-68"/>
      <use x="194.384766" xlink:href="#DejaVuSans-65"/>
      <use x="255.908203" xlink:href="#DejaVuSans-73"/>
      <use x="308.007812" xlink:href="#DejaVuSans-69"/>
      <use x="335.791016" xlink:href="#DejaVuSans-76"/>
      <use x="394.970703" xlink:href="#DejaVuSans-65"/>
      <use x="456.494141" xlink:href="#DejaVuSans-20"/>
      <use x="488.28125" xlink:href="#DejaVuSans-65"/>
      <use x="549.804688" xlink:href="#DejaVuSans-6e"/>
      <use x="613.183594" xlink:href="#DejaVuSans-65"/>
      <use x="674.707031" xlink:href="#DejaVuSans-72"/>
      <use x="715.804688" xlink:href="#DejaVuSans-67"/>
      <use x="779.28125" xlink:href="#DejaVuSans-79"/>
      <use x="838.460938" xlink:href="#DejaVuSans-20"/>
      <use x="870.248047" xlink:href="#DejaVuSans-28"/>
      <use x="909.261719" xlink:href="#DejaVuSans-6b"/>
      <use x="967.171875" xlink:href="#DejaVuSans-63"/>
      <use x="1022.152344" xlink:href="#DejaVuSans-61"/>
      <use x="1083.431641" xlink:href="#DejaVuSans-6c"/>
      <use x="1111.214844" xlink:href="#DejaVuSans-2f"/>
      <use x="1144.90625" xlink:href="#DejaVuSans-6d"/>
      <use x="1242.318359" xlink:href="#DejaVuSans-6f"/>
      <use x="1303.5" xlink:href="#DejaVuSans-6c"/>
      <use x="1331.283203" xlink:href="#DejaVuSans-29"/>
     </g>
    </g>
   </g>
   <g id="line2d_11">
    <path clip-path="url(#pde291eee3b)" d="M 57.6 53.568 
L 58.231942 125.441489 
L 58.863885 145.883578 
L 59.495827 158.758104 
L 60.12777 145.567554 
L 60.759712 169.902007 
L 62.023597 174.164388 
L 62.65554 189.792691 
L 63.287482 178.161876 
L 63.919424 191.577784 
L 64.551367 171.241072 
L 65.183309 169.287334 
L 65.815252 186.439412 
L 66.447194 173.761939 
L 67.079137 207.350772 
L 67.711079 176.524671 
L 68.343022 178.193841 
L 68.974964 174.654789 
L 69.606906 194.425167 
L 70.238849 174.769999 
L 70.870791 199.90267 
L 71.502734 195.297751 
L 72.134676 195.527112 
L 72.766619 180.960685 
L 73.398561 192.497016 
L 74.030504 209.072849 
L 74.662446 197.687645 
L 75.294388 184.278621 
L 75.926331 198.508666 
L 77.190216 233.577746 
L 77.822158 221.504482 
L 78.454101 198.948009 
L 79.086043 208.538117 
L 79.717986 187.472548 
L 80.349928 187.364532 
L 80.981871 164.838138 
L 81.613813 198.163133 
L 82.245755 199.184736 
L 82.877698 223.06965 
L 83.50964 213.674564 
L 84.141583 208.154417 
L 84.773525 216.745082 
L 85.405468 207.505733 
L 86.03741 177.454393 
L 86.669353 207.467191 
L 87.301295 203.299806 
L 87.933237 193.679513 
L 88.56518 221.655202 
L 89.197122 233.824426 
L 89.829065 224.504654 
L 90.461007 219.772851 
L 91.09295 244.066512 
L 91.724892 220.833915 
L 92.356835 208.519622 
L 92.988777 227.547349 
L 93.620719 208.737936 
L 94.252662 210.712979 
L 94.884604 208.425026 
L 95.516547 216.667317 
L 96.148489 210.739855 
L 96.780432 228.907311 
L 97.412374 202.671695 
L 98.044317 211.014586 
L 99.308201 230.563785 
L 99.940144 195.02167 
L 100.572086 210.474078 
L 101.204029 217.828726 
L 101.835971 220.149674 
L 103.099856 208.287575 
L 103.731799 224.420192 
L 104.363741 227.093629 
L 104.995683 206.747192 
L 105.627626 221.036933 
L 106.259568 239.4704 
L 106.891511 212.284566 
L 107.523453 225.674075 
L 108.155396 208.353114 
L 108.787338 209.010188 
L 109.419281 218.862484 
L 110.051223 199.747733 
L 110.683165 204.067891 
L 111.315108 202.253333 
L 111.94705 183.22789 
L 112.578993 216.839796 
L 113.210935 217.541896 
L 113.842878 217.062573 
L 114.47482 240.47048 
L 115.106763 240.750037 
L 115.738705 248.155049 
L 116.370647 240.47603 
L 117.00259 240.368842 
L 117.634532 241.844387 
L 118.266475 223.598196 
L 118.898417 223.944984 
L 119.53036 211.506012 
L 120.162302 242.886282 
L 120.794245 227.655199 
L 121.426187 239.727867 
L 122.058129 238.426015 
L 122.690072 249.402952 
L 123.322014 243.571801 
L 123.953957 230.085263 
L 124.585899 236.07902 
L 125.217842 223.636343 
L 125.849784 253.35071 
L 126.481727 245.973659 
L 127.113669 247.077972 
L 128.377554 275.556246 
L 129.009496 246.026858 
L 129.641439 245.435718 
L 130.273381 255.01585 
L 130.905324 249.789498 
L 131.537266 253.477062 
L 132.169209 238.208616 
L 132.801151 236.838649 
L 133.433094 255.262436 
L 134.065036 230.067094 
L 134.696978 220.925533 
L 135.328921 237.885085 
L 135.960863 240.618327 
L 136.592806 244.486483 
L 137.224748 214.933972 
L 137.856691 226.606916 
L 138.488633 236.084718 
L 139.120576 242.356692 
L 139.752518 218.337643 
L 140.38446 248.730897 
L 141.016403 234.558587 
L 141.648345 243.608479 
L 142.280288 242.080943 
L 142.91223 234.49552 
L 143.544173 231.960868 
L 144.176115 247.553922 
L 144.808058 226.580925 
L 145.44 242.484572 
L 146.071942 238.292123 
L 146.703885 249.841945 
L 147.335827 249.112965 
L 147.96777 250.057292 
L 148.599712 237.798234 
L 149.231655 256.41667 
L 149.863597 263.59566 
L 150.49554 231.139349 
L 151.127482 224.581558 
L 151.759424 225.614146 
L 152.391367 251.99337 
L 153.023309 227.335217 
L 153.655252 246.508504 
L 154.287194 243.670304 
L 154.919137 243.015711 
L 155.551079 240.927672 
L 156.183022 256.927008 
L 156.814964 240.285851 
L 157.446906 229.320575 
L 158.078849 241.62175 
L 158.710791 262.958754 
L 159.342734 246.955423 
L 159.974676 247.311863 
L 160.606619 229.926121 
L 161.238561 233.087921 
L 161.870504 244.280012 
L 162.502446 231.956816 
L 163.134388 221.827678 
L 163.766331 228.606926 
L 164.398273 233.270072 
L 165.030216 224.274042 
L 165.662158 250.798581 
L 166.294101 235.127419 
L 166.926043 234.693215 
L 167.557986 222.381024 
L 168.189928 230.376153 
L 168.821871 205.788967 
L 170.085755 242.792187 
L 171.34964 212.695198 
L 171.981583 263.106619 
L 172.613525 222.084919 
L 173.245468 240.760159 
L 173.87741 233.397602 
L 174.509353 248.059887 
L 175.141295 248.733596 
L 175.773237 264.651242 
L 176.40518 249.470466 
L 177.037122 237.192437 
L 177.669065 248.759927 
L 178.301007 251.573163 
L 178.93295 247.020619 
L 179.564892 243.423646 
L 180.196835 221.98506 
L 180.828777 229.970735 
L 181.460719 235.012399 
L 182.092662 234.006421 
L 182.724604 251.551727 
L 183.356547 253.227538 
L 183.988489 242.94805 
L 184.620432 269.754856 
L 185.252374 234.923614 
L 185.884317 235.988929 
L 186.516259 237.330027 
L 187.148201 265.819815 
L 187.780144 247.572589 
L 188.412086 234.534236 
L 189.044029 245.444883 
L 189.675971 263.909532 
L 190.307914 258.496375 
L 190.939856 234.611512 
L 191.571799 259.988722 
L 192.203741 255.930665 
L 192.835683 248.974931 
L 193.467626 239.348671 
L 194.099568 247.616679 
L 194.731511 243.158279 
L 195.363453 239.98811 
L 195.995396 256.115061 
L 196.627338 242.198598 
L 197.259281 249.734531 
L 197.891223 271.35036 
L 198.523165 267.926936 
L 199.155108 260.553417 
L 199.78705 272.642346 
L 200.418993 275.89912 
L 201.050935 246.217749 
L 201.682878 269.71697 
L 202.31482 266.560284 
L 202.946763 274.808541 
L 203.578705 234.046275 
L 204.210647 260.714274 
L 204.84259 268.591319 
L 205.474532 244.769647 
L 206.106475 237.22357 
L 206.738417 259.6242 
L 207.37036 224.018242 
L 208.002302 245.123157 
L 208.634245 232.269533 
L 209.266187 239.836165 
L 209.898129 241.983174 
L 210.530072 246.615747 
L 211.162014 242.27288 
L 211.793957 240.298004 
L 212.425899 240.474263 
L 213.057842 248.556296 
L 213.689784 236.474865 
L 214.321727 232.4433 
L 214.953669 236.38796 
L 215.585612 246.994333 
L 216.217554 241.465446 
L 216.849496 253.395302 
L 217.481439 231.001959 
L 218.113381 241.457657 
L 218.745324 239.624623 
L 219.377266 256.452009 
L 220.641151 233.778291 
L 221.273094 229.490829 
L 221.905036 244.558889 
L 222.536978 240.055614 
L 223.168921 252.661792 
L 223.800863 249.246214 
L 224.432806 250.493958 
L 225.064748 281.017617 
L 225.696691 234.82645 
L 226.328633 263.918418 
L 226.960576 255.972564 
L 227.592518 277.544433 
L 228.856403 254.20972 
L 229.488345 245.570838 
L 230.120288 249.336462 
L 230.75223 267.846054 
L 231.384173 267.495096 
L 232.016115 253.689919 
L 232.648058 252.903845 
L 233.28 233.144108 
L 233.911942 261.965145 
L 234.543885 246.012348 
L 235.175827 269.730012 
L 235.80777 249.209264 
L 236.439712 264.098213 
L 237.071655 240.811816 
L 237.703597 241.436129 
L 238.33554 252.645599 
L 238.967482 273.219367 
L 239.599424 264.863097 
L 240.231367 270.592795 
L 240.863309 284.951771 
L 241.495252 260.470279 
L 242.127194 261.370339 
L 242.759137 251.910668 
L 243.391079 244.36081 
L 244.023022 264.245467 
L 244.654964 256.568865 
L 245.286906 272.65617 
L 245.918849 237.441907 
L 246.550791 268.086666 
L 247.182734 269.235149 
L 247.814676 250.178769 
L 248.446619 243.998042 
L 249.078561 242.012824 
L 249.710504 269.598743 
L 250.342446 234.411783 
L 250.974388 255.694124 
L 251.606331 265.64303 
L 252.870216 240.332758 
L 253.502158 244.658834 
L 254.134101 235.758965 
L 254.766043 250.55203 
L 255.397986 236.345029 
L 256.029928 234.80054 
L 256.661871 235.377015 
L 257.293813 249.242804 
L 257.925755 233.345321 
L 258.557698 225.139962 
L 259.18964 251.596099 
L 259.821583 231.950061 
L 260.453525 253.017749 
L 261.085468 246.024185 
L 261.71741 256.982052 
L 262.349353 258.14543 
L 262.981295 259.69672 
L 263.613237 250.030936 
L 264.24518 249.783842 
L 264.877122 286.272256 
L 265.509065 280.099836 
L 266.141007 248.17749 
L 266.77295 273.666305 
L 267.404892 274.005448 
L 268.036835 283.486756 
L 268.668777 246.358151 
L 269.300719 247.036666 
L 269.932662 255.854177 
L 270.564604 253.284423 
L 271.196547 252.770137 
L 271.828489 265.692378 
L 272.460432 249.041303 
L 273.092374 251.967584 
L 273.724317 253.815421 
L 274.356259 256.967079 
L 274.988201 264.631484 
L 275.620144 251.571444 
L 276.252086 257.277619 
L 276.884029 273.22732 
L 277.515971 284.836279 
L 278.779856 270.150874 
L 279.411799 253.235984 
L 280.043741 251.843728 
L 280.675683 233.153941 
L 281.307626 257.842039 
L 281.939568 254.293361 
L 282.571511 229.72725 
L 283.203453 254.025039 
L 283.835396 264.136712 
L 284.467338 255.644562 
L 285.099281 248.817997 
L 285.731223 260.89357 
L 286.363165 260.34768 
L 286.995108 259.040697 
L 287.62705 266.037088 
L 288.258993 252.705242 
L 288.890935 257.571462 
L 289.522878 258.142647 
L 290.15482 278.072792 
L 290.786763 241.265946 
L 291.418705 234.521434 
L 292.050647 255.482881 
L 292.68259 258.879069 
L 293.314532 255.539575 
L 293.946475 260.592 
L 294.578417 256.669391 
L 295.21036 241.393644 
L 295.842302 258.258241 
L 297.106187 247.960431 
L 297.738129 245.597135 
L 298.370072 244.525327 
L 299.002014 256.736031 
L 299.633957 241.686676 
L 300.265899 244.28122 
L 300.897842 242.676629 
L 301.529784 247.582448 
L 302.161727 237.923713 
L 302.793669 265.640977 
L 303.425612 231.458474 
L 304.057554 258.442192 
L 304.689496 234.776624 
L 305.321439 275.895579 
L 305.953381 273.030016 
L 306.585324 265.174648 
L 307.217266 270.349975 
L 307.849209 286.916387 
L 308.481151 295.488 
L 309.113094 242.118437 
L 309.745036 257.231519 
L 310.376978 266.960548 
L 311.008921 268.002159 
L 311.640863 279.331983 
L 312.272806 266.676211 
L 312.904748 263.138273 
L 313.536691 245.386124 
L 314.168633 261.375798 
L 314.800576 273.637345 
L 315.432518 271.551199 
L 316.06446 260.304241 
L 316.696403 283.346311 
L 317.328345 279.308579 
L 317.960288 262.852948 
L 318.59223 286.861432 
L 319.224173 252.709748 
L 319.856115 245.484163 
L 320.488058 261.924688 
L 321.12 261.855969 
L 321.12 261.855969 
" style="fill:none;stroke:#1f77b4;stroke-linecap:square;stroke-width:1.5;"/>
   </g>
   <g id="patch_3">
    <path d="M 57.6 307.584 
L 57.6 41.472 
" style="fill:none;stroke:#000000;stroke-linecap:square;stroke-linejoin:miter;stroke-width:0.8;"/>
   </g>
   <g id="patch_4">
    <path d="M 321.12 307.584 
L 321.12 41.472 
" style="fill:none;stroke:#000000;stroke-linecap:square;stroke-linejoin:miter;stroke-width:0.8;"/>
   </g>
   <g id="patch_5">
    <path d="M 57.6 307.584 
L 321.12 307.584 
" style="fill:none;stroke:#000000;stroke-linecap:square;stroke-linejoin:miter;stroke-width:0.8;"/>
   </g>
   <g id="patch_6">
    <path d="M 57.6 41.472 
L 321.12 41.472 
" style="fill:none;stroke:#000000;stroke-linecap:square;stroke-linejoin:miter;stroke-width:0.8;"/>
   </g>
  </g>
  <g id="axes_2">
   <g id="patch_7">
    <path d="M 328.32 307.584 
L 414.72 307.584 
L 414.72 41.472 
L 328.32 41.472 
z
" style="fill:#ffffff;"/>
   </g>
   <g id="patch_8">
    <path clip-path="url(#pbc47f519f1)" d="M 328.32 291.8592 
L 343.423074 291.8592 
L 343.423074 274.9248 
L 328.32 274.9248 
z
" style="fill:#0000ff;"/>
   </g>
   <g id="patch_9">
    <path clip-path="url(#pbc47f519f1)" d="M 328.32 267.6672 
L 402.793779 267.6672 
L 402.793779 250.7328 
L 328.32 250.7328 
z
" style="fill:#0000ff;"/>
   </g>
   <g id="patch_10">
    <path clip-path="url(#pbc47f519f1)" d="M 328.32 243.4752 
L 410.605714 243.4752 
L 410.605714 226.5408 
L 328.32 226.5408 
z
" style="fill:#0000ff;"/>
   </g>
   <g id="patch_11">
    <path clip-path="url(#pbc47f519f1)" d="M 328.32 219.2832 
L 355.92217 219.2832 
L 355.92217 202.3488 
L 328.32 202.3488 
z
" style="fill:#0000ff;"/>
   </g>
   <g id="patch_12">
    <path clip-path="url(#pbc47f519f1)" d="M 328.32 195.0912 
L 340.2983 195.0912 
L 340.2983 178.1568 
L 328.32 178.1568 
z
" style="fill:#0000ff;"/>
   </g>
   <g id="patch_13">
    <path clip-path="url(#pbc47f519f1)" d="M 328.32 170.8992 
L 332.486365 170.8992 
L 332.486365 153.9648 
L 328.32 153.9648 
z
" style="fill:#0000ff;"/>
   </g>
   <g id="patch_14">
    <path clip-path="url(#pbc47f519f1)" d="M 328.32 146.7072 
L 329.361591 146.7072 
L 329.361591 129.7728 
L 328.32 129.7728 
z
" style="fill:#0000ff;"/>
   </g>
   <g id="patch_15">
    <path clip-path="url(#pbc47f519f1)" d="M 328.32 122.5152 
L 328.840796 122.5152 
L 328.840796 105.5808 
L 328.32 105.5808 
z
" style="fill:#0000ff;"/>
   </g>
   <g id="patch_16">
    <path clip-path="url(#pbc47f519f1)" d="M 328.32 98.3232 
L 328.32 98.3232 
L 328.32 81.3888 
L 328.32 81.3888 
z
" style="fill:#0000ff;"/>
   </g>
   <g id="patch_17">
    <path clip-path="url(#pbc47f519f1)" d="M 328.32 74.1312 
L 328.840796 74.1312 
L 328.840796 57.1968 
L 328.32 57.1968 
z
" style="fill:#0000ff;"/>
   </g>
   <g id="matplotlib.axis_3">
    <g id="ytick_6">
     <g id="line2d_12">
      <defs>
       <path d="M 0 0 
L -3.5 0 
" id="m162bccfff1" style="stroke:#888888;stroke-width:0.8;"/>
      </defs>
      <g>
       <use style="fill:#888888;stroke:#888888;stroke-width:0.8;" x="328.32" xlink:href="#m162bccfff1" y="288.365588"/>
      </g>
     </g>
    </g>
    <g id="ytick_7">
     <g id="line2d_13">
      <g>
       <use style="fill:#888888;stroke:#888888;stroke-width:0.8;" x="328.32" xlink:href="#m162bccfff1" y="231.43175"/>
      </g>
     </g>
    </g>
    <g id="ytick_8">
     <g id="line2d_14">
      <g>
       <use style="fill:#888888;stroke:#888888;stroke-width:0.8;" x="328.32" xlink:href="#m162bccfff1" y="174.497912"/>
      </g>
     </g>
    </g>
    <g id="ytick_9">
     <g id="line2d_15">
      <g>
       <use style="fill:#888888;stroke:#888888;stroke-width:0.8;" x="328.32" xlink:href="#m162bccfff1" y="117.564074"/>
      </g>
     </g>
    </g>
    <g id="ytick_10">
     <g id="line2d_16">
      <g>
       <use style="fill:#888888;stroke:#888888;stroke-width:0.8;" x="328.32" xlink:href="#m162bccfff1" y="60.630236"/>
      </g>
     </g>
    </g>
   </g>
   <g id="patch_18">
    <path d="M 328.32 307.584 
L 328.32 41.472 
" style="fill:none;stroke:#888888;stroke-linecap:square;stroke-linejoin:miter;stroke-width:0.8;"/>
   </g>
   <g id="patch_19">
    <path d="M 414.72 307.584 
L 414.72 41.472 
" style="fill:none;stroke:#888888;stroke-linecap:square;stroke-linejoin:miter;stroke-width:0.8;"/>
   </g>
   <g id="patch_20">
    <path d="M 328.32 307.584 
L 414.72 307.584 
" style="fill:none;stroke:#888888;stroke-linecap:square;stroke-linejoin:miter;stroke-width:0.8;"/>
   </g>
   <g id="patch_21">
    <path d="M 328.32 41.472 
L 414.72 41.472 
" style="fill:none;stroke:#888888;stroke-linecap:square;stroke-linejoin:miter;stroke-width:0.8;"/>
   </g>
  </g>
 </g>
 <defs>
  <clipPath id="pde291eee3b">
   <rect height="266.112" width="263.52" x="57.6" y="41.472"/>
  </clipPath>
  <clipPath id="pbc47f519f1">
   <rect height="266.112" width="86.4" x="328.32" y="41.472"/>
  </clipPath>
 </defs>
</svg>
