<?xml version="1.0" encoding="utf-8" standalone="no"?>
<!DOCTYPE svg PUBLIC "-//W3C//DTD SVG 1.1//EN"
  "http://www.w3.org/Graphics/SVG/1.1/DTD/svg11.dtd">
<!-- Created with matplotlib (http://matplotlib.org/) -->
<svg height="345.6pt" version="1.1" viewBox="0 0 460.8 345.6" width="460.8pt" xmlns="http://www.w3.org/2000/svg" xmlns:xlink="http://www.w3.org/1999/xlink">
 <defs>
  <style type="text/css">
*{stroke-linecap:butt;stroke-linejoin:round;}
  </style>
 </defs>
 <g id="figure_1">
  <g id="patch_1">
   <path d="M 0 345.6 
L 460.8 345.6 
L 460.8 0 
L 0 0 
z
" style="fill:#ffffff;"/>
  </g>
  <g id="axes_1">
   <g id="patch_2">
    <path d="M 57.6 307.584 
L 321.12 307.584 
L 321.12 41.472 
L 57.6 41.472 
z
" style="fill:#ffffff;"/>
   </g>
   <g id="matplotlib.axis_1">
    <g id="xtick_1">
     <g id="line2d_1">
      <defs>
       <path d="M 0 0 
L 0 3.5 
" id="mce46370923" style="stroke:#000000;stroke-width:0.8;"/>
      </defs>
      <g>
       <use style="stroke:#000000;stroke-width:0.8;" x="57.6" xlink:href="#mce46370923" y="307.584"/>
      </g>
     </g>
     <g id="text_1">
      <!-- 0.0 -->
      <defs>
       <path d="M 31.78125 66.40625 
Q 24.171875 66.40625 20.328125 58.90625 
Q 16.5 51.421875 16.5 36.375 
Q 16.5 21.390625 20.328125 13.890625 
Q 24.171875 6.390625 31.78125 6.390625 
Q 39.453125 6.390625 43.28125 13.890625 
Q 47.125 21.390625 47.125 36.375 
Q 47.125 51.421875 43.28125 58.90625 
Q 39.453125 66.40625 31.78125 66.40625 
z
M 31.78125 74.21875 
Q 44.046875 74.21875 50.515625 64.515625 
Q 56.984375 54.828125 56.984375 36.375 
Q 56.984375 17.96875 50.515625 8.265625 
Q 44.046875 -1.421875 31.78125 -1.421875 
Q 19.53125 -1.421875 13.0625 8.265625 
Q 6.59375 17.96875 6.59375 36.375 
Q 6.59375 54.828125 13.0625 64.515625 
Q 19.53125 74.21875 31.78125 74.21875 
z
" id="DejaVuSans-30"/>
       <path d="M 10.6875 12.40625 
L 21 12.40625 
L 21 0 
L 10.6875 0 
z
" id="DejaVuSans-2e"/>
      </defs>
      <g transform="translate(49.648438 322.182437)scale(0.1 -0.1)">
       <use xlink:href="#DejaVuSans-30"/>
       <use x="63.623047" xlink:href="#DejaVuSans-2e"/>
       <use x="95.410156" xlink:href="#DejaVuSans-30"/>
      </g>
     </g>
    </g>
    <g id="xtick_2">
     <g id="line2d_2">
      <g>
       <use style="stroke:#000000;stroke-width:0.8;" x="123.427338" xlink:href="#mce46370923" y="307.584"/>
      </g>
     </g>
     <g id="text_2">
      <!-- 0.5 -->
      <defs>
       <path d="M 10.796875 72.90625 
L 49.515625 72.90625 
L 49.515625 64.59375 
L 19.828125 64.59375 
L 19.828125 46.734375 
Q 21.96875 47.46875 24.109375 47.828125 
Q 26.265625 48.1875 28.421875 48.1875 
Q 40.625 48.1875 47.75 41.5 
Q 54.890625 34.8125 54.890625 23.390625 
Q 54.890625 11.625 47.5625 5.09375 
Q 40.234375 -1.421875 26.90625 -1.421875 
Q 22.3125 -1.421875 17.546875 -0.640625 
Q 12.796875 0.140625 7.71875 1.703125 
L 7.71875 11.625 
Q 12.109375 9.234375 16.796875 8.0625 
Q 21.484375 6.890625 26.703125 6.890625 
Q 35.15625 6.890625 40.078125 11.328125 
Q 45.015625 15.765625 45.015625 23.390625 
Q 45.015625 31 40.078125 35.4375 
Q 35.15625 39.890625 26.703125 39.890625 
Q 22.75 39.890625 18.8125 39.015625 
Q 14.890625 38.140625 10.796875 36.28125 
z
" id="DejaVuSans-35"/>
      </defs>
      <g transform="translate(115.475776 322.182437)scale(0.1 -0.1)">
       <use xlink:href="#DejaVuSans-30"/>
       <use x="63.623047" xlink:href="#DejaVuSans-2e"/>
       <use x="95.410156" xlink:href="#DejaVuSans-35"/>
      </g>
     </g>
    </g>
    <g id="xtick_3">
     <g id="line2d_3">
      <g>
       <use style="stroke:#000000;stroke-width:0.8;" x="189.254676" xlink:href="#mce46370923" y="307.584"/>
      </g>
     </g>
     <g id="text_3">
      <!-- 1.0 -->
      <defs>
       <path d="M 12.40625 8.296875 
L 28.515625 8.296875 
L 28.515625 63.921875 
L 10.984375 60.40625 
L 10.984375 69.390625 
L 28.421875 72.90625 
L 38.28125 72.90625 
L 38.28125 8.296875 
L 54.390625 8.296875 
L 54.390625 0 
L 12.40625 0 
z
" id="DejaVuSans-31"/>
      </defs>
      <g transform="translate(181.303114 322.182437)scale(0.1 -0.1)">
       <use xlink:href="#DejaVuSans-31"/>
       <use x="63.623047" xlink:href="#DejaVuSans-2e"/>
       <use x="95.410156" xlink:href="#DejaVuSans-30"/>
      </g>
     </g>
    </g>
    <g id="xtick_4">
     <g id="line2d_4">
      <g>
       <use style="stroke:#000000;stroke-width:0.8;" x="255.082014" xlink:href="#mce46370923" y="307.584"/>
      </g>
     </g>
     <g id="text_4">
      <!-- 1.5 -->
      <g transform="translate(247.130452 322.182437)scale(0.1 -0.1)">
       <use xlink:href="#DejaVuSans-31"/>
       <use x="63.623047" xlink:href="#DejaVuSans-2e"/>
       <use x="95.410156" xlink:href="#DejaVuSans-35"/>
      </g>
     </g>
    </g>
    <g id="xtick_5">
     <g id="line2d_5">
      <g>
       <use style="stroke:#000000;stroke-width:0.8;" x="320.909353" xlink:href="#mce46370923" y="307.584"/>
      </g>
     </g>
     <g id="text_5">
      <!-- 2.0 -->
      <defs>
       <path d="M 19.1875 8.296875 
L 53.609375 8.296875 
L 53.609375 0 
L 7.328125 0 
L 7.328125 8.296875 
Q 12.9375 14.109375 22.625 23.890625 
Q 32.328125 33.6875 34.8125 36.53125 
Q 39.546875 41.84375 41.421875 45.53125 
Q 43.3125 49.21875 43.3125 52.78125 
Q 43.3125 58.59375 39.234375 62.25 
Q 35.15625 65.921875 28.609375 65.921875 
Q 23.96875 65.921875 18.8125 64.3125 
Q 13.671875 62.703125 7.8125 59.421875 
L 7.8125 69.390625 
Q 13.765625 71.78125 18.9375 73 
Q 24.125 74.21875 28.421875 74.21875 
Q 39.75 74.21875 46.484375 68.546875 
Q 53.21875 62.890625 53.21875 53.421875 
Q 53.21875 48.921875 51.53125 44.890625 
Q 49.859375 40.875 45.40625 35.40625 
Q 44.1875 33.984375 37.640625 27.21875 
Q 31.109375 20.453125 19.1875 8.296875 
z
" id="DejaVuSans-32"/>
      </defs>
      <g transform="translate(312.95779 322.182437)scale(0.1 -0.1)">
       <use xlink:href="#DejaVuSans-32"/>
       <use x="63.623047" xlink:href="#DejaVuSans-2e"/>
       <use x="95.410156" xlink:href="#DejaVuSans-30"/>
      </g>
     </g>
    </g>
    <g id="text_6">
     <!-- Time (nsec) -->
     <defs>
      <path d="M -0.296875 72.90625 
L 61.375 72.90625 
L 61.375 64.59375 
L 35.5 64.59375 
L 35.5 0 
L 25.59375 0 
L 25.59375 64.59375 
L -0.296875 64.59375 
z
" id="DejaVuSans-54"/>
      <path d="M 9.421875 54.6875 
L 18.40625 54.6875 
L 18.40625 0 
L 9.421875 0 
z
M 9.421875 75.984375 
L 18.40625 75.984375 
L 18.40625 64.59375 
L 9.421875 64.59375 
z
" id="DejaVuSans-69"/>
      <path d="M 52 44.1875 
Q 55.375 50.25 60.0625 53.125 
Q 64.75 56 71.09375 56 
Q 79.640625 56 84.28125 50.015625 
Q 88.921875 44.046875 88.921875 33.015625 
L 88.921875 0 
L 79.890625 0 
L 79.890625 32.71875 
Q 79.890625 40.578125 77.09375 44.375 
Q 74.3125 48.1875 68.609375 48.1875 
Q 61.625 48.1875 57.5625 43.546875 
Q 53.515625 38.921875 53.515625 30.90625 
L 53.515625 0 
L 44.484375 0 
L 44.484375 32.71875 
Q 44.484375 40.625 41.703125 44.40625 
Q 38.921875 48.1875 33.109375 48.1875 
Q 26.21875 48.1875 22.15625 43.53125 
Q 18.109375 38.875 18.109375 30.90625 
L 18.109375 0 
L 9.078125 0 
L 9.078125 54.6875 
L 18.109375 54.6875 
L 18.109375 46.1875 
Q 21.1875 51.21875 25.484375 53.609375 
Q 29.78125 56 35.6875 56 
Q 41.65625 56 45.828125 52.96875 
Q 50 49.953125 52 44.1875 
z
" id="DejaVuSans-6d"/>
      <path d="M 56.203125 29.59375 
L 56.203125 25.203125 
L 14.890625 25.203125 
Q 15.484375 15.921875 20.484375 11.0625 
Q 25.484375 6.203125 34.421875 6.203125 
Q 39.59375 6.203125 44.453125 7.46875 
Q 49.3125 8.734375 54.109375 11.28125 
L 54.109375 2.78125 
Q 49.265625 0.734375 44.1875 -0.34375 
Q 39.109375 -1.421875 33.890625 -1.421875 
Q 20.796875 -1.421875 13.15625 6.1875 
Q 5.515625 13.8125 5.515625 26.8125 
Q 5.515625 40.234375 12.765625 48.109375 
Q 20.015625 56 32.328125 56 
Q 43.359375 56 49.78125 48.890625 
Q 56.203125 41.796875 56.203125 29.59375 
z
M 47.21875 32.234375 
Q 47.125 39.59375 43.09375 43.984375 
Q 39.0625 48.390625 32.421875 48.390625 
Q 24.90625 48.390625 20.390625 44.140625 
Q 15.875 39.890625 15.1875 32.171875 
z
" id="DejaVuSans-65"/>
      <path id="DejaVuSans-20"/>
      <path d="M 31 75.875 
Q 24.46875 64.65625 21.28125 53.65625 
Q 18.109375 42.671875 18.109375 31.390625 
Q 18.109375 20.125 21.3125 9.0625 
Q 24.515625 -2 31 -13.1875 
L 23.1875 -13.1875 
Q 15.875 -1.703125 12.234375 9.375 
Q 8.59375 20.453125 8.59375 31.390625 
Q 8.59375 42.28125 12.203125 53.3125 
Q 15.828125 64.359375 23.1875 75.875 
z
" id="DejaVuSans-28"/>
      <path d="M 54.890625 33.015625 
L 54.890625 0 
L 45.90625 0 
L 45.90625 32.71875 
Q 45.90625 40.484375 42.875 44.328125 
Q 39.84375 48.1875 33.796875 48.1875 
Q 26.515625 48.1875 22.3125 43.546875 
Q 18.109375 38.921875 18.109375 30.90625 
L 18.109375 0 
L 9.078125 0 
L 9.078125 54.6875 
L 18.109375 54.6875 
L 18.109375 46.1875 
Q 21.34375 51.125 25.703125 53.5625 
Q 30.078125 56 35.796875 56 
Q 45.21875 56 50.046875 50.171875 
Q 54.890625 44.34375 54.890625 33.015625 
z
" id="DejaVuSans-6e"/>
      <path d="M 44.28125 53.078125 
L 44.28125 44.578125 
Q 40.484375 46.53125 36.375 47.5 
Q 32.28125 48.484375 27.875 48.484375 
Q 21.1875 48.484375 17.84375 46.4375 
Q 14.5 44.390625 14.5 40.28125 
Q 14.5 37.15625 16.890625 35.375 
Q 19.28125 33.59375 26.515625 31.984375 
L 29.59375 31.296875 
Q 39.15625 29.25 43.1875 25.515625 
Q 47.21875 21.78125 47.21875 15.09375 
Q 47.21875 7.46875 41.1875 3.015625 
Q 35.15625 -1.421875 24.609375 -1.421875 
Q 20.21875 -1.421875 15.453125 -0.5625 
Q 10.6875 0.296875 5.421875 2 
L 5.421875 11.28125 
Q 10.40625 8.6875 15.234375 7.390625 
Q 20.0625 6.109375 24.8125 6.109375 
Q 31.15625 6.109375 34.5625 8.28125 
Q 37.984375 10.453125 37.984375 14.40625 
Q 37.984375 18.0625 35.515625 20.015625 
Q 33.0625 21.96875 24.703125 23.78125 
L 21.578125 24.515625 
Q 13.234375 26.265625 9.515625 29.90625 
Q 5.8125 33.546875 5.8125 39.890625 
Q 5.8125 47.609375 11.28125 51.796875 
Q 16.75 56 26.8125 56 
Q 31.78125 56 36.171875 55.265625 
Q 40.578125 54.546875 44.28125 53.078125 
z
" id="DejaVuSans-73"/>
      <path d="M 48.78125 52.59375 
L 48.78125 44.1875 
Q 44.96875 46.296875 41.140625 47.34375 
Q 37.3125 48.390625 33.40625 48.390625 
Q 24.65625 48.390625 19.8125 42.84375 
Q 14.984375 37.3125 14.984375 27.296875 
Q 14.984375 17.28125 19.8125 11.734375 
Q 24.65625 6.203125 33.40625 6.203125 
Q 37.3125 6.203125 41.140625 7.25 
Q 44.96875 8.296875 48.78125 10.40625 
L 48.78125 2.09375 
Q 45.015625 0.34375 40.984375 -0.53125 
Q 36.96875 -1.421875 32.421875 -1.421875 
Q 20.0625 -1.421875 12.78125 6.34375 
Q 5.515625 14.109375 5.515625 27.296875 
Q 5.515625 40.671875 12.859375 48.328125 
Q 20.21875 56 33.015625 56 
Q 37.15625 56 41.109375 55.140625 
Q 45.0625 54.296875 48.78125 52.59375 
z
" id="DejaVuSans-63"/>
      <path d="M 8.015625 75.875 
L 15.828125 75.875 
Q 23.140625 64.359375 26.78125 53.3125 
Q 30.421875 42.28125 30.421875 31.390625 
Q 30.421875 20.453125 26.78125 9.375 
Q 23.140625 -1.703125 15.828125 -13.1875 
L 8.015625 -13.1875 
Q 14.5 -2 17.703125 9.0625 
Q 20.90625 20.125 20.90625 31.390625 
Q 20.90625 42.671875 17.703125 53.65625 
Q 14.5 64.65625 8.015625 75.875 
z
" id="DejaVuSans-29"/>
     </defs>
     <g transform="translate(159.882656 335.860562)scale(0.1 -0.1)">
      <use xlink:href="#DejaVuSans-54"/>
      <use x="61.037109" xlink:href="#DejaVuSans-69"/>
      <use x="88.820312" xlink:href="#DejaVuSans-6d"/>
      <use x="186.232422" xlink:href="#DejaVuSans-65"/>
      <use x="247.755859" xlink:href="#DejaVuSans-20"/>
      <use x="279.542969" xlink:href="#DejaVuSans-28"/>
      <use x="318.556641" xlink:href="#DejaVuSans-6e"/>
      <use x="381.935547" xlink:href="#DejaVuSans-73"/>
      <use x="434.035156" xlink:href="#DejaVuSans-65"/>
      <use x="495.558594" xlink:href="#DejaVuSans-63"/>
      <use x="550.539062" xlink:href="#DejaVuSans-29"/>
     </g>
    </g>
   </g>
   <g id="matplotlib.axis_2">
    <g id="ytick_1">
     <g id="line2d_6">
      <defs>
       <path d="M 0 0 
L -3.5 0 
" id="m963d7d5483" style="stroke:#000000;stroke-width:0.8;"/>
      </defs>
      <g>
       <use style="stroke:#000000;stroke-width:0.8;" x="57.6" xlink:href="#m963d7d5483" y="293.805271"/>
      </g>
     </g>
     <g id="text_7">
      <!-- 28 -->
      <defs>
       <path d="M 31.78125 34.625 
Q 24.75 34.625 20.71875 30.859375 
Q 16.703125 27.09375 16.703125 20.515625 
Q 16.703125 13.921875 20.71875 10.15625 
Q 24.75 6.390625 31.78125 6.390625 
Q 38.8125 6.390625 42.859375 10.171875 
Q 46.921875 13.96875 46.921875 20.515625 
Q 46.921875 27.09375 42.890625 30.859375 
Q 38.875 34.625 31.78125 34.625 
z
M 21.921875 38.8125 
Q 15.578125 40.375 12.03125 44.71875 
Q 8.5 49.078125 8.5 55.328125 
Q 8.5 64.0625 14.71875 69.140625 
Q 20.953125 74.21875 31.78125 74.21875 
Q 42.671875 74.21875 48.875 69.140625 
Q 55.078125 64.0625 55.078125 55.328125 
Q 55.078125 49.078125 51.53125 44.71875 
Q 48 40.375 41.703125 38.8125 
Q 48.828125 37.15625 52.796875 32.3125 
Q 56.78125 27.484375 56.78125 20.515625 
Q 56.78125 9.90625 50.3125 4.234375 
Q 43.84375 -1.421875 31.78125 -1.421875 
Q 19.734375 -1.421875 13.25 4.234375 
Q 6.78125 9.90625 6.78125 20.515625 
Q 6.78125 27.484375 10.78125 32.3125 
Q 14.796875 37.15625 21.921875 38.8125 
z
M 18.3125 54.390625 
Q 18.3125 48.734375 21.84375 45.5625 
Q 25.390625 42.390625 31.78125 42.390625 
Q 38.140625 42.390625 41.71875 45.5625 
Q 45.3125 48.734375 45.3125 54.390625 
Q 45.3125 60.0625 41.71875 63.234375 
Q 38.140625 66.40625 31.78125 66.40625 
Q 25.390625 66.40625 21.84375 63.234375 
Q 18.3125 60.0625 18.3125 54.390625 
z
" id="DejaVuSans-38"/>
      </defs>
      <g transform="translate(37.875 297.60449)scale(0.1 -0.1)">
       <use xlink:href="#DejaVuSans-32"/>
       <use x="63.623047" xlink:href="#DejaVuSans-38"/>
      </g>
     </g>
    </g>
    <g id="ytick_2">
     <g id="line2d_7">
      <g>
       <use style="stroke:#000000;stroke-width:0.8;" x="57.6" xlink:href="#m963d7d5483" y="246.058491"/>
      </g>
     </g>
     <g id="text_8">
      <!-- 30 -->
      <defs>
       <path d="M 40.578125 39.3125 
Q 47.65625 37.796875 51.625 33 
Q 55.609375 28.21875 55.609375 21.1875 
Q 55.609375 10.40625 48.1875 4.484375 
Q 40.765625 -1.421875 27.09375 -1.421875 
Q 22.515625 -1.421875 17.65625 -0.515625 
Q 12.796875 0.390625 7.625 2.203125 
L 7.625 11.71875 
Q 11.71875 9.328125 16.59375 8.109375 
Q 21.484375 6.890625 26.8125 6.890625 
Q 36.078125 6.890625 40.9375 10.546875 
Q 45.796875 14.203125 45.796875 21.1875 
Q 45.796875 27.640625 41.28125 31.265625 
Q 36.765625 34.90625 28.71875 34.90625 
L 20.21875 34.90625 
L 20.21875 43.015625 
L 29.109375 43.015625 
Q 36.375 43.015625 40.234375 45.921875 
Q 44.09375 48.828125 44.09375 54.296875 
Q 44.09375 59.90625 40.109375 62.90625 
Q 36.140625 65.921875 28.71875 65.921875 
Q 24.65625 65.921875 20.015625 65.03125 
Q 15.375 64.15625 9.8125 62.3125 
L 9.8125 71.09375 
Q 15.4375 72.65625 20.34375 73.4375 
Q 25.25 74.21875 29.59375 74.21875 
Q 40.828125 74.21875 47.359375 69.109375 
Q 53.90625 64.015625 53.90625 55.328125 
Q 53.90625 49.265625 50.4375 45.09375 
Q 46.96875 40.921875 40.578125 39.3125 
z
" id="DejaVuSans-33"/>
      </defs>
      <g transform="translate(37.875 249.857709)scale(0.1 -0.1)">
       <use xlink:href="#DejaVuSans-33"/>
       <use x="63.623047" xlink:href="#DejaVuSans-30"/>
      </g>
     </g>
    </g>
    <g id="ytick_3">
     <g id="line2d_8">
      <g>
       <use style="stroke:#000000;stroke-width:0.8;" x="57.6" xlink:href="#m963d7d5483" y="198.31171"/>
      </g>
     </g>
     <g id="text_9">
      <!-- 32 -->
      <g transform="translate(37.875 202.110929)scale(0.1 -0.1)">
       <use xlink:href="#DejaVuSans-33"/>
       <use x="63.623047" xlink:href="#DejaVuSans-32"/>
      </g>
     </g>
    </g>
    <g id="ytick_4">
     <g id="line2d_9">
      <g>
       <use style="stroke:#000000;stroke-width:0.8;" x="57.6" xlink:href="#m963d7d5483" y="150.564929"/>
      </g>
     </g>
     <g id="text_10">
      <!-- 34 -->
      <defs>
       <path d="M 37.796875 64.3125 
L 12.890625 25.390625 
L 37.796875 25.390625 
z
M 35.203125 72.90625 
L 47.609375 72.90625 
L 47.609375 25.390625 
L 58.015625 25.390625 
L 58.015625 17.1875 
L 47.609375 17.1875 
L 47.609375 0 
L 37.796875 0 
L 37.796875 17.1875 
L 4.890625 17.1875 
L 4.890625 26.703125 
z
" id="DejaVuSans-34"/>
      </defs>
      <g transform="translate(37.875 154.364148)scale(0.1 -0.1)">
       <use xlink:href="#DejaVuSans-33"/>
       <use x="63.623047" xlink:href="#DejaVuSans-34"/>
      </g>
     </g>
    </g>
    <g id="ytick_5">
     <g id="line2d_10">
      <g>
       <use style="stroke:#000000;stroke-width:0.8;" x="57.6" xlink:href="#m963d7d5483" y="102.818148"/>
      </g>
     </g>
     <g id="text_11">
      <!-- 36 -->
      <defs>
       <path d="M 33.015625 40.375 
Q 26.375 40.375 22.484375 35.828125 
Q 18.609375 31.296875 18.609375 23.390625 
Q 18.609375 15.53125 22.484375 10.953125 
Q 26.375 6.390625 33.015625 6.390625 
Q 39.65625 6.390625 43.53125 10.953125 
Q 47.40625 15.53125 47.40625 23.390625 
Q 47.40625 31.296875 43.53125 35.828125 
Q 39.65625 40.375 33.015625 40.375 
z
M 52.59375 71.296875 
L 52.59375 62.3125 
Q 48.875 64.0625 45.09375 64.984375 
Q 41.3125 65.921875 37.59375 65.921875 
Q 27.828125 65.921875 22.671875 59.328125 
Q 17.53125 52.734375 16.796875 39.40625 
Q 19.671875 43.65625 24.015625 45.921875 
Q 28.375 48.1875 33.59375 48.1875 
Q 44.578125 48.1875 50.953125 41.515625 
Q 57.328125 34.859375 57.328125 23.390625 
Q 57.328125 12.15625 50.6875 5.359375 
Q 44.046875 -1.421875 33.015625 -1.421875 
Q 20.359375 -1.421875 13.671875 8.265625 
Q 6.984375 17.96875 6.984375 36.375 
Q 6.984375 53.65625 15.1875 63.9375 
Q 23.390625 74.21875 37.203125 74.21875 
Q 40.921875 74.21875 44.703125 73.484375 
Q 48.484375 72.75 52.59375 71.296875 
z
" id="DejaVuSans-36"/>
      </defs>
      <g transform="translate(37.875 106.617367)scale(0.1 -0.1)">
       <use xlink:href="#DejaVuSans-33"/>
       <use x="63.623047" xlink:href="#DejaVuSans-36"/>
      </g>
     </g>
    </g>
    <g id="ytick_6">
     <g id="line2d_11">
      <g>
       <use style="stroke:#000000;stroke-width:0.8;" x="57.6" xlink:href="#m963d7d5483" y="55.071368"/>
      </g>
     </g>
     <g id="text_12">
      <!-- 38 -->
      <g transform="translate(37.875 58.870587)scale(0.1 -0.1)">
       <use xlink:href="#DejaVuSans-33"/>
       <use x="63.623047" xlink:href="#DejaVuSans-38"/>
      </g>
     </g>
    </g>
    <g id="text_13">
     <!-- Cohesive energy (kcal/mol) -->
     <defs>
      <path d="M 64.40625 67.28125 
L 64.40625 56.890625 
Q 59.421875 61.53125 53.78125 63.8125 
Q 48.140625 66.109375 41.796875 66.109375 
Q 29.296875 66.109375 22.65625 58.46875 
Q 16.015625 50.828125 16.015625 36.375 
Q 16.015625 21.96875 22.65625 14.328125 
Q 29.296875 6.6875 41.796875 6.6875 
Q 48.140625 6.6875 53.78125 8.984375 
Q 59.421875 11.28125 64.40625 15.921875 
L 64.40625 5.609375 
Q 59.234375 2.09375 53.4375 0.328125 
Q 47.65625 -1.421875 41.21875 -1.421875 
Q 24.65625 -1.421875 15.125 8.703125 
Q 5.609375 18.84375 5.609375 36.375 
Q 5.609375 53.953125 15.125 64.078125 
Q 24.65625 74.21875 41.21875 74.21875 
Q 47.75 74.21875 53.53125 72.484375 
Q 59.328125 70.75 64.40625 67.28125 
z
" id="DejaVuSans-43"/>
      <path d="M 30.609375 48.390625 
Q 23.390625 48.390625 19.1875 42.75 
Q 14.984375 37.109375 14.984375 27.296875 
Q 14.984375 17.484375 19.15625 11.84375 
Q 23.34375 6.203125 30.609375 6.203125 
Q 37.796875 6.203125 41.984375 11.859375 
Q 46.1875 17.53125 46.1875 27.296875 
Q 46.1875 37.015625 41.984375 42.703125 
Q 37.796875 48.390625 30.609375 48.390625 
z
M 30.609375 56 
Q 42.328125 56 49.015625 48.375 
Q 55.71875 40.765625 55.71875 27.296875 
Q 55.71875 13.875 49.015625 6.21875 
Q 42.328125 -1.421875 30.609375 -1.421875 
Q 18.84375 -1.421875 12.171875 6.21875 
Q 5.515625 13.875 5.515625 27.296875 
Q 5.515625 40.765625 12.171875 48.375 
Q 18.84375 56 30.609375 56 
z
" id="DejaVuSans-6f"/>
      <path d="M 54.890625 33.015625 
L 54.890625 0 
L 45.90625 0 
L 45.90625 32.71875 
Q 45.90625 40.484375 42.875 44.328125 
Q 39.84375 48.1875 33.796875 48.1875 
Q 26.515625 48.1875 22.3125 43.546875 
Q 18.109375 38.921875 18.109375 30.90625 
L 18.109375 0 
L 9.078125 0 
L 9.078125 75.984375 
L 18.109375 75.984375 
L 18.109375 46.1875 
Q 21.34375 51.125 25.703125 53.5625 
Q 30.078125 56 35.796875 56 
Q 45.21875 56 50.046875 50.171875 
Q 54.890625 44.34375 54.890625 33.015625 
z
" id="DejaVuSans-68"/>
      <path d="M 2.984375 54.6875 
L 12.5 54.6875 
L 29.59375 8.796875 
L 46.6875 54.6875 
L 56.203125 54.6875 
L 35.6875 0 
L 23.484375 0 
z
" id="DejaVuSans-76"/>
      <path d="M 41.109375 46.296875 
Q 39.59375 47.171875 37.8125 47.578125 
Q 36.03125 48 33.890625 48 
Q 26.265625 48 22.1875 43.046875 
Q 18.109375 38.09375 18.109375 28.8125 
L 18.109375 0 
L 9.078125 0 
L 9.078125 54.6875 
L 18.109375 54.6875 
L 18.109375 46.1875 
Q 20.953125 51.171875 25.484375 53.578125 
Q 30.03125 56 36.53125 56 
Q 37.453125 56 38.578125 55.875 
Q 39.703125 55.765625 41.0625 55.515625 
z
" id="DejaVuSans-72"/>
      <path d="M 45.40625 27.984375 
Q 45.40625 37.75 41.375 43.109375 
Q 37.359375 48.484375 30.078125 48.484375 
Q 22.859375 48.484375 18.828125 43.109375 
Q 14.796875 37.75 14.796875 27.984375 
Q 14.796875 18.265625 18.828125 12.890625 
Q 22.859375 7.515625 30.078125 7.515625 
Q 37.359375 7.515625 41.375 12.890625 
Q 45.40625 18.265625 45.40625 27.984375 
z
M 54.390625 6.78125 
Q 54.390625 -7.171875 48.1875 -13.984375 
Q 42 -20.796875 29.203125 -20.796875 
Q 24.46875 -20.796875 20.265625 -20.09375 
Q 16.0625 -19.390625 12.109375 -17.921875 
L 12.109375 -9.1875 
Q 16.0625 -11.328125 19.921875 -12.34375 
Q 23.78125 -13.375 27.78125 -13.375 
Q 36.625 -13.375 41.015625 -8.765625 
Q 45.40625 -4.15625 45.40625 5.171875 
L 45.40625 9.625 
Q 42.625 4.78125 38.28125 2.390625 
Q 33.9375 0 27.875 0 
Q 17.828125 0 11.671875 7.65625 
Q 5.515625 15.328125 5.515625 27.984375 
Q 5.515625 40.671875 11.671875 48.328125 
Q 17.828125 56 27.875 56 
Q 33.9375 56 38.28125 53.609375 
Q 42.625 51.21875 45.40625 46.390625 
L 45.40625 54.6875 
L 54.390625 54.6875 
z
" id="DejaVuSans-67"/>
      <path d="M 32.171875 -5.078125 
Q 28.375 -14.84375 24.75 -17.8125 
Q 21.140625 -20.796875 15.09375 -20.796875 
L 7.90625 -20.796875 
L 7.90625 -13.28125 
L 13.1875 -13.28125 
Q 16.890625 -13.28125 18.9375 -11.515625 
Q 21 -9.765625 23.484375 -3.21875 
L 25.09375 0.875 
L 2.984375 54.6875 
L 12.5 54.6875 
L 29.59375 11.921875 
L 46.6875 54.6875 
L 56.203125 54.6875 
z
" id="DejaVuSans-79"/>
      <path d="M 9.078125 75.984375 
L 18.109375 75.984375 
L 18.109375 31.109375 
L 44.921875 54.6875 
L 56.390625 54.6875 
L 27.390625 29.109375 
L 57.625 0 
L 45.90625 0 
L 18.109375 26.703125 
L 18.109375 0 
L 9.078125 0 
z
" id="DejaVuSans-6b"/>
      <path d="M 34.28125 27.484375 
Q 23.390625 27.484375 19.1875 25 
Q 14.984375 22.515625 14.984375 16.5 
Q 14.984375 11.71875 18.140625 8.90625 
Q 21.296875 6.109375 26.703125 6.109375 
Q 34.1875 6.109375 38.703125 11.40625 
Q 43.21875 16.703125 43.21875 25.484375 
L 43.21875 27.484375 
z
M 52.203125 31.203125 
L 52.203125 0 
L 43.21875 0 
L 43.21875 8.296875 
Q 40.140625 3.328125 35.546875 0.953125 
Q 30.953125 -1.421875 24.3125 -1.421875 
Q 15.921875 -1.421875 10.953125 3.296875 
Q 6 8.015625 6 15.921875 
Q 6 25.140625 12.171875 29.828125 
Q 18.359375 34.515625 30.609375 34.515625 
L 43.21875 34.515625 
L 43.21875 35.40625 
Q 43.21875 41.609375 39.140625 45 
Q 35.0625 48.390625 27.6875 48.390625 
Q 23 48.390625 18.546875 47.265625 
Q 14.109375 46.140625 10.015625 43.890625 
L 10.015625 52.203125 
Q 14.9375 54.109375 19.578125 55.046875 
Q 24.21875 56 28.609375 56 
Q 40.484375 56 46.34375 49.84375 
Q 52.203125 43.703125 52.203125 31.203125 
z
" id="DejaVuSans-61"/>
      <path d="M 9.421875 75.984375 
L 18.40625 75.984375 
L 18.40625 0 
L 9.421875 0 
z
" id="DejaVuSans-6c"/>
      <path d="M 25.390625 72.90625 
L 33.6875 72.90625 
L 8.296875 -9.28125 
L 0 -9.28125 
z
" id="DejaVuSans-2f"/>
     </defs>
     <g transform="translate(31.795312 243.044406)rotate(-90)scale(0.1 -0.1)">
      <use xlink:href="#DejaVuSans-43"/>
      <use x="69.824219" xlink:href="#DejaVuSans-6f"/>
      <use x="131.005859" xlink:href="#DejaVuSans-68"/>
      <use x="194.384766" xlink:href="#DejaVuSans-65"/>
      <use x="255.908203" xlink:href="#DejaVuSans-73"/>
      <use x="308.007812" xlink:href="#DejaVuSans-69"/>
      <use x="335.791016" xlink:href="#DejaVuSans-76"/>
      <use x="394.970703" xlink:href="#DejaVuSans-65"/>
      <use x="456.494141" xlink:href="#DejaVuSans-20"/>
      <use x="488.28125" xlink:href="#DejaVuSans-65"/>
      <use x="549.804688" xlink:href="#DejaVuSans-6e"/>
      <use x="613.183594" xlink:href="#DejaVuSans-65"/>
      <use x="674.707031" xlink:href="#DejaVuSans-72"/>
      <use x="715.804688" xlink:href="#DejaVuSans-67"/>
      <use x="779.28125" xlink:href="#DejaVuSans-79"/>
      <use x="838.460938" xlink:href="#DejaVuSans-20"/>
      <use x="870.248047" xlink:href="#DejaVuSans-28"/>
      <use x="909.261719" xlink:href="#DejaVuSans-6b"/>
      <use x="967.171875" xlink:href="#DejaVuSans-63"/>
      <use x="1022.152344" xlink:href="#DejaVuSans-61"/>
      <use x="1083.431641" xlink:href="#DejaVuSans-6c"/>
      <use x="1111.214844" xlink:href="#DejaVuSans-2f"/>
      <use x="1144.90625" xlink:href="#DejaVuSans-6d"/>
      <use x="1242.318359" xlink:href="#DejaVuSans-6f"/>
      <use x="1303.5" xlink:href="#DejaVuSans-6c"/>
      <use x="1331.283203" xlink:href="#DejaVuSans-29"/>
     </g>
    </g>
   </g>
   <g id="line2d_12">
    <path clip-path="url(#p85f1865722)" d="M 57.6 53.568 
L 58.231942 145.50029 
L 58.863885 210.176916 
L 60.12777 241.66537 
L 60.759712 250.074142 
L 61.391655 248.605593 
L 62.023597 256.40366 
L 62.65554 270.863448 
L 63.287482 274.908105 
L 63.919424 275.717921 
L 64.551367 278.003521 
L 65.183309 277.171664 
L 65.815252 271.239731 
L 66.447194 269.407821 
L 67.079137 273.134718 
L 67.711079 276.183577 
L 68.343022 277.952206 
L 68.974964 274.188655 
L 69.606906 273.958499 
L 70.238849 273.22897 
L 70.870791 277.814474 
L 71.502734 275.798549 
L 72.134676 276.858616 
L 72.766619 275.885597 
L 73.398561 281.628692 
L 74.030504 280.456481 
L 74.662446 282.447226 
L 75.294388 280.021307 
L 75.926331 269.471367 
L 76.558273 278.568364 
L 77.190216 277.911221 
L 77.822158 279.321966 
L 78.454101 283.912748 
L 79.086043 281.12231 
L 79.717986 286.716862 
L 80.349928 294.346711 
L 81.613813 276.762518 
L 82.245755 279.477942 
L 82.877698 271.024389 
L 83.50964 282.780079 
L 84.141583 283.349718 
L 84.773525 279.819467 
L 85.405468 282.721565 
L 86.03741 279.467871 
L 86.669353 281.60427 
L 87.301295 279.86347 
L 87.933237 278.810415 
L 88.56518 279.083082 
L 89.197122 276.858742 
L 89.829065 278.381259 
L 90.461007 277.083033 
L 91.09295 276.950132 
L 91.724892 281.37683 
L 92.356835 278.846889 
L 92.988777 275.521817 
L 93.620719 269.502468 
L 94.252662 276.861283 
L 94.884604 278.480561 
L 95.516547 274.196662 
L 96.148489 277.670114 
L 96.780432 276.086754 
L 97.412374 279.956207 
L 98.676259 281.204273 
L 99.308201 278.428587 
L 99.940144 276.944894 
L 100.572086 277.373822 
L 101.204029 274.286811 
L 101.835971 276.275839 
L 102.467914 272.721579 
L 103.099856 272.589333 
L 103.731799 284.520444 
L 104.363741 280.51262 
L 104.995683 285.390676 
L 105.627626 282.231289 
L 106.259568 279.902697 
L 106.891511 280.84029 
L 107.523453 288.259675 
L 108.155396 283.481256 
L 108.787338 276.3918 
L 109.419281 279.029943 
L 110.051223 275.037991 
L 110.683165 287.327425 
L 111.315108 281.391779 
L 111.94705 282.21753 
L 112.578993 285.218643 
L 113.210935 275.06095 
L 113.842878 275.210982 
L 114.47482 277.609138 
L 115.106763 289.971019 
L 115.738705 284.785013 
L 116.370647 280.676686 
L 117.00259 287.328868 
L 117.634532 281.347409 
L 118.266475 278.367442 
L 118.898417 285.965756 
L 120.162302 275.148165 
L 120.794245 280.756918 
L 121.426187 284.787245 
L 122.058129 280.532971 
L 122.690072 275.25279 
L 123.322014 284.965124 
L 123.953957 288.257421 
L 124.585899 289.832237 
L 125.849784 281.693337 
L 126.481727 280.981887 
L 127.113669 285.559951 
L 127.745612 278.095196 
L 128.377554 281.307492 
L 129.009496 280.32536 
L 129.641439 280.309916 
L 130.905324 282.923434 
L 131.537266 289.733717 
L 132.169209 278.527779 
L 132.801151 278.966447 
L 133.433094 280.172009 
L 134.065036 282.008318 
L 134.696978 282.813305 
L 135.328921 289.478573 
L 135.960863 285.953431 
L 136.592806 283.951774 
L 137.224748 279.106547 
L 137.856691 282.17976 
L 138.488633 287.442124 
L 139.120576 285.96998 
L 139.752518 283.462264 
L 140.38446 291.937804 
L 141.016403 280.407705 
L 141.648345 286.787585 
L 142.280288 282.070086 
L 143.544173 287.685225 
L 144.176115 288.901778 
L 144.808058 280.235391 
L 145.44 275.136156 
L 146.071942 283.249813 
L 146.703885 284.365184 
L 147.335827 284.29314 
L 147.96777 280.015728 
L 148.599712 293.210302 
L 149.231655 280.658197 
L 149.863597 288.930284 
L 150.49554 289.399536 
L 151.127482 281.476007 
L 151.759424 282.750017 
L 152.391367 277.509241 
L 153.023309 286.551129 
L 154.287194 279.31799 
L 155.551079 285.563247 
L 156.183022 285.706764 
L 157.446906 280.982097 
L 158.078849 279.822746 
L 158.710791 273.578793 
L 159.342734 276.228062 
L 159.974676 277.698776 
L 160.606619 284.857069 
L 161.238561 273.464023 
L 162.502446 291.606806 
L 163.134388 279.458888 
L 163.766331 284.185669 
L 164.398273 279.926122 
L 165.030216 278.029982 
L 166.294101 287.503063 
L 166.926043 281.58958 
L 167.557986 283.622053 
L 168.189928 275.783636 
L 168.821871 283.83528 
L 169.453813 290.062178 
L 170.085755 288.931814 
L 170.717698 289.705891 
L 171.981583 279.592884 
L 172.613525 280.246181 
L 173.245468 273.197931 
L 173.87741 275.171668 
L 174.509353 280.380685 
L 175.141295 274.480224 
L 175.773237 279.782655 
L 176.40518 278.898053 
L 177.037122 275.642135 
L 177.669065 278.9944 
L 178.301007 279.034163 
L 178.93295 283.018768 
L 179.564892 271.660883 
L 180.196835 274.314221 
L 180.828777 281.427859 
L 181.460719 286.272725 
L 182.092662 287.585199 
L 182.724604 287.14985 
L 183.356547 284.842719 
L 183.988489 281.690428 
L 184.620432 280.737245 
L 185.252374 269.891034 
L 185.884317 280.015035 
L 186.516259 279.559845 
L 187.148201 280.988217 
L 187.780144 280.785568 
L 188.412086 282.738129 
L 189.044029 278.558623 
L 189.675971 271.633998 
L 190.307914 286.703971 
L 190.939856 286.074656 
L 191.571799 278.300393 
L 192.203741 281.780182 
L 192.835683 277.243075 
L 193.467626 290.452985 
L 194.731511 286.657626 
L 195.363453 283.594407 
L 195.995396 288.800309 
L 196.627338 295.488 
L 197.259281 282.415062 
L 197.891223 292.469179 
L 198.523165 289.594982 
L 199.155108 278.91459 
L 199.78705 286.184279 
L 200.418993 275.628566 
L 201.050935 275.940265 
L 201.682878 283.880286 
L 202.31482 273.226357 
L 202.946763 279.954551 
L 203.578705 285.456851 
L 204.210647 289.549719 
L 204.84259 281.437472 
L 205.474532 282.112731 
L 206.106475 282.223501 
L 206.738417 284.985758 
L 208.002302 284.404888 
L 208.634245 283.635268 
L 209.266187 283.282592 
L 209.898129 287.262811 
L 210.530072 283.879748 
L 211.162014 281.458234 
L 211.793957 285.313456 
L 212.425899 284.096876 
L 213.057842 285.865745 
L 213.689784 277.940483 
L 214.321727 276.674603 
L 214.953669 275.84723 
L 215.585612 285.656116 
L 216.217554 284.814119 
L 216.849496 273.485813 
L 217.481439 273.764367 
L 218.113381 276.781954 
L 218.745324 272.874465 
L 219.377266 281.482403 
L 220.009209 277.463763 
L 220.641151 281.705948 
L 221.273094 277.691398 
L 221.905036 275.6375 
L 222.536978 281.83038 
L 223.168921 276.903907 
L 223.800863 278.965249 
L 224.432806 282.792744 
L 225.064748 280.335658 
L 225.696691 281.665243 
L 226.328633 280.88575 
L 226.960576 277.778268 
L 227.592518 282.52977 
L 228.22446 286.164927 
L 228.856403 292.063959 
L 229.488345 278.257016 
L 230.120288 272.915668 
L 230.75223 274.692068 
L 231.384173 284.908215 
L 232.016115 280.932884 
L 232.648058 278.499925 
L 233.28 283.806536 
L 233.911942 280.802086 
L 234.543885 284.444924 
L 235.175827 281.630011 
L 235.80777 289.859406 
L 236.439712 287.609318 
L 237.071655 290.948652 
L 237.703597 289.218982 
L 238.33554 285.598651 
L 238.967482 283.452976 
L 239.599424 278.474596 
L 240.231367 276.934421 
L 240.863309 284.665549 
L 241.495252 288.06834 
L 242.127194 281.744062 
L 242.759137 289.73164 
L 243.391079 277.663845 
L 244.023022 286.949746 
L 244.654964 286.815417 
L 245.286906 281.635597 
L 245.918849 275.308911 
L 246.550791 282.752535 
L 247.182734 286.137819 
L 247.814676 280.369588 
L 248.446619 286.550061 
L 249.078561 288.056779 
L 249.710504 291.530243 
L 250.342446 294.156139 
L 250.974388 285.04851 
L 251.606331 287.303638 
L 252.238273 284.865238 
L 252.870216 287.012115 
L 253.502158 287.180136 
L 254.134101 285.522695 
L 254.766043 284.417576 
L 255.397986 274.447941 
L 256.029928 274.494055 
L 256.661871 279.846708 
L 257.293813 283.438914 
L 257.925755 280.417924 
L 258.557698 278.83102 
L 259.18964 281.463265 
L 259.821583 272.993754 
L 260.453525 269.947622 
L 261.085468 287.058618 
L 261.71741 280.056365 
L 262.349353 274.853937 
L 262.981295 273.357321 
L 263.613237 277.198197 
L 264.24518 283.833153 
L 264.877122 283.863732 
L 265.509065 286.734961 
L 266.141007 281.336772 
L 266.77295 284.779377 
L 267.404892 280.033425 
L 268.036835 283.408842 
L 268.668777 281.028106 
L 269.300719 280.786806 
L 269.932662 271.589015 
L 270.564604 278.378416 
L 271.196547 279.958321 
L 271.828489 283.183494 
L 272.460432 283.73343 
L 273.092374 283.228257 
L 273.724317 284.159408 
L 274.356259 290.003526 
L 274.988201 288.982423 
L 275.620144 287.720955 
L 276.252086 284.91846 
L 276.884029 275.999596 
L 277.515971 275.255166 
L 278.147914 288.142401 
L 278.779856 276.801376 
L 279.411799 277.293693 
L 280.043741 276.026508 
L 280.675683 271.478782 
L 281.307626 279.036364 
L 281.939568 281.423252 
L 282.571511 281.425886 
L 283.835396 287.059905 
L 284.467338 279.967439 
L 285.099281 276.228511 
L 285.731223 274.820162 
L 286.363165 286.262666 
L 286.995108 292.502965 
L 287.62705 285.14256 
L 288.258993 285.323214 
L 288.890935 281.295933 
L 289.522878 286.954911 
L 290.15482 282.595803 
L 290.786763 284.855413 
L 291.418705 282.044989 
L 292.050647 281.777406 
L 293.314532 289.724721 
L 293.946475 286.043173 
L 294.578417 279.412139 
L 295.842302 285.336157 
L 296.474245 283.619367 
L 297.106187 282.938189 
L 297.738129 285.481288 
L 298.370072 284.121894 
L 299.002014 276.687737 
L 299.633957 279.655351 
L 300.265899 284.356939 
L 300.897842 283.864986 
L 301.529784 282.856292 
L 302.161727 282.772496 
L 302.793669 282.975146 
L 303.425612 288.155917 
L 304.057554 283.555378 
L 304.689496 273.07487 
L 305.321439 282.098504 
L 305.953381 268.784114 
L 306.585324 270.033971 
L 307.217266 284.315697 
L 307.849209 275.218378 
L 308.481151 281.742906 
L 309.113094 276.020958 
L 309.745036 282.313535 
L 310.376978 277.61466 
L 311.008921 284.743571 
L 311.640863 277.943692 
L 312.272806 280.923202 
L 313.536691 292.196713 
L 314.168633 281.411085 
L 314.800576 285.95022 
L 315.432518 289.309377 
L 316.06446 288.665158 
L 316.696403 281.178807 
L 317.328345 281.672812 
L 317.960288 286.060708 
L 319.224173 270.728724 
L 319.856115 283.139496 
L 320.488058 279.003158 
L 321.12 267.847282 
L 321.12 267.847282 
" style="fill:none;stroke:#1f77b4;stroke-linecap:square;stroke-width:1.5;"/>
   </g>
   <g id="patch_3">
    <path d="M 57.6 307.584 
L 57.6 41.472 
" style="fill:none;stroke:#000000;stroke-linecap:square;stroke-linejoin:miter;stroke-width:0.8;"/>
   </g>
   <g id="patch_4">
    <path d="M 321.12 307.584 
L 321.12 41.472 
" style="fill:none;stroke:#000000;stroke-linecap:square;stroke-linejoin:miter;stroke-width:0.8;"/>
   </g>
   <g id="patch_5">
    <path d="M 57.6 307.584 
L 321.12 307.584 
" style="fill:none;stroke:#000000;stroke-linecap:square;stroke-linejoin:miter;stroke-width:0.8;"/>
   </g>
   <g id="patch_6">
    <path d="M 57.6 41.472 
L 321.12 41.472 
" style="fill:none;stroke:#000000;stroke-linecap:square;stroke-linejoin:miter;stroke-width:0.8;"/>
   </g>
  </g>
  <g id="axes_2">
   <g id="patch_7">
    <path d="M 328.32 307.584 
L 414.72 307.584 
L 414.72 41.472 
L 328.32 41.472 
z
" style="fill:#ffffff;"/>
   </g>
   <g id="patch_8">
    <path clip-path="url(#pe04e90774b)" d="M 328.32 291.8592 
L 410.605714 291.8592 
L 410.605714 274.9248 
L 328.32 274.9248 
z
" style="fill:#0000ff;"/>
   </g>
   <g id="patch_9">
    <path clip-path="url(#pe04e90774b)" d="M 328.32 267.6672 
L 331.42122 267.6672 
L 331.42122 250.7328 
L 328.32 250.7328 
z
" style="fill:#0000ff;"/>
   </g>
   <g id="patch_10">
    <path clip-path="url(#pe04e90774b)" d="M 328.32 243.4752 
L 328.733496 243.4752 
L 328.733496 226.5408 
L 328.32 226.5408 
z
" style="fill:#0000ff;"/>
   </g>
   <g id="patch_11">
    <path clip-path="url(#pe04e90774b)" d="M 328.32 219.2832 
L 328.526748 219.2832 
L 328.526748 202.3488 
L 328.32 202.3488 
z
" style="fill:#0000ff;"/>
   </g>
   <g id="patch_12">
    <path clip-path="url(#pe04e90774b)" d="M 328.32 195.0912 
L 328.32 195.0912 
L 328.32 178.1568 
L 328.32 178.1568 
z
" style="fill:#0000ff;"/>
   </g>
   <g id="patch_13">
    <path clip-path="url(#pe04e90774b)" d="M 328.32 170.8992 
L 328.32 170.8992 
L 328.32 153.9648 
L 328.32 153.9648 
z
" style="fill:#0000ff;"/>
   </g>
   <g id="patch_14">
    <path clip-path="url(#pe04e90774b)" d="M 328.32 146.7072 
L 328.526748 146.7072 
L 328.526748 129.7728 
L 328.32 129.7728 
z
" style="fill:#0000ff;"/>
   </g>
   <g id="patch_15">
    <path clip-path="url(#pe04e90774b)" d="M 328.32 122.5152 
L 328.32 122.5152 
L 328.32 105.5808 
L 328.32 105.5808 
z
" style="fill:#0000ff;"/>
   </g>
   <g id="patch_16">
    <path clip-path="url(#pe04e90774b)" d="M 328.32 98.3232 
L 328.32 98.3232 
L 328.32 81.3888 
L 328.32 81.3888 
z
" style="fill:#0000ff;"/>
   </g>
   <g id="patch_17">
    <path clip-path="url(#pe04e90774b)" d="M 328.32 74.1312 
L 328.526748 74.1312 
L 328.526748 57.1968 
L 328.32 57.1968 
z
" style="fill:#0000ff;"/>
   </g>
   <g id="matplotlib.axis_3">
    <g id="ytick_7">
     <g id="line2d_13">
      <defs>
       <path d="M 0 0 
L -3.5 0 
" id="mb852f08ac2" style="stroke:#888888;stroke-width:0.8;"/>
      </defs>
      <g>
       <use style="fill:#888888;stroke:#888888;stroke-width:0.8;" x="328.32" xlink:href="#mb852f08ac2" y="293.805271"/>
      </g>
     </g>
    </g>
    <g id="ytick_8">
     <g id="line2d_14">
      <g>
       <use style="fill:#888888;stroke:#888888;stroke-width:0.8;" x="328.32" xlink:href="#mb852f08ac2" y="246.058491"/>
      </g>
     </g>
    </g>
    <g id="ytick_9">
     <g id="line2d_15">
      <g>
       <use style="fill:#888888;stroke:#888888;stroke-width:0.8;" x="328.32" xlink:href="#mb852f08ac2" y="198.31171"/>
      </g>
     </g>
    </g>
    <g id="ytick_10">
     <g id="line2d_16">
      <g>
       <use style="fill:#888888;stroke:#888888;stroke-width:0.8;" x="328.32" xlink:href="#mb852f08ac2" y="150.564929"/>
      </g>
     </g>
    </g>
    <g id="ytick_11">
     <g id="line2d_17">
      <g>
       <use style="fill:#888888;stroke:#888888;stroke-width:0.8;" x="328.32" xlink:href="#mb852f08ac2" y="102.818148"/>
      </g>
     </g>
    </g>
    <g id="ytick_12">
     <g id="line2d_18">
      <g>
       <use style="fill:#888888;stroke:#888888;stroke-width:0.8;" x="328.32" xlink:href="#mb852f08ac2" y="55.071368"/>
      </g>
     </g>
    </g>
   </g>
   <g id="patch_18">
    <path d="M 328.32 307.584 
L 328.32 41.472 
" style="fill:none;stroke:#888888;stroke-linecap:square;stroke-linejoin:miter;stroke-width:0.8;"/>
   </g>
   <g id="patch_19">
    <path d="M 414.72 307.584 
L 414.72 41.472 
" style="fill:none;stroke:#888888;stroke-linecap:square;stroke-linejoin:miter;stroke-width:0.8;"/>
   </g>
   <g id="patch_20">
    <path d="M 328.32 307.584 
L 414.72 307.584 
" style="fill:none;stroke:#888888;stroke-linecap:square;stroke-linejoin:miter;stroke-width:0.8;"/>
   </g>
   <g id="patch_21">
    <path d="M 328.32 41.472 
L 414.72 41.472 
" style="fill:none;stroke:#888888;stroke-linecap:square;stroke-linejoin:miter;stroke-width:0.8;"/>
   </g>
  </g>
 </g>
 <defs>
  <clipPath id="p85f1865722">
   <rect height="266.112" width="263.52" x="57.6" y="41.472"/>
  </clipPath>
  <clipPath id="pe04e90774b">
   <rect height="266.112" width="86.4" x="328.32" y="41.472"/>
  </clipPath>
 </defs>
</svg>
