<?xml version="1.0" encoding="utf-8" standalone="no"?>
<!DOCTYPE svg PUBLIC "-//W3C//DTD SVG 1.1//EN"
  "http://www.w3.org/Graphics/SVG/1.1/DTD/svg11.dtd">
<!-- Created with matplotlib (http://matplotlib.org/) -->
<svg height="345.6pt" version="1.1" viewBox="0 0 460.8 345.6" width="460.8pt" xmlns="http://www.w3.org/2000/svg" xmlns:xlink="http://www.w3.org/1999/xlink">
 <defs>
  <style type="text/css">
*{stroke-linecap:butt;stroke-linejoin:round;}
  </style>
 </defs>
 <g id="figure_1">
  <g id="patch_1">
   <path d="M 0 345.6 
L 460.8 345.6 
L 460.8 0 
L 0 0 
z
" style="fill:#ffffff;"/>
  </g>
  <g id="axes_1">
   <g id="patch_2">
    <path d="M 57.6 307.584 
L 321.12 307.584 
L 321.12 41.472 
L 57.6 41.472 
z
" style="fill:#ffffff;"/>
   </g>
   <g id="matplotlib.axis_1">
    <g id="xtick_1">
     <g id="line2d_1">
      <defs>
       <path d="M 0 0 
L 0 3.5 
" id="me3ac51c784" style="stroke:#000000;stroke-width:0.8;"/>
      </defs>
      <g>
       <use style="stroke:#000000;stroke-width:0.8;" x="57.6" xlink:href="#me3ac51c784" y="307.584"/>
      </g>
     </g>
     <g id="text_1">
      <!-- 0.0 -->
      <defs>
       <path d="M 31.78125 66.40625 
Q 24.171875 66.40625 20.328125 58.90625 
Q 16.5 51.421875 16.5 36.375 
Q 16.5 21.390625 20.328125 13.890625 
Q 24.171875 6.390625 31.78125 6.390625 
Q 39.453125 6.390625 43.28125 13.890625 
Q 47.125 21.390625 47.125 36.375 
Q 47.125 51.421875 43.28125 58.90625 
Q 39.453125 66.40625 31.78125 66.40625 
z
M 31.78125 74.21875 
Q 44.046875 74.21875 50.515625 64.515625 
Q 56.984375 54.828125 56.984375 36.375 
Q 56.984375 17.96875 50.515625 8.265625 
Q 44.046875 -1.421875 31.78125 -1.421875 
Q 19.53125 -1.421875 13.0625 8.265625 
Q 6.59375 17.96875 6.59375 36.375 
Q 6.59375 54.828125 13.0625 64.515625 
Q 19.53125 74.21875 31.78125 74.21875 
z
" id="DejaVuSans-30"/>
       <path d="M 10.6875 12.40625 
L 21 12.40625 
L 21 0 
L 10.6875 0 
z
" id="DejaVuSans-2e"/>
      </defs>
      <g transform="translate(49.648438 322.182437)scale(0.1 -0.1)">
       <use xlink:href="#DejaVuSans-30"/>
       <use x="63.623047" xlink:href="#DejaVuSans-2e"/>
       <use x="95.410156" xlink:href="#DejaVuSans-30"/>
      </g>
     </g>
    </g>
    <g id="xtick_2">
     <g id="line2d_2">
      <g>
       <use style="stroke:#000000;stroke-width:0.8;" x="123.427338" xlink:href="#me3ac51c784" y="307.584"/>
      </g>
     </g>
     <g id="text_2">
      <!-- 0.5 -->
      <defs>
       <path d="M 10.796875 72.90625 
L 49.515625 72.90625 
L 49.515625 64.59375 
L 19.828125 64.59375 
L 19.828125 46.734375 
Q 21.96875 47.46875 24.109375 47.828125 
Q 26.265625 48.1875 28.421875 48.1875 
Q 40.625 48.1875 47.75 41.5 
Q 54.890625 34.8125 54.890625 23.390625 
Q 54.890625 11.625 47.5625 5.09375 
Q 40.234375 -1.421875 26.90625 -1.421875 
Q 22.3125 -1.421875 17.546875 -0.640625 
Q 12.796875 0.140625 7.71875 1.703125 
L 7.71875 11.625 
Q 12.109375 9.234375 16.796875 8.0625 
Q 21.484375 6.890625 26.703125 6.890625 
Q 35.15625 6.890625 40.078125 11.328125 
Q 45.015625 15.765625 45.015625 23.390625 
Q 45.015625 31 40.078125 35.4375 
Q 35.15625 39.890625 26.703125 39.890625 
Q 22.75 39.890625 18.8125 39.015625 
Q 14.890625 38.140625 10.796875 36.28125 
z
" id="DejaVuSans-35"/>
      </defs>
      <g transform="translate(115.475776 322.182437)scale(0.1 -0.1)">
       <use xlink:href="#DejaVuSans-30"/>
       <use x="63.623047" xlink:href="#DejaVuSans-2e"/>
       <use x="95.410156" xlink:href="#DejaVuSans-35"/>
      </g>
     </g>
    </g>
    <g id="xtick_3">
     <g id="line2d_3">
      <g>
       <use style="stroke:#000000;stroke-width:0.8;" x="189.254676" xlink:href="#me3ac51c784" y="307.584"/>
      </g>
     </g>
     <g id="text_3">
      <!-- 1.0 -->
      <defs>
       <path d="M 12.40625 8.296875 
L 28.515625 8.296875 
L 28.515625 63.921875 
L 10.984375 60.40625 
L 10.984375 69.390625 
L 28.421875 72.90625 
L 38.28125 72.90625 
L 38.28125 8.296875 
L 54.390625 8.296875 
L 54.390625 0 
L 12.40625 0 
z
" id="DejaVuSans-31"/>
      </defs>
      <g transform="translate(181.303114 322.182437)scale(0.1 -0.1)">
       <use xlink:href="#DejaVuSans-31"/>
       <use x="63.623047" xlink:href="#DejaVuSans-2e"/>
       <use x="95.410156" xlink:href="#DejaVuSans-30"/>
      </g>
     </g>
    </g>
    <g id="xtick_4">
     <g id="line2d_4">
      <g>
       <use style="stroke:#000000;stroke-width:0.8;" x="255.082014" xlink:href="#me3ac51c784" y="307.584"/>
      </g>
     </g>
     <g id="text_4">
      <!-- 1.5 -->
      <g transform="translate(247.130452 322.182437)scale(0.1 -0.1)">
       <use xlink:href="#DejaVuSans-31"/>
       <use x="63.623047" xlink:href="#DejaVuSans-2e"/>
       <use x="95.410156" xlink:href="#DejaVuSans-35"/>
      </g>
     </g>
    </g>
    <g id="xtick_5">
     <g id="line2d_5">
      <g>
       <use style="stroke:#000000;stroke-width:0.8;" x="320.909353" xlink:href="#me3ac51c784" y="307.584"/>
      </g>
     </g>
     <g id="text_5">
      <!-- 2.0 -->
      <defs>
       <path d="M 19.1875 8.296875 
L 53.609375 8.296875 
L 53.609375 0 
L 7.328125 0 
L 7.328125 8.296875 
Q 12.9375 14.109375 22.625 23.890625 
Q 32.328125 33.6875 34.8125 36.53125 
Q 39.546875 41.84375 41.421875 45.53125 
Q 43.3125 49.21875 43.3125 52.78125 
Q 43.3125 58.59375 39.234375 62.25 
Q 35.15625 65.921875 28.609375 65.921875 
Q 23.96875 65.921875 18.8125 64.3125 
Q 13.671875 62.703125 7.8125 59.421875 
L 7.8125 69.390625 
Q 13.765625 71.78125 18.9375 73 
Q 24.125 74.21875 28.421875 74.21875 
Q 39.75 74.21875 46.484375 68.546875 
Q 53.21875 62.890625 53.21875 53.421875 
Q 53.21875 48.921875 51.53125 44.890625 
Q 49.859375 40.875 45.40625 35.40625 
Q 44.1875 33.984375 37.640625 27.21875 
Q 31.109375 20.453125 19.1875 8.296875 
z
" id="DejaVuSans-32"/>
      </defs>
      <g transform="translate(312.95779 322.182437)scale(0.1 -0.1)">
       <use xlink:href="#DejaVuSans-32"/>
       <use x="63.623047" xlink:href="#DejaVuSans-2e"/>
       <use x="95.410156" xlink:href="#DejaVuSans-30"/>
      </g>
     </g>
    </g>
    <g id="text_6">
     <!-- Time (nsec) -->
     <defs>
      <path d="M -0.296875 72.90625 
L 61.375 72.90625 
L 61.375 64.59375 
L 35.5 64.59375 
L 35.5 0 
L 25.59375 0 
L 25.59375 64.59375 
L -0.296875 64.59375 
z
" id="DejaVuSans-54"/>
      <path d="M 9.421875 54.6875 
L 18.40625 54.6875 
L 18.40625 0 
L 9.421875 0 
z
M 9.421875 75.984375 
L 18.40625 75.984375 
L 18.40625 64.59375 
L 9.421875 64.59375 
z
" id="DejaVuSans-69"/>
      <path d="M 52 44.1875 
Q 55.375 50.25 60.0625 53.125 
Q 64.75 56 71.09375 56 
Q 79.640625 56 84.28125 50.015625 
Q 88.921875 44.046875 88.921875 33.015625 
L 88.921875 0 
L 79.890625 0 
L 79.890625 32.71875 
Q 79.890625 40.578125 77.09375 44.375 
Q 74.3125 48.1875 68.609375 48.1875 
Q 61.625 48.1875 57.5625 43.546875 
Q 53.515625 38.921875 53.515625 30.90625 
L 53.515625 0 
L 44.484375 0 
L 44.484375 32.71875 
Q 44.484375 40.625 41.703125 44.40625 
Q 38.921875 48.1875 33.109375 48.1875 
Q 26.21875 48.1875 22.15625 43.53125 
Q 18.109375 38.875 18.109375 30.90625 
L 18.109375 0 
L 9.078125 0 
L 9.078125 54.6875 
L 18.109375 54.6875 
L 18.109375 46.1875 
Q 21.1875 51.21875 25.484375 53.609375 
Q 29.78125 56 35.6875 56 
Q 41.65625 56 45.828125 52.96875 
Q 50 49.953125 52 44.1875 
z
" id="DejaVuSans-6d"/>
      <path d="M 56.203125 29.59375 
L 56.203125 25.203125 
L 14.890625 25.203125 
Q 15.484375 15.921875 20.484375 11.0625 
Q 25.484375 6.203125 34.421875 6.203125 
Q 39.59375 6.203125 44.453125 7.46875 
Q 49.3125 8.734375 54.109375 11.28125 
L 54.109375 2.78125 
Q 49.265625 0.734375 44.1875 -0.34375 
Q 39.109375 -1.421875 33.890625 -1.421875 
Q 20.796875 -1.421875 13.15625 6.1875 
Q 5.515625 13.8125 5.515625 26.8125 
Q 5.515625 40.234375 12.765625 48.109375 
Q 20.015625 56 32.328125 56 
Q 43.359375 56 49.78125 48.890625 
Q 56.203125 41.796875 56.203125 29.59375 
z
M 47.21875 32.234375 
Q 47.125 39.59375 43.09375 43.984375 
Q 39.0625 48.390625 32.421875 48.390625 
Q 24.90625 48.390625 20.390625 44.140625 
Q 15.875 39.890625 15.1875 32.171875 
z
" id="DejaVuSans-65"/>
      <path id="DejaVuSans-20"/>
      <path d="M 31 75.875 
Q 24.46875 64.65625 21.28125 53.65625 
Q 18.109375 42.671875 18.109375 31.390625 
Q 18.109375 20.125 21.3125 9.0625 
Q 24.515625 -2 31 -13.1875 
L 23.1875 -13.1875 
Q 15.875 -1.703125 12.234375 9.375 
Q 8.59375 20.453125 8.59375 31.390625 
Q 8.59375 42.28125 12.203125 53.3125 
Q 15.828125 64.359375 23.1875 75.875 
z
" id="DejaVuSans-28"/>
      <path d="M 54.890625 33.015625 
L 54.890625 0 
L 45.90625 0 
L 45.90625 32.71875 
Q 45.90625 40.484375 42.875 44.328125 
Q 39.84375 48.1875 33.796875 48.1875 
Q 26.515625 48.1875 22.3125 43.546875 
Q 18.109375 38.921875 18.109375 30.90625 
L 18.109375 0 
L 9.078125 0 
L 9.078125 54.6875 
L 18.109375 54.6875 
L 18.109375 46.1875 
Q 21.34375 51.125 25.703125 53.5625 
Q 30.078125 56 35.796875 56 
Q 45.21875 56 50.046875 50.171875 
Q 54.890625 44.34375 54.890625 33.015625 
z
" id="DejaVuSans-6e"/>
      <path d="M 44.28125 53.078125 
L 44.28125 44.578125 
Q 40.484375 46.53125 36.375 47.5 
Q 32.28125 48.484375 27.875 48.484375 
Q 21.1875 48.484375 17.84375 46.4375 
Q 14.5 44.390625 14.5 40.28125 
Q 14.5 37.15625 16.890625 35.375 
Q 19.28125 33.59375 26.515625 31.984375 
L 29.59375 31.296875 
Q 39.15625 29.25 43.1875 25.515625 
Q 47.21875 21.78125 47.21875 15.09375 
Q 47.21875 7.46875 41.1875 3.015625 
Q 35.15625 -1.421875 24.609375 -1.421875 
Q 20.21875 -1.421875 15.453125 -0.5625 
Q 10.6875 0.296875 5.421875 2 
L 5.421875 11.28125 
Q 10.40625 8.6875 15.234375 7.390625 
Q 20.0625 6.109375 24.8125 6.109375 
Q 31.15625 6.109375 34.5625 8.28125 
Q 37.984375 10.453125 37.984375 14.40625 
Q 37.984375 18.0625 35.515625 20.015625 
Q 33.0625 21.96875 24.703125 23.78125 
L 21.578125 24.515625 
Q 13.234375 26.265625 9.515625 29.90625 
Q 5.8125 33.546875 5.8125 39.890625 
Q 5.8125 47.609375 11.28125 51.796875 
Q 16.75 56 26.8125 56 
Q 31.78125 56 36.171875 55.265625 
Q 40.578125 54.546875 44.28125 53.078125 
z
" id="DejaVuSans-73"/>
      <path d="M 48.78125 52.59375 
L 48.78125 44.1875 
Q 44.96875 46.296875 41.140625 47.34375 
Q 37.3125 48.390625 33.40625 48.390625 
Q 24.65625 48.390625 19.8125 42.84375 
Q 14.984375 37.3125 14.984375 27.296875 
Q 14.984375 17.28125 19.8125 11.734375 
Q 24.65625 6.203125 33.40625 6.203125 
Q 37.3125 6.203125 41.140625 7.25 
Q 44.96875 8.296875 48.78125 10.40625 
L 48.78125 2.09375 
Q 45.015625 0.34375 40.984375 -0.53125 
Q 36.96875 -1.421875 32.421875 -1.421875 
Q 20.0625 -1.421875 12.78125 6.34375 
Q 5.515625 14.109375 5.515625 27.296875 
Q 5.515625 40.671875 12.859375 48.328125 
Q 20.21875 56 33.015625 56 
Q 37.15625 56 41.109375 55.140625 
Q 45.0625 54.296875 48.78125 52.59375 
z
" id="DejaVuSans-63"/>
      <path d="M 8.015625 75.875 
L 15.828125 75.875 
Q 23.140625 64.359375 26.78125 53.3125 
Q 30.421875 42.28125 30.421875 31.390625 
Q 30.421875 20.453125 26.78125 9.375 
Q 23.140625 -1.703125 15.828125 -13.1875 
L 8.015625 -13.1875 
Q 14.5 -2 17.703125 9.0625 
Q 20.90625 20.125 20.90625 31.390625 
Q 20.90625 42.671875 17.703125 53.65625 
Q 14.5 64.65625 8.015625 75.875 
z
" id="DejaVuSans-29"/>
     </defs>
     <g transform="translate(159.882656 335.860562)scale(0.1 -0.1)">
      <use xlink:href="#DejaVuSans-54"/>
      <use x="61.037109" xlink:href="#DejaVuSans-69"/>
      <use x="88.820312" xlink:href="#DejaVuSans-6d"/>
      <use x="186.232422" xlink:href="#DejaVuSans-65"/>
      <use x="247.755859" xlink:href="#DejaVuSans-20"/>
      <use x="279.542969" xlink:href="#DejaVuSans-28"/>
      <use x="318.556641" xlink:href="#DejaVuSans-6e"/>
      <use x="381.935547" xlink:href="#DejaVuSans-73"/>
      <use x="434.035156" xlink:href="#DejaVuSans-65"/>
      <use x="495.558594" xlink:href="#DejaVuSans-63"/>
      <use x="550.539062" xlink:href="#DejaVuSans-29"/>
     </g>
    </g>
   </g>
   <g id="matplotlib.axis_2">
    <g id="ytick_1">
     <g id="line2d_6">
      <defs>
       <path d="M 0 0 
L -3.5 0 
" id="m66fc1e7ec9" style="stroke:#000000;stroke-width:0.8;"/>
      </defs>
      <g>
       <use style="stroke:#000000;stroke-width:0.8;" x="57.6" xlink:href="#m66fc1e7ec9" y="280.795945"/>
      </g>
     </g>
     <g id="text_7">
      <!-- 230000 -->
      <defs>
       <path d="M 40.578125 39.3125 
Q 47.65625 37.796875 51.625 33 
Q 55.609375 28.21875 55.609375 21.1875 
Q 55.609375 10.40625 48.1875 4.484375 
Q 40.765625 -1.421875 27.09375 -1.421875 
Q 22.515625 -1.421875 17.65625 -0.515625 
Q 12.796875 0.390625 7.625 2.203125 
L 7.625 11.71875 
Q 11.71875 9.328125 16.59375 8.109375 
Q 21.484375 6.890625 26.8125 6.890625 
Q 36.078125 6.890625 40.9375 10.546875 
Q 45.796875 14.203125 45.796875 21.1875 
Q 45.796875 27.640625 41.28125 31.265625 
Q 36.765625 34.90625 28.71875 34.90625 
L 20.21875 34.90625 
L 20.21875 43.015625 
L 29.109375 43.015625 
Q 36.375 43.015625 40.234375 45.921875 
Q 44.09375 48.828125 44.09375 54.296875 
Q 44.09375 59.90625 40.109375 62.90625 
Q 36.140625 65.921875 28.71875 65.921875 
Q 24.65625 65.921875 20.015625 65.03125 
Q 15.375 64.15625 9.8125 62.3125 
L 9.8125 71.09375 
Q 15.4375 72.65625 20.34375 73.4375 
Q 25.25 74.21875 29.59375 74.21875 
Q 40.828125 74.21875 47.359375 69.109375 
Q 53.90625 64.015625 53.90625 55.328125 
Q 53.90625 49.265625 50.4375 45.09375 
Q 46.96875 40.921875 40.578125 39.3125 
z
" id="DejaVuSans-33"/>
      </defs>
      <g transform="translate(12.425 284.595164)scale(0.1 -0.1)">
       <use xlink:href="#DejaVuSans-32"/>
       <use x="63.623047" xlink:href="#DejaVuSans-33"/>
       <use x="127.246094" xlink:href="#DejaVuSans-30"/>
       <use x="190.869141" xlink:href="#DejaVuSans-30"/>
       <use x="254.492188" xlink:href="#DejaVuSans-30"/>
       <use x="318.115234" xlink:href="#DejaVuSans-30"/>
      </g>
     </g>
    </g>
    <g id="ytick_2">
     <g id="line2d_7">
      <g>
       <use style="stroke:#000000;stroke-width:0.8;" x="57.6" xlink:href="#m66fc1e7ec9" y="225.74317"/>
      </g>
     </g>
     <g id="text_8">
      <!-- 240000 -->
      <defs>
       <path d="M 37.796875 64.3125 
L 12.890625 25.390625 
L 37.796875 25.390625 
z
M 35.203125 72.90625 
L 47.609375 72.90625 
L 47.609375 25.390625 
L 58.015625 25.390625 
L 58.015625 17.1875 
L 47.609375 17.1875 
L 47.609375 0 
L 37.796875 0 
L 37.796875 17.1875 
L 4.890625 17.1875 
L 4.890625 26.703125 
z
" id="DejaVuSans-34"/>
      </defs>
      <g transform="translate(12.425 229.542389)scale(0.1 -0.1)">
       <use xlink:href="#DejaVuSans-32"/>
       <use x="63.623047" xlink:href="#DejaVuSans-34"/>
       <use x="127.246094" xlink:href="#DejaVuSans-30"/>
       <use x="190.869141" xlink:href="#DejaVuSans-30"/>
       <use x="254.492188" xlink:href="#DejaVuSans-30"/>
       <use x="318.115234" xlink:href="#DejaVuSans-30"/>
      </g>
     </g>
    </g>
    <g id="ytick_3">
     <g id="line2d_8">
      <g>
       <use style="stroke:#000000;stroke-width:0.8;" x="57.6" xlink:href="#m66fc1e7ec9" y="170.690395"/>
      </g>
     </g>
     <g id="text_9">
      <!-- 250000 -->
      <g transform="translate(12.425 174.489614)scale(0.1 -0.1)">
       <use xlink:href="#DejaVuSans-32"/>
       <use x="63.623047" xlink:href="#DejaVuSans-35"/>
       <use x="127.246094" xlink:href="#DejaVuSans-30"/>
       <use x="190.869141" xlink:href="#DejaVuSans-30"/>
       <use x="254.492188" xlink:href="#DejaVuSans-30"/>
       <use x="318.115234" xlink:href="#DejaVuSans-30"/>
      </g>
     </g>
    </g>
    <g id="ytick_4">
     <g id="line2d_9">
      <g>
       <use style="stroke:#000000;stroke-width:0.8;" x="57.6" xlink:href="#m66fc1e7ec9" y="115.63762"/>
      </g>
     </g>
     <g id="text_10">
      <!-- 260000 -->
      <defs>
       <path d="M 33.015625 40.375 
Q 26.375 40.375 22.484375 35.828125 
Q 18.609375 31.296875 18.609375 23.390625 
Q 18.609375 15.53125 22.484375 10.953125 
Q 26.375 6.390625 33.015625 6.390625 
Q 39.65625 6.390625 43.53125 10.953125 
Q 47.40625 15.53125 47.40625 23.390625 
Q 47.40625 31.296875 43.53125 35.828125 
Q 39.65625 40.375 33.015625 40.375 
z
M 52.59375 71.296875 
L 52.59375 62.3125 
Q 48.875 64.0625 45.09375 64.984375 
Q 41.3125 65.921875 37.59375 65.921875 
Q 27.828125 65.921875 22.671875 59.328125 
Q 17.53125 52.734375 16.796875 39.40625 
Q 19.671875 43.65625 24.015625 45.921875 
Q 28.375 48.1875 33.59375 48.1875 
Q 44.578125 48.1875 50.953125 41.515625 
Q 57.328125 34.859375 57.328125 23.390625 
Q 57.328125 12.15625 50.6875 5.359375 
Q 44.046875 -1.421875 33.015625 -1.421875 
Q 20.359375 -1.421875 13.671875 8.265625 
Q 6.984375 17.96875 6.984375 36.375 
Q 6.984375 53.65625 15.1875 63.9375 
Q 23.390625 74.21875 37.203125 74.21875 
Q 40.921875 74.21875 44.703125 73.484375 
Q 48.484375 72.75 52.59375 71.296875 
z
" id="DejaVuSans-36"/>
      </defs>
      <g transform="translate(12.425 119.436839)scale(0.1 -0.1)">
       <use xlink:href="#DejaVuSans-32"/>
       <use x="63.623047" xlink:href="#DejaVuSans-36"/>
       <use x="127.246094" xlink:href="#DejaVuSans-30"/>
       <use x="190.869141" xlink:href="#DejaVuSans-30"/>
       <use x="254.492188" xlink:href="#DejaVuSans-30"/>
       <use x="318.115234" xlink:href="#DejaVuSans-30"/>
      </g>
     </g>
    </g>
    <g id="ytick_5">
     <g id="line2d_10">
      <g>
       <use style="stroke:#000000;stroke-width:0.8;" x="57.6" xlink:href="#m66fc1e7ec9" y="60.584845"/>
      </g>
     </g>
     <g id="text_11">
      <!-- 270000 -->
      <defs>
       <path d="M 8.203125 72.90625 
L 55.078125 72.90625 
L 55.078125 68.703125 
L 28.609375 0 
L 18.3125 0 
L 43.21875 64.59375 
L 8.203125 64.59375 
z
" id="DejaVuSans-37"/>
      </defs>
      <g transform="translate(12.425 64.384064)scale(0.1 -0.1)">
       <use xlink:href="#DejaVuSans-32"/>
       <use x="63.623047" xlink:href="#DejaVuSans-37"/>
       <use x="127.246094" xlink:href="#DejaVuSans-30"/>
       <use x="190.869141" xlink:href="#DejaVuSans-30"/>
       <use x="254.492188" xlink:href="#DejaVuSans-30"/>
       <use x="318.115234" xlink:href="#DejaVuSans-30"/>
      </g>
     </g>
    </g>
    <g id="text_12">
     <!-- Volume (Angstrom^3) -->
     <defs>
      <path d="M 28.609375 0 
L 0.78125 72.90625 
L 11.078125 72.90625 
L 34.1875 11.53125 
L 57.328125 72.90625 
L 67.578125 72.90625 
L 39.796875 0 
z
" id="DejaVuSans-56"/>
      <path d="M 30.609375 48.390625 
Q 23.390625 48.390625 19.1875 42.75 
Q 14.984375 37.109375 14.984375 27.296875 
Q 14.984375 17.484375 19.15625 11.84375 
Q 23.34375 6.203125 30.609375 6.203125 
Q 37.796875 6.203125 41.984375 11.859375 
Q 46.1875 17.53125 46.1875 27.296875 
Q 46.1875 37.015625 41.984375 42.703125 
Q 37.796875 48.390625 30.609375 48.390625 
z
M 30.609375 56 
Q 42.328125 56 49.015625 48.375 
Q 55.71875 40.765625 55.71875 27.296875 
Q 55.71875 13.875 49.015625 6.21875 
Q 42.328125 -1.421875 30.609375 -1.421875 
Q 18.84375 -1.421875 12.171875 6.21875 
Q 5.515625 13.875 5.515625 27.296875 
Q 5.515625 40.765625 12.171875 48.375 
Q 18.84375 56 30.609375 56 
z
" id="DejaVuSans-6f"/>
      <path d="M 9.421875 75.984375 
L 18.40625 75.984375 
L 18.40625 0 
L 9.421875 0 
z
" id="DejaVuSans-6c"/>
      <path d="M 8.5 21.578125 
L 8.5 54.6875 
L 17.484375 54.6875 
L 17.484375 21.921875 
Q 17.484375 14.15625 20.5 10.265625 
Q 23.53125 6.390625 29.59375 6.390625 
Q 36.859375 6.390625 41.078125 11.03125 
Q 45.3125 15.671875 45.3125 23.6875 
L 45.3125 54.6875 
L 54.296875 54.6875 
L 54.296875 0 
L 45.3125 0 
L 45.3125 8.40625 
Q 42.046875 3.421875 37.71875 1 
Q 33.40625 -1.421875 27.6875 -1.421875 
Q 18.265625 -1.421875 13.375 4.4375 
Q 8.5 10.296875 8.5 21.578125 
z
M 31.109375 56 
z
" id="DejaVuSans-75"/>
      <path d="M 34.1875 63.1875 
L 20.796875 26.90625 
L 47.609375 26.90625 
z
M 28.609375 72.90625 
L 39.796875 72.90625 
L 67.578125 0 
L 57.328125 0 
L 50.6875 18.703125 
L 17.828125 18.703125 
L 11.1875 0 
L 0.78125 0 
z
" id="DejaVuSans-41"/>
      <path d="M 45.40625 27.984375 
Q 45.40625 37.75 41.375 43.109375 
Q 37.359375 48.484375 30.078125 48.484375 
Q 22.859375 48.484375 18.828125 43.109375 
Q 14.796875 37.75 14.796875 27.984375 
Q 14.796875 18.265625 18.828125 12.890625 
Q 22.859375 7.515625 30.078125 7.515625 
Q 37.359375 7.515625 41.375 12.890625 
Q 45.40625 18.265625 45.40625 27.984375 
z
M 54.390625 6.78125 
Q 54.390625 -7.171875 48.1875 -13.984375 
Q 42 -20.796875 29.203125 -20.796875 
Q 24.46875 -20.796875 20.265625 -20.09375 
Q 16.0625 -19.390625 12.109375 -17.921875 
L 12.109375 -9.1875 
Q 16.0625 -11.328125 19.921875 -12.34375 
Q 23.78125 -13.375 27.78125 -13.375 
Q 36.625 -13.375 41.015625 -8.765625 
Q 45.40625 -4.15625 45.40625 5.171875 
L 45.40625 9.625 
Q 42.625 4.78125 38.28125 2.390625 
Q 33.9375 0 27.875 0 
Q 17.828125 0 11.671875 7.65625 
Q 5.515625 15.328125 5.515625 27.984375 
Q 5.515625 40.671875 11.671875 48.328125 
Q 17.828125 56 27.875 56 
Q 33.9375 56 38.28125 53.609375 
Q 42.625 51.21875 45.40625 46.390625 
L 45.40625 54.6875 
L 54.390625 54.6875 
z
" id="DejaVuSans-67"/>
      <path d="M 18.3125 70.21875 
L 18.3125 54.6875 
L 36.8125 54.6875 
L 36.8125 47.703125 
L 18.3125 47.703125 
L 18.3125 18.015625 
Q 18.3125 11.328125 20.140625 9.421875 
Q 21.96875 7.515625 27.59375 7.515625 
L 36.8125 7.515625 
L 36.8125 0 
L 27.59375 0 
Q 17.1875 0 13.234375 3.875 
Q 9.28125 7.765625 9.28125 18.015625 
L 9.28125 47.703125 
L 2.6875 47.703125 
L 2.6875 54.6875 
L 9.28125 54.6875 
L 9.28125 70.21875 
z
" id="DejaVuSans-74"/>
      <path d="M 41.109375 46.296875 
Q 39.59375 47.171875 37.8125 47.578125 
Q 36.03125 48 33.890625 48 
Q 26.265625 48 22.1875 43.046875 
Q 18.109375 38.09375 18.109375 28.8125 
L 18.109375 0 
L 9.078125 0 
L 9.078125 54.6875 
L 18.109375 54.6875 
L 18.109375 46.1875 
Q 20.953125 51.171875 25.484375 53.578125 
Q 30.03125 56 36.53125 56 
Q 37.453125 56 38.578125 55.875 
Q 39.703125 55.765625 41.0625 55.515625 
z
" id="DejaVuSans-72"/>
      <path d="M 46.6875 72.90625 
L 73.1875 45.703125 
L 63.375 45.703125 
L 41.890625 64.984375 
L 20.40625 45.703125 
L 10.59375 45.703125 
L 37.109375 72.90625 
z
" id="DejaVuSans-5e"/>
     </defs>
     <g transform="translate(6.345312 230.680344)rotate(-90)scale(0.1 -0.1)">
      <use xlink:href="#DejaVuSans-56"/>
      <use x="68.298828" xlink:href="#DejaVuSans-6f"/>
      <use x="129.480469" xlink:href="#DejaVuSans-6c"/>
      <use x="157.263672" xlink:href="#DejaVuSans-75"/>
      <use x="220.642578" xlink:href="#DejaVuSans-6d"/>
      <use x="318.054688" xlink:href="#DejaVuSans-65"/>
      <use x="379.578125" xlink:href="#DejaVuSans-20"/>
      <use x="411.365234" xlink:href="#DejaVuSans-28"/>
      <use x="450.378906" xlink:href="#DejaVuSans-41"/>
      <use x="518.787109" xlink:href="#DejaVuSans-6e"/>
      <use x="582.166016" xlink:href="#DejaVuSans-67"/>
      <use x="645.642578" xlink:href="#DejaVuSans-73"/>
      <use x="697.742188" xlink:href="#DejaVuSans-74"/>
      <use x="736.951172" xlink:href="#DejaVuSans-72"/>
      <use x="778.033203" xlink:href="#DejaVuSans-6f"/>
      <use x="839.214844" xlink:href="#DejaVuSans-6d"/>
      <use x="936.626953" xlink:href="#DejaVuSans-5e"/>
      <use x="1020.416016" xlink:href="#DejaVuSans-33"/>
      <use x="1084.039062" xlink:href="#DejaVuSans-29"/>
     </g>
    </g>
   </g>
   <g id="line2d_11">
    <path clip-path="url(#pf6968a5e69)" d="M 57.6 295.488 
L 58.231942 218.981929 
L 58.863885 166.657229 
L 59.495827 142.411018 
L 60.12777 110.77744 
L 60.759712 100.01781 
L 61.391655 93.043218 
L 62.65554 74.909192 
L 63.287482 78.673761 
L 63.919424 89.844674 
L 64.551367 85.383136 
L 65.183309 83.314611 
L 65.815252 79.484033 
L 66.447194 79.539934 
L 67.079137 71.595169 
L 68.343022 89.660902 
L 68.974964 82.143633 
L 69.606906 94.704353 
L 70.238849 86.583892 
L 70.870791 74.104711 
L 71.502734 83.085399 
L 72.766619 88.516217 
L 73.398561 68.546616 
L 74.030504 87.319128 
L 74.662446 84.363284 
L 75.294388 66.872846 
L 75.926331 74.019621 
L 76.558273 70.213895 
L 77.190216 74.351469 
L 77.822158 79.912889 
L 78.454101 74.476675 
L 79.086043 80.746476 
L 79.717986 83.937291 
L 80.349928 76.176446 
L 80.981871 70.598014 
L 81.613813 74.434042 
L 82.245755 80.814064 
L 82.877698 70.245627 
L 84.141583 87.589481 
L 84.773525 88.750048 
L 85.405468 80.70544 
L 86.03741 67.901865 
L 86.669353 73.747138 
L 87.301295 76.464697 
L 87.933237 104.796677 
L 88.56518 87.097518 
L 89.197122 80.56898 
L 89.829065 75.81285 
L 90.461007 88.458737 
L 91.09295 86.547205 
L 91.724892 85.672796 
L 92.356835 86.461279 
L 92.988777 73.586835 
L 93.620719 77.744679 
L 94.252662 82.941188 
L 94.884604 80.850845 
L 95.516547 80.680292 
L 96.148489 71.978777 
L 96.780432 75.33737 
L 97.412374 66.301041 
L 98.044317 69.449558 
L 98.676259 97.468811 
L 99.308201 93.133449 
L 99.940144 75.021841 
L 100.572086 73.423626 
L 101.204029 69.062884 
L 101.835971 77.616638 
L 102.467914 78.045581 
L 103.099856 76.458872 
L 103.731799 79.467622 
L 104.363741 73.237701 
L 104.995683 82.579937 
L 105.627626 76.255194 
L 106.259568 83.843729 
L 106.891511 86.278537 
L 107.523453 69.277254 
L 108.787338 80.231017 
L 109.419281 71.298798 
L 110.051223 84.615475 
L 110.683165 76.13394 
L 111.315108 88.637922 
L 111.94705 65.644982 
L 112.578993 73.172249 
L 113.210935 71.023286 
L 113.842878 74.322329 
L 114.47482 66.025964 
L 115.106763 69.934684 
L 115.738705 72.080079 
L 116.370647 71.987062 
L 117.00259 69.377715 
L 117.634532 76.097511 
L 118.266475 66.543438 
L 118.898417 62.755477 
L 119.53036 69.721954 
L 120.162302 74.100632 
L 120.794245 72.833928 
L 121.426187 77.186466 
L 122.058129 88.0606 
L 122.690072 78.685564 
L 123.953957 78.804699 
L 124.585899 80.505471 
L 125.217842 74.955552 
L 125.849784 85.713211 
L 126.481727 84.47345 
L 127.113669 69.500047 
L 127.745612 82.956801 
L 128.377554 90.497192 
L 129.009496 78.798626 
L 129.641439 79.40201 
L 130.273381 77.871604 
L 131.537266 71.168526 
L 132.169209 84.279879 
L 132.801151 63.337374 
L 133.433094 77.355632 
L 134.065036 81.941793 
L 134.696978 65.057668 
L 135.328921 81.449671 
L 135.960863 78.063826 
L 137.224748 99.926395 
L 137.856691 79.056136 
L 138.488633 82.731184 
L 139.120576 80.790639 
L 139.752518 87.556279 
L 140.38446 78.395684 
L 141.016403 71.370328 
L 141.648345 75.28485 
L 142.280288 81.297901 
L 142.91223 89.884317 
L 143.544173 80.265805 
L 144.176115 85.774237 
L 144.808058 75.156913 
L 145.44 83.169552 
L 146.071942 88.803719 
L 146.703885 77.571973 
L 147.335827 76.055346 
L 147.96777 88.063271 
L 148.599712 89.796365 
L 149.231655 87.830072 
L 149.863597 83.31357 
L 150.49554 73.498574 
L 151.127482 66.037487 
L 151.759424 77.869693 
L 152.391367 64.344344 
L 153.023309 63.165279 
L 153.655252 60.797051 
L 154.287194 76.377851 
L 154.919137 74.828121 
L 155.551079 91.931543 
L 156.183022 76.068025 
L 156.814964 77.446172 
L 157.446906 84.776813 
L 158.710791 79.059433 
L 159.342734 62.664243 
L 159.974676 60.577848 
L 160.606619 66.560631 
L 161.238561 68.603067 
L 161.870504 66.154248 
L 162.502446 85.662138 
L 163.134388 73.728695 
L 164.398273 90.488731 
L 165.030216 74.350946 
L 165.662158 81.460687 
L 166.294101 83.606611 
L 166.926043 71.247731 
L 167.557986 74.322511 
L 168.189928 68.998181 
L 168.821871 71.598659 
L 169.453813 78.362773 
L 170.085755 69.027667 
L 170.717698 75.836941 
L 171.34964 70.528901 
L 171.981583 77.375886 
L 172.613525 81.782156 
L 173.245468 89.526628 
L 173.87741 80.038365 
L 174.509353 66.45499 
L 175.141295 75.555731 
L 175.773237 78.338985 
L 176.40518 72.39099 
L 177.037122 76.33344 
L 177.669065 101.63368 
L 178.301007 82.20718 
L 178.93295 79.687233 
L 179.564892 93.604228 
L 180.196835 83.453514 
L 180.828777 80.235355 
L 181.460719 82.052328 
L 182.092662 81.649303 
L 182.724604 80.391815 
L 183.356547 82.602999 
L 183.988489 97.883062 
L 184.620432 82.783709 
L 185.252374 72.15053 
L 185.884317 81.47881 
L 186.516259 73.646099 
L 187.148201 57.301624 
L 187.780144 72.109956 
L 188.412086 75.411642 
L 189.044029 75.33154 
L 189.675971 94.848916 
L 190.307914 68.510677 
L 190.939856 67.610322 
L 191.571799 64.105464 
L 192.203741 81.647916 
L 192.835683 74.178592 
L 193.467626 88.490453 
L 194.099568 72.458561 
L 194.731511 78.783685 
L 195.363453 96.650441 
L 195.995396 91.106863 
L 196.627338 76.928896 
L 197.259281 71.116248 
L 198.523165 84.9692 
L 199.155108 99.050621 
L 199.78705 90.270716 
L 200.418993 86.133148 
L 201.050935 74.942339 
L 201.682878 83.486348 
L 202.31482 98.356939 
L 202.946763 91.014556 
L 203.578705 78.470897 
L 204.210647 74.099063 
L 204.84259 71.12166 
L 205.474532 92.036336 
L 206.106475 68.101239 
L 206.738417 80.367862 
L 207.37036 67.873166 
L 208.002302 68.725009 
L 208.634245 70.654664 
L 209.266187 87.13834 
L 209.898129 82.471059 
L 210.530072 88.350828 
L 211.162014 81.538746 
L 211.793957 62.829022 
L 212.425899 71.051418 
L 213.057842 74.054943 
L 213.689784 80.059456 
L 214.321727 69.908522 
L 214.953669 68.687061 
L 215.585612 71.377375 
L 216.217554 53.568 
L 216.849496 62.200897 
L 217.481439 57.677101 
L 218.113381 68.118702 
L 218.745324 83.105416 
L 219.377266 87.519178 
L 220.009209 76.600028 
L 220.641151 76.17731 
L 221.273094 71.05117 
L 221.905036 72.361113 
L 222.536978 74.842473 
L 223.168921 87.743942 
L 223.800863 88.972082 
L 224.432806 84.365711 
L 225.064748 87.351906 
L 225.696691 85.120468 
L 226.328633 75.257885 
L 226.960576 70.159673 
L 227.592518 80.171318 
L 228.22446 70.397286 
L 228.856403 63.468697 
L 229.488345 84.882965 
L 230.120288 69.610434 
L 230.75223 81.329474 
L 231.384173 69.353739 
L 232.016115 75.625214 
L 232.648058 87.928986 
L 233.28 70.662767 
L 233.911942 80.486385 
L 234.543885 95.421696 
L 235.175827 76.624537 
L 235.80777 92.884567 
L 236.439712 81.038223 
L 237.071655 74.196341 
L 237.703597 69.543825 
L 238.33554 76.3962 
L 238.967482 84.740434 
L 239.599424 77.964896 
L 240.231367 77.959506 
L 240.863309 93.604932 
L 241.495252 84.289656 
L 242.127194 80.493497 
L 242.759137 74.219402 
L 243.391079 85.820024 
L 244.023022 84.452585 
L 244.654964 67.13324 
L 245.918849 94.859167 
L 246.550791 69.863886 
L 247.182734 85.432062 
L 247.814676 73.387247 
L 248.446619 72.875283 
L 249.078561 65.102311 
L 249.710504 80.277355 
L 250.342446 83.067286 
L 250.974388 72.343441 
L 251.606331 70.162299 
L 252.238273 71.793348 
L 252.870216 64.831886 
L 253.502158 66.749313 
L 254.134101 76.007258 
L 254.766043 87.699146 
L 255.397986 80.508428 
L 256.029928 68.22513 
L 256.661871 70.175198 
L 257.293813 83.287404 
L 257.925755 92.158112 
L 258.557698 79.274563 
L 259.18964 84.84652 
L 259.821583 85.682838 
L 260.453525 71.782811 
L 261.085468 81.631361 
L 261.71741 83.963969 
L 262.349353 81.536659 
L 262.981295 80.763922 
L 263.613237 82.641315 
L 264.24518 74.091311 
L 264.877122 80.299304 
L 265.509065 92.934951 
L 266.141007 81.100146 
L 266.77295 74.740433 
L 267.404892 81.132671 
L 268.036835 78.507287 
L 268.668777 66.23669 
L 269.300719 89.562919 
L 269.932662 78.211565 
L 271.196547 75.021841 
L 271.828489 94.792459 
L 272.460432 94.857609 
L 273.724317 86.627417 
L 274.356259 86.015792 
L 274.988201 83.737868 
L 275.620144 74.508253 
L 276.252086 70.141115 
L 276.884029 78.853839 
L 277.515971 80.826556 
L 278.147914 90.564731 
L 278.779856 77.399256 
L 279.411799 81.617829 
L 280.043741 79.387328 
L 280.675683 60.483388 
L 281.307626 70.6008 
L 281.939568 66.215814 
L 282.571511 77.050904 
L 283.203453 78.47142 
L 283.835396 73.357133 
L 284.467338 77.274308 
L 285.099281 79.840065 
L 285.731223 86.040202 
L 286.363165 79.359113 
L 286.995108 80.585111 
L 287.62705 78.610263 
L 288.258993 81.55426 
L 288.890935 83.342253 
L 289.522878 92.987235 
L 290.15482 75.36668 
L 290.786763 88.014246 
L 291.418705 68.547486 
L 292.050647 76.743176 
L 292.68259 71.681409 
L 293.314532 82.838234 
L 293.946475 67.061044 
L 294.578417 70.261581 
L 295.21036 64.276431 
L 295.842302 81.274394 
L 296.474245 68.443854 
L 297.106187 69.030888 
L 297.738129 75.520867 
L 298.370072 72.697749 
L 299.002014 84.883488 
L 299.633957 77.833727 
L 300.265899 83.153009 
L 300.897842 80.645416 
L 301.529784 86.505327 
L 302.161727 82.719837 
L 302.793669 93.718677 
L 303.425612 82.921688 
L 304.057554 77.194025 
L 304.689496 74.295717 
L 305.321439 81.186623 
L 305.953381 72.971229 
L 306.585324 86.327165 
L 307.217266 73.039313 
L 307.849209 76.010126 
L 308.481151 78.145557 
L 309.113094 65.661223 
L 309.745036 75.564342 
L 310.376978 74.90972 
L 311.008921 88.045813 
L 311.640863 79.89405 
L 312.272806 98.630574 
L 312.904748 87.535601 
L 313.536691 101.198059 
L 314.168633 89.65658 
L 314.800576 88.485178 
L 315.432518 80.37193 
L 316.06446 69.9414 
L 316.696403 70.898592 
L 317.960288 87.306333 
L 318.59223 77.500553 
L 319.224173 76.67191 
L 319.856115 78.304324 
L 320.488058 78.695452 
L 321.12 68.582642 
L 321.12 68.582642 
" style="fill:none;stroke:#1f77b4;stroke-linecap:square;stroke-width:1.5;"/>
   </g>
   <g id="patch_3">
    <path d="M 57.6 307.584 
L 57.6 41.472 
" style="fill:none;stroke:#000000;stroke-linecap:square;stroke-linejoin:miter;stroke-width:0.8;"/>
   </g>
   <g id="patch_4">
    <path d="M 321.12 307.584 
L 321.12 41.472 
" style="fill:none;stroke:#000000;stroke-linecap:square;stroke-linejoin:miter;stroke-width:0.8;"/>
   </g>
   <g id="patch_5">
    <path d="M 57.6 307.584 
L 321.12 307.584 
" style="fill:none;stroke:#000000;stroke-linecap:square;stroke-linejoin:miter;stroke-width:0.8;"/>
   </g>
   <g id="patch_6">
    <path d="M 57.6 41.472 
L 321.12 41.472 
" style="fill:none;stroke:#000000;stroke-linecap:square;stroke-linejoin:miter;stroke-width:0.8;"/>
   </g>
  </g>
  <g id="axes_2">
   <g id="patch_7">
    <path d="M 328.32 307.584 
L 414.72 307.584 
L 414.72 41.472 
L 328.32 41.472 
z
" style="fill:#ffffff;"/>
   </g>
   <g id="patch_8">
    <path clip-path="url(#p89732caa6c)" d="M 328.32 291.8592 
L 328.690656 291.8592 
L 328.690656 274.9248 
L 328.32 274.9248 
z
" style="fill:#0000ff;"/>
   </g>
   <g id="patch_9">
    <path clip-path="url(#p89732caa6c)" d="M 328.32 267.6672 
L 328.32 267.6672 
L 328.32 250.7328 
L 328.32 250.7328 
z
" style="fill:#0000ff;"/>
   </g>
   <g id="patch_10">
    <path clip-path="url(#p89732caa6c)" d="M 328.32 243.4752 
L 328.32 243.4752 
L 328.32 226.5408 
L 328.32 226.5408 
z
" style="fill:#0000ff;"/>
   </g>
   <g id="patch_11">
    <path clip-path="url(#p89732caa6c)" d="M 328.32 219.2832 
L 328.690656 219.2832 
L 328.690656 202.3488 
L 328.32 202.3488 
z
" style="fill:#0000ff;"/>
   </g>
   <g id="patch_12">
    <path clip-path="url(#p89732caa6c)" d="M 328.32 195.0912 
L 328.32 195.0912 
L 328.32 178.1568 
L 328.32 178.1568 
z
" style="fill:#0000ff;"/>
   </g>
   <g id="patch_13">
    <path clip-path="url(#p89732caa6c)" d="M 328.32 170.8992 
L 328.690656 170.8992 
L 328.690656 153.9648 
L 328.32 153.9648 
z
" style="fill:#0000ff;"/>
   </g>
   <g id="patch_14">
    <path clip-path="url(#p89732caa6c)" d="M 328.32 146.7072 
L 328.690656 146.7072 
L 328.690656 129.7728 
L 328.32 129.7728 
z
" style="fill:#0000ff;"/>
   </g>
   <g id="patch_15">
    <path clip-path="url(#p89732caa6c)" d="M 328.32 122.5152 
L 329.061313 122.5152 
L 329.061313 105.5808 
L 328.32 105.5808 
z
" style="fill:#0000ff;"/>
   </g>
   <g id="patch_16">
    <path clip-path="url(#p89732caa6c)" d="M 328.32 98.3232 
L 410.605714 98.3232 
L 410.605714 81.3888 
L 328.32 81.3888 
z
" style="fill:#0000ff;"/>
   </g>
   <g id="patch_17">
    <path clip-path="url(#p89732caa6c)" d="M 328.32 74.1312 
L 398.74471 74.1312 
L 398.74471 57.1968 
L 328.32 57.1968 
z
" style="fill:#0000ff;"/>
   </g>
   <g id="matplotlib.axis_3">
    <g id="ytick_6">
     <g id="line2d_12">
      <defs>
       <path d="M 0 0 
L -3.5 0 
" id="m905d23c90d" style="stroke:#888888;stroke-width:0.8;"/>
      </defs>
      <g>
       <use style="fill:#888888;stroke:#888888;stroke-width:0.8;" x="328.32" xlink:href="#m905d23c90d" y="280.795945"/>
      </g>
     </g>
    </g>
    <g id="ytick_7">
     <g id="line2d_13">
      <g>
       <use style="fill:#888888;stroke:#888888;stroke-width:0.8;" x="328.32" xlink:href="#m905d23c90d" y="225.74317"/>
      </g>
     </g>
    </g>
    <g id="ytick_8">
     <g id="line2d_14">
      <g>
       <use style="fill:#888888;stroke:#888888;stroke-width:0.8;" x="328.32" xlink:href="#m905d23c90d" y="170.690395"/>
      </g>
     </g>
    </g>
    <g id="ytick_9">
     <g id="line2d_15">
      <g>
       <use style="fill:#888888;stroke:#888888;stroke-width:0.8;" x="328.32" xlink:href="#m905d23c90d" y="115.63762"/>
      </g>
     </g>
    </g>
    <g id="ytick_10">
     <g id="line2d_16">
      <g>
       <use style="fill:#888888;stroke:#888888;stroke-width:0.8;" x="328.32" xlink:href="#m905d23c90d" y="60.584845"/>
      </g>
     </g>
    </g>
   </g>
   <g id="patch_18">
    <path d="M 328.32 307.584 
L 328.32 41.472 
" style="fill:none;stroke:#888888;stroke-linecap:square;stroke-linejoin:miter;stroke-width:0.8;"/>
   </g>
   <g id="patch_19">
    <path d="M 414.72 307.584 
L 414.72 41.472 
" style="fill:none;stroke:#888888;stroke-linecap:square;stroke-linejoin:miter;stroke-width:0.8;"/>
   </g>
   <g id="patch_20">
    <path d="M 328.32 307.584 
L 414.72 307.584 
" style="fill:none;stroke:#888888;stroke-linecap:square;stroke-linejoin:miter;stroke-width:0.8;"/>
   </g>
   <g id="patch_21">
    <path d="M 328.32 41.472 
L 414.72 41.472 
" style="fill:none;stroke:#888888;stroke-linecap:square;stroke-linejoin:miter;stroke-width:0.8;"/>
   </g>
  </g>
 </g>
 <defs>
  <clipPath id="pf6968a5e69">
   <rect height="266.112" width="263.52" x="57.6" y="41.472"/>
  </clipPath>
  <clipPath id="p89732caa6c">
   <rect height="266.112" width="86.4" x="328.32" y="41.472"/>
  </clipPath>
 </defs>
</svg>
