<?xml version="1.0" encoding="utf-8" standalone="no"?>
<!DOCTYPE svg PUBLIC "-//W3C//DTD SVG 1.1//EN"
  "http://www.w3.org/Graphics/SVG/1.1/DTD/svg11.dtd">
<!-- Created with matplotlib (http://matplotlib.org/) -->
<svg height="345.6pt" version="1.1" viewBox="0 0 460.8 345.6" width="460.8pt" xmlns="http://www.w3.org/2000/svg" xmlns:xlink="http://www.w3.org/1999/xlink">
 <defs>
  <style type="text/css">
*{stroke-linecap:butt;stroke-linejoin:round;}
  </style>
 </defs>
 <g id="figure_1">
  <g id="patch_1">
   <path d="M 0 345.6 
L 460.8 345.6 
L 460.8 0 
L 0 0 
z
" style="fill:#ffffff;"/>
  </g>
  <g id="axes_1">
   <g id="patch_2">
    <path d="M 57.6 307.584 
L 321.12 307.584 
L 321.12 41.472 
L 57.6 41.472 
z
" style="fill:#ffffff;"/>
   </g>
   <g id="matplotlib.axis_1">
    <g id="xtick_1">
     <g id="line2d_1">
      <defs>
       <path d="M 0 0 
L 0 3.5 
" id="m763ccccc6d" style="stroke:#000000;stroke-width:0.8;"/>
      </defs>
      <g>
       <use style="stroke:#000000;stroke-width:0.8;" x="57.6" xlink:href="#m763ccccc6d" y="307.584"/>
      </g>
     </g>
     <g id="text_1">
      <!-- 0.0 -->
      <defs>
       <path d="M 31.78125 66.40625 
Q 24.171875 66.40625 20.328125 58.90625 
Q 16.5 51.421875 16.5 36.375 
Q 16.5 21.390625 20.328125 13.890625 
Q 24.171875 6.390625 31.78125 6.390625 
Q 39.453125 6.390625 43.28125 13.890625 
Q 47.125 21.390625 47.125 36.375 
Q 47.125 51.421875 43.28125 58.90625 
Q 39.453125 66.40625 31.78125 66.40625 
z
M 31.78125 74.21875 
Q 44.046875 74.21875 50.515625 64.515625 
Q 56.984375 54.828125 56.984375 36.375 
Q 56.984375 17.96875 50.515625 8.265625 
Q 44.046875 -1.421875 31.78125 -1.421875 
Q 19.53125 -1.421875 13.0625 8.265625 
Q 6.59375 17.96875 6.59375 36.375 
Q 6.59375 54.828125 13.0625 64.515625 
Q 19.53125 74.21875 31.78125 74.21875 
z
" id="DejaVuSans-30"/>
       <path d="M 10.6875 12.40625 
L 21 12.40625 
L 21 0 
L 10.6875 0 
z
" id="DejaVuSans-2e"/>
      </defs>
      <g transform="translate(49.648438 322.182437)scale(0.1 -0.1)">
       <use xlink:href="#DejaVuSans-30"/>
       <use x="63.623047" xlink:href="#DejaVuSans-2e"/>
       <use x="95.410156" xlink:href="#DejaVuSans-30"/>
      </g>
     </g>
    </g>
    <g id="xtick_2">
     <g id="line2d_2">
      <g>
       <use style="stroke:#000000;stroke-width:0.8;" x="123.427338" xlink:href="#m763ccccc6d" y="307.584"/>
      </g>
     </g>
     <g id="text_2">
      <!-- 0.5 -->
      <defs>
       <path d="M 10.796875 72.90625 
L 49.515625 72.90625 
L 49.515625 64.59375 
L 19.828125 64.59375 
L 19.828125 46.734375 
Q 21.96875 47.46875 24.109375 47.828125 
Q 26.265625 48.1875 28.421875 48.1875 
Q 40.625 48.1875 47.75 41.5 
Q 54.890625 34.8125 54.890625 23.390625 
Q 54.890625 11.625 47.5625 5.09375 
Q 40.234375 -1.421875 26.90625 -1.421875 
Q 22.3125 -1.421875 17.546875 -0.640625 
Q 12.796875 0.140625 7.71875 1.703125 
L 7.71875 11.625 
Q 12.109375 9.234375 16.796875 8.0625 
Q 21.484375 6.890625 26.703125 6.890625 
Q 35.15625 6.890625 40.078125 11.328125 
Q 45.015625 15.765625 45.015625 23.390625 
Q 45.015625 31 40.078125 35.4375 
Q 35.15625 39.890625 26.703125 39.890625 
Q 22.75 39.890625 18.8125 39.015625 
Q 14.890625 38.140625 10.796875 36.28125 
z
" id="DejaVuSans-35"/>
      </defs>
      <g transform="translate(115.475776 322.182437)scale(0.1 -0.1)">
       <use xlink:href="#DejaVuSans-30"/>
       <use x="63.623047" xlink:href="#DejaVuSans-2e"/>
       <use x="95.410156" xlink:href="#DejaVuSans-35"/>
      </g>
     </g>
    </g>
    <g id="xtick_3">
     <g id="line2d_3">
      <g>
       <use style="stroke:#000000;stroke-width:0.8;" x="189.254676" xlink:href="#m763ccccc6d" y="307.584"/>
      </g>
     </g>
     <g id="text_3">
      <!-- 1.0 -->
      <defs>
       <path d="M 12.40625 8.296875 
L 28.515625 8.296875 
L 28.515625 63.921875 
L 10.984375 60.40625 
L 10.984375 69.390625 
L 28.421875 72.90625 
L 38.28125 72.90625 
L 38.28125 8.296875 
L 54.390625 8.296875 
L 54.390625 0 
L 12.40625 0 
z
" id="DejaVuSans-31"/>
      </defs>
      <g transform="translate(181.303114 322.182437)scale(0.1 -0.1)">
       <use xlink:href="#DejaVuSans-31"/>
       <use x="63.623047" xlink:href="#DejaVuSans-2e"/>
       <use x="95.410156" xlink:href="#DejaVuSans-30"/>
      </g>
     </g>
    </g>
    <g id="xtick_4">
     <g id="line2d_4">
      <g>
       <use style="stroke:#000000;stroke-width:0.8;" x="255.082014" xlink:href="#m763ccccc6d" y="307.584"/>
      </g>
     </g>
     <g id="text_4">
      <!-- 1.5 -->
      <g transform="translate(247.130452 322.182437)scale(0.1 -0.1)">
       <use xlink:href="#DejaVuSans-31"/>
       <use x="63.623047" xlink:href="#DejaVuSans-2e"/>
       <use x="95.410156" xlink:href="#DejaVuSans-35"/>
      </g>
     </g>
    </g>
    <g id="xtick_5">
     <g id="line2d_5">
      <g>
       <use style="stroke:#000000;stroke-width:0.8;" x="320.909353" xlink:href="#m763ccccc6d" y="307.584"/>
      </g>
     </g>
     <g id="text_5">
      <!-- 2.0 -->
      <defs>
       <path d="M 19.1875 8.296875 
L 53.609375 8.296875 
L 53.609375 0 
L 7.328125 0 
L 7.328125 8.296875 
Q 12.9375 14.109375 22.625 23.890625 
Q 32.328125 33.6875 34.8125 36.53125 
Q 39.546875 41.84375 41.421875 45.53125 
Q 43.3125 49.21875 43.3125 52.78125 
Q 43.3125 58.59375 39.234375 62.25 
Q 35.15625 65.921875 28.609375 65.921875 
Q 23.96875 65.921875 18.8125 64.3125 
Q 13.671875 62.703125 7.8125 59.421875 
L 7.8125 69.390625 
Q 13.765625 71.78125 18.9375 73 
Q 24.125 74.21875 28.421875 74.21875 
Q 39.75 74.21875 46.484375 68.546875 
Q 53.21875 62.890625 53.21875 53.421875 
Q 53.21875 48.921875 51.53125 44.890625 
Q 49.859375 40.875 45.40625 35.40625 
Q 44.1875 33.984375 37.640625 27.21875 
Q 31.109375 20.453125 19.1875 8.296875 
z
" id="DejaVuSans-32"/>
      </defs>
      <g transform="translate(312.95779 322.182437)scale(0.1 -0.1)">
       <use xlink:href="#DejaVuSans-32"/>
       <use x="63.623047" xlink:href="#DejaVuSans-2e"/>
       <use x="95.410156" xlink:href="#DejaVuSans-30"/>
      </g>
     </g>
    </g>
    <g id="text_6">
     <!-- Time (nsec) -->
     <defs>
      <path d="M -0.296875 72.90625 
L 61.375 72.90625 
L 61.375 64.59375 
L 35.5 64.59375 
L 35.5 0 
L 25.59375 0 
L 25.59375 64.59375 
L -0.296875 64.59375 
z
" id="DejaVuSans-54"/>
      <path d="M 9.421875 54.6875 
L 18.40625 54.6875 
L 18.40625 0 
L 9.421875 0 
z
M 9.421875 75.984375 
L 18.40625 75.984375 
L 18.40625 64.59375 
L 9.421875 64.59375 
z
" id="DejaVuSans-69"/>
      <path d="M 52 44.1875 
Q 55.375 50.25 60.0625 53.125 
Q 64.75 56 71.09375 56 
Q 79.640625 56 84.28125 50.015625 
Q 88.921875 44.046875 88.921875 33.015625 
L 88.921875 0 
L 79.890625 0 
L 79.890625 32.71875 
Q 79.890625 40.578125 77.09375 44.375 
Q 74.3125 48.1875 68.609375 48.1875 
Q 61.625 48.1875 57.5625 43.546875 
Q 53.515625 38.921875 53.515625 30.90625 
L 53.515625 0 
L 44.484375 0 
L 44.484375 32.71875 
Q 44.484375 40.625 41.703125 44.40625 
Q 38.921875 48.1875 33.109375 48.1875 
Q 26.21875 48.1875 22.15625 43.53125 
Q 18.109375 38.875 18.109375 30.90625 
L 18.109375 0 
L 9.078125 0 
L 9.078125 54.6875 
L 18.109375 54.6875 
L 18.109375 46.1875 
Q 21.1875 51.21875 25.484375 53.609375 
Q 29.78125 56 35.6875 56 
Q 41.65625 56 45.828125 52.96875 
Q 50 49.953125 52 44.1875 
z
" id="DejaVuSans-6d"/>
      <path d="M 56.203125 29.59375 
L 56.203125 25.203125 
L 14.890625 25.203125 
Q 15.484375 15.921875 20.484375 11.0625 
Q 25.484375 6.203125 34.421875 6.203125 
Q 39.59375 6.203125 44.453125 7.46875 
Q 49.3125 8.734375 54.109375 11.28125 
L 54.109375 2.78125 
Q 49.265625 0.734375 44.1875 -0.34375 
Q 39.109375 -1.421875 33.890625 -1.421875 
Q 20.796875 -1.421875 13.15625 6.1875 
Q 5.515625 13.8125 5.515625 26.8125 
Q 5.515625 40.234375 12.765625 48.109375 
Q 20.015625 56 32.328125 56 
Q 43.359375 56 49.78125 48.890625 
Q 56.203125 41.796875 56.203125 29.59375 
z
M 47.21875 32.234375 
Q 47.125 39.59375 43.09375 43.984375 
Q 39.0625 48.390625 32.421875 48.390625 
Q 24.90625 48.390625 20.390625 44.140625 
Q 15.875 39.890625 15.1875 32.171875 
z
" id="DejaVuSans-65"/>
      <path id="DejaVuSans-20"/>
      <path d="M 31 75.875 
Q 24.46875 64.65625 21.28125 53.65625 
Q 18.109375 42.671875 18.109375 31.390625 
Q 18.109375 20.125 21.3125 9.0625 
Q 24.515625 -2 31 -13.1875 
L 23.1875 -13.1875 
Q 15.875 -1.703125 12.234375 9.375 
Q 8.59375 20.453125 8.59375 31.390625 
Q 8.59375 42.28125 12.203125 53.3125 
Q 15.828125 64.359375 23.1875 75.875 
z
" id="DejaVuSans-28"/>
      <path d="M 54.890625 33.015625 
L 54.890625 0 
L 45.90625 0 
L 45.90625 32.71875 
Q 45.90625 40.484375 42.875 44.328125 
Q 39.84375 48.1875 33.796875 48.1875 
Q 26.515625 48.1875 22.3125 43.546875 
Q 18.109375 38.921875 18.109375 30.90625 
L 18.109375 0 
L 9.078125 0 
L 9.078125 54.6875 
L 18.109375 54.6875 
L 18.109375 46.1875 
Q 21.34375 51.125 25.703125 53.5625 
Q 30.078125 56 35.796875 56 
Q 45.21875 56 50.046875 50.171875 
Q 54.890625 44.34375 54.890625 33.015625 
z
" id="DejaVuSans-6e"/>
      <path d="M 44.28125 53.078125 
L 44.28125 44.578125 
Q 40.484375 46.53125 36.375 47.5 
Q 32.28125 48.484375 27.875 48.484375 
Q 21.1875 48.484375 17.84375 46.4375 
Q 14.5 44.390625 14.5 40.28125 
Q 14.5 37.15625 16.890625 35.375 
Q 19.28125 33.59375 26.515625 31.984375 
L 29.59375 31.296875 
Q 39.15625 29.25 43.1875 25.515625 
Q 47.21875 21.78125 47.21875 15.09375 
Q 47.21875 7.46875 41.1875 3.015625 
Q 35.15625 -1.421875 24.609375 -1.421875 
Q 20.21875 -1.421875 15.453125 -0.5625 
Q 10.6875 0.296875 5.421875 2 
L 5.421875 11.28125 
Q 10.40625 8.6875 15.234375 7.390625 
Q 20.0625 6.109375 24.8125 6.109375 
Q 31.15625 6.109375 34.5625 8.28125 
Q 37.984375 10.453125 37.984375 14.40625 
Q 37.984375 18.0625 35.515625 20.015625 
Q 33.0625 21.96875 24.703125 23.78125 
L 21.578125 24.515625 
Q 13.234375 26.265625 9.515625 29.90625 
Q 5.8125 33.546875 5.8125 39.890625 
Q 5.8125 47.609375 11.28125 51.796875 
Q 16.75 56 26.8125 56 
Q 31.78125 56 36.171875 55.265625 
Q 40.578125 54.546875 44.28125 53.078125 
z
" id="DejaVuSans-73"/>
      <path d="M 48.78125 52.59375 
L 48.78125 44.1875 
Q 44.96875 46.296875 41.140625 47.34375 
Q 37.3125 48.390625 33.40625 48.390625 
Q 24.65625 48.390625 19.8125 42.84375 
Q 14.984375 37.3125 14.984375 27.296875 
Q 14.984375 17.28125 19.8125 11.734375 
Q 24.65625 6.203125 33.40625 6.203125 
Q 37.3125 6.203125 41.140625 7.25 
Q 44.96875 8.296875 48.78125 10.40625 
L 48.78125 2.09375 
Q 45.015625 0.34375 40.984375 -0.53125 
Q 36.96875 -1.421875 32.421875 -1.421875 
Q 20.0625 -1.421875 12.78125 6.34375 
Q 5.515625 14.109375 5.515625 27.296875 
Q 5.515625 40.671875 12.859375 48.328125 
Q 20.21875 56 33.015625 56 
Q 37.15625 56 41.109375 55.140625 
Q 45.0625 54.296875 48.78125 52.59375 
z
" id="DejaVuSans-63"/>
      <path d="M 8.015625 75.875 
L 15.828125 75.875 
Q 23.140625 64.359375 26.78125 53.3125 
Q 30.421875 42.28125 30.421875 31.390625 
Q 30.421875 20.453125 26.78125 9.375 
Q 23.140625 -1.703125 15.828125 -13.1875 
L 8.015625 -13.1875 
Q 14.5 -2 17.703125 9.0625 
Q 20.90625 20.125 20.90625 31.390625 
Q 20.90625 42.671875 17.703125 53.65625 
Q 14.5 64.65625 8.015625 75.875 
z
" id="DejaVuSans-29"/>
     </defs>
     <g transform="translate(159.882656 335.860562)scale(0.1 -0.1)">
      <use xlink:href="#DejaVuSans-54"/>
      <use x="61.037109" xlink:href="#DejaVuSans-69"/>
      <use x="88.820312" xlink:href="#DejaVuSans-6d"/>
      <use x="186.232422" xlink:href="#DejaVuSans-65"/>
      <use x="247.755859" xlink:href="#DejaVuSans-20"/>
      <use x="279.542969" xlink:href="#DejaVuSans-28"/>
      <use x="318.556641" xlink:href="#DejaVuSans-6e"/>
      <use x="381.935547" xlink:href="#DejaVuSans-73"/>
      <use x="434.035156" xlink:href="#DejaVuSans-65"/>
      <use x="495.558594" xlink:href="#DejaVuSans-63"/>
      <use x="550.539062" xlink:href="#DejaVuSans-29"/>
     </g>
    </g>
   </g>
   <g id="matplotlib.axis_2">
    <g id="ytick_1">
     <g id="line2d_6">
      <defs>
       <path d="M 0 0 
L -3.5 0 
" id="m5fbe49b84f" style="stroke:#000000;stroke-width:0.8;"/>
      </defs>
      <g>
       <use style="stroke:#000000;stroke-width:0.8;" x="57.6" xlink:href="#m5fbe49b84f" y="306.798951"/>
      </g>
     </g>
     <g id="text_7">
      <!-- 18 -->
      <defs>
       <path d="M 31.78125 34.625 
Q 24.75 34.625 20.71875 30.859375 
Q 16.703125 27.09375 16.703125 20.515625 
Q 16.703125 13.921875 20.71875 10.15625 
Q 24.75 6.390625 31.78125 6.390625 
Q 38.8125 6.390625 42.859375 10.171875 
Q 46.921875 13.96875 46.921875 20.515625 
Q 46.921875 27.09375 42.890625 30.859375 
Q 38.875 34.625 31.78125 34.625 
z
M 21.921875 38.8125 
Q 15.578125 40.375 12.03125 44.71875 
Q 8.5 49.078125 8.5 55.328125 
Q 8.5 64.0625 14.71875 69.140625 
Q 20.953125 74.21875 31.78125 74.21875 
Q 42.671875 74.21875 48.875 69.140625 
Q 55.078125 64.0625 55.078125 55.328125 
Q 55.078125 49.078125 51.53125 44.71875 
Q 48 40.375 41.703125 38.8125 
Q 48.828125 37.15625 52.796875 32.3125 
Q 56.78125 27.484375 56.78125 20.515625 
Q 56.78125 9.90625 50.3125 4.234375 
Q 43.84375 -1.421875 31.78125 -1.421875 
Q 19.734375 -1.421875 13.25 4.234375 
Q 6.78125 9.90625 6.78125 20.515625 
Q 6.78125 27.484375 10.78125 32.3125 
Q 14.796875 37.15625 21.921875 38.8125 
z
M 18.3125 54.390625 
Q 18.3125 48.734375 21.84375 45.5625 
Q 25.390625 42.390625 31.78125 42.390625 
Q 38.140625 42.390625 41.71875 45.5625 
Q 45.3125 48.734375 45.3125 54.390625 
Q 45.3125 60.0625 41.71875 63.234375 
Q 38.140625 66.40625 31.78125 66.40625 
Q 25.390625 66.40625 21.84375 63.234375 
Q 18.3125 60.0625 18.3125 54.390625 
z
" id="DejaVuSans-38"/>
      </defs>
      <g transform="translate(37.875 310.59817)scale(0.1 -0.1)">
       <use xlink:href="#DejaVuSans-31"/>
       <use x="63.623047" xlink:href="#DejaVuSans-38"/>
      </g>
     </g>
    </g>
    <g id="ytick_2">
     <g id="line2d_7">
      <g>
       <use style="stroke:#000000;stroke-width:0.8;" x="57.6" xlink:href="#m5fbe49b84f" y="264.813712"/>
      </g>
     </g>
     <g id="text_8">
      <!-- 20 -->
      <g transform="translate(37.875 268.612931)scale(0.1 -0.1)">
       <use xlink:href="#DejaVuSans-32"/>
       <use x="63.623047" xlink:href="#DejaVuSans-30"/>
      </g>
     </g>
    </g>
    <g id="ytick_3">
     <g id="line2d_8">
      <g>
       <use style="stroke:#000000;stroke-width:0.8;" x="57.6" xlink:href="#m5fbe49b84f" y="222.828473"/>
      </g>
     </g>
     <g id="text_9">
      <!-- 22 -->
      <g transform="translate(37.875 226.627692)scale(0.1 -0.1)">
       <use xlink:href="#DejaVuSans-32"/>
       <use x="63.623047" xlink:href="#DejaVuSans-32"/>
      </g>
     </g>
    </g>
    <g id="ytick_4">
     <g id="line2d_9">
      <g>
       <use style="stroke:#000000;stroke-width:0.8;" x="57.6" xlink:href="#m5fbe49b84f" y="180.843234"/>
      </g>
     </g>
     <g id="text_10">
      <!-- 24 -->
      <defs>
       <path d="M 37.796875 64.3125 
L 12.890625 25.390625 
L 37.796875 25.390625 
z
M 35.203125 72.90625 
L 47.609375 72.90625 
L 47.609375 25.390625 
L 58.015625 25.390625 
L 58.015625 17.1875 
L 47.609375 17.1875 
L 47.609375 0 
L 37.796875 0 
L 37.796875 17.1875 
L 4.890625 17.1875 
L 4.890625 26.703125 
z
" id="DejaVuSans-34"/>
      </defs>
      <g transform="translate(37.875 184.642453)scale(0.1 -0.1)">
       <use xlink:href="#DejaVuSans-32"/>
       <use x="63.623047" xlink:href="#DejaVuSans-34"/>
      </g>
     </g>
    </g>
    <g id="ytick_5">
     <g id="line2d_10">
      <g>
       <use style="stroke:#000000;stroke-width:0.8;" x="57.6" xlink:href="#m5fbe49b84f" y="138.857995"/>
      </g>
     </g>
     <g id="text_11">
      <!-- 26 -->
      <defs>
       <path d="M 33.015625 40.375 
Q 26.375 40.375 22.484375 35.828125 
Q 18.609375 31.296875 18.609375 23.390625 
Q 18.609375 15.53125 22.484375 10.953125 
Q 26.375 6.390625 33.015625 6.390625 
Q 39.65625 6.390625 43.53125 10.953125 
Q 47.40625 15.53125 47.40625 23.390625 
Q 47.40625 31.296875 43.53125 35.828125 
Q 39.65625 40.375 33.015625 40.375 
z
M 52.59375 71.296875 
L 52.59375 62.3125 
Q 48.875 64.0625 45.09375 64.984375 
Q 41.3125 65.921875 37.59375 65.921875 
Q 27.828125 65.921875 22.671875 59.328125 
Q 17.53125 52.734375 16.796875 39.40625 
Q 19.671875 43.65625 24.015625 45.921875 
Q 28.375 48.1875 33.59375 48.1875 
Q 44.578125 48.1875 50.953125 41.515625 
Q 57.328125 34.859375 57.328125 23.390625 
Q 57.328125 12.15625 50.6875 5.359375 
Q 44.046875 -1.421875 33.015625 -1.421875 
Q 20.359375 -1.421875 13.671875 8.265625 
Q 6.984375 17.96875 6.984375 36.375 
Q 6.984375 53.65625 15.1875 63.9375 
Q 23.390625 74.21875 37.203125 74.21875 
Q 40.921875 74.21875 44.703125 73.484375 
Q 48.484375 72.75 52.59375 71.296875 
z
" id="DejaVuSans-36"/>
      </defs>
      <g transform="translate(37.875 142.657214)scale(0.1 -0.1)">
       <use xlink:href="#DejaVuSans-32"/>
       <use x="63.623047" xlink:href="#DejaVuSans-36"/>
      </g>
     </g>
    </g>
    <g id="ytick_6">
     <g id="line2d_11">
      <g>
       <use style="stroke:#000000;stroke-width:0.8;" x="57.6" xlink:href="#m5fbe49b84f" y="96.872756"/>
      </g>
     </g>
     <g id="text_12">
      <!-- 28 -->
      <g transform="translate(37.875 100.671975)scale(0.1 -0.1)">
       <use xlink:href="#DejaVuSans-32"/>
       <use x="63.623047" xlink:href="#DejaVuSans-38"/>
      </g>
     </g>
    </g>
    <g id="ytick_7">
     <g id="line2d_12">
      <g>
       <use style="stroke:#000000;stroke-width:0.8;" x="57.6" xlink:href="#m5fbe49b84f" y="54.887517"/>
      </g>
     </g>
     <g id="text_13">
      <!-- 30 -->
      <defs>
       <path d="M 40.578125 39.3125 
Q 47.65625 37.796875 51.625 33 
Q 55.609375 28.21875 55.609375 21.1875 
Q 55.609375 10.40625 48.1875 4.484375 
Q 40.765625 -1.421875 27.09375 -1.421875 
Q 22.515625 -1.421875 17.65625 -0.515625 
Q 12.796875 0.390625 7.625 2.203125 
L 7.625 11.71875 
Q 11.71875 9.328125 16.59375 8.109375 
Q 21.484375 6.890625 26.8125 6.890625 
Q 36.078125 6.890625 40.9375 10.546875 
Q 45.796875 14.203125 45.796875 21.1875 
Q 45.796875 27.640625 41.28125 31.265625 
Q 36.765625 34.90625 28.71875 34.90625 
L 20.21875 34.90625 
L 20.21875 43.015625 
L 29.109375 43.015625 
Q 36.375 43.015625 40.234375 45.921875 
Q 44.09375 48.828125 44.09375 54.296875 
Q 44.09375 59.90625 40.109375 62.90625 
Q 36.140625 65.921875 28.71875 65.921875 
Q 24.65625 65.921875 20.015625 65.03125 
Q 15.375 64.15625 9.8125 62.3125 
L 9.8125 71.09375 
Q 15.4375 72.65625 20.34375 73.4375 
Q 25.25 74.21875 29.59375 74.21875 
Q 40.828125 74.21875 47.359375 69.109375 
Q 53.90625 64.015625 53.90625 55.328125 
Q 53.90625 49.265625 50.4375 45.09375 
Q 46.96875 40.921875 40.578125 39.3125 
z
" id="DejaVuSans-33"/>
      </defs>
      <g transform="translate(37.875 58.686736)scale(0.1 -0.1)">
       <use xlink:href="#DejaVuSans-33"/>
       <use x="63.623047" xlink:href="#DejaVuSans-30"/>
      </g>
     </g>
    </g>
    <g id="text_14">
     <!-- Cohesive energy (kcal/mol) -->
     <defs>
      <path d="M 64.40625 67.28125 
L 64.40625 56.890625 
Q 59.421875 61.53125 53.78125 63.8125 
Q 48.140625 66.109375 41.796875 66.109375 
Q 29.296875 66.109375 22.65625 58.46875 
Q 16.015625 50.828125 16.015625 36.375 
Q 16.015625 21.96875 22.65625 14.328125 
Q 29.296875 6.6875 41.796875 6.6875 
Q 48.140625 6.6875 53.78125 8.984375 
Q 59.421875 11.28125 64.40625 15.921875 
L 64.40625 5.609375 
Q 59.234375 2.09375 53.4375 0.328125 
Q 47.65625 -1.421875 41.21875 -1.421875 
Q 24.65625 -1.421875 15.125 8.703125 
Q 5.609375 18.84375 5.609375 36.375 
Q 5.609375 53.953125 15.125 64.078125 
Q 24.65625 74.21875 41.21875 74.21875 
Q 47.75 74.21875 53.53125 72.484375 
Q 59.328125 70.75 64.40625 67.28125 
z
" id="DejaVuSans-43"/>
      <path d="M 30.609375 48.390625 
Q 23.390625 48.390625 19.1875 42.75 
Q 14.984375 37.109375 14.984375 27.296875 
Q 14.984375 17.484375 19.15625 11.84375 
Q 23.34375 6.203125 30.609375 6.203125 
Q 37.796875 6.203125 41.984375 11.859375 
Q 46.1875 17.53125 46.1875 27.296875 
Q 46.1875 37.015625 41.984375 42.703125 
Q 37.796875 48.390625 30.609375 48.390625 
z
M 30.609375 56 
Q 42.328125 56 49.015625 48.375 
Q 55.71875 40.765625 55.71875 27.296875 
Q 55.71875 13.875 49.015625 6.21875 
Q 42.328125 -1.421875 30.609375 -1.421875 
Q 18.84375 -1.421875 12.171875 6.21875 
Q 5.515625 13.875 5.515625 27.296875 
Q 5.515625 40.765625 12.171875 48.375 
Q 18.84375 56 30.609375 56 
z
" id="DejaVuSans-6f"/>
      <path d="M 54.890625 33.015625 
L 54.890625 0 
L 45.90625 0 
L 45.90625 32.71875 
Q 45.90625 40.484375 42.875 44.328125 
Q 39.84375 48.1875 33.796875 48.1875 
Q 26.515625 48.1875 22.3125 43.546875 
Q 18.109375 38.921875 18.109375 30.90625 
L 18.109375 0 
L 9.078125 0 
L 9.078125 75.984375 
L 18.109375 75.984375 
L 18.109375 46.1875 
Q 21.34375 51.125 25.703125 53.5625 
Q 30.078125 56 35.796875 56 
Q 45.21875 56 50.046875 50.171875 
Q 54.890625 44.34375 54.890625 33.015625 
z
" id="DejaVuSans-68"/>
      <path d="M 2.984375 54.6875 
L 12.5 54.6875 
L 29.59375 8.796875 
L 46.6875 54.6875 
L 56.203125 54.6875 
L 35.6875 0 
L 23.484375 0 
z
" id="DejaVuSans-76"/>
      <path d="M 41.109375 46.296875 
Q 39.59375 47.171875 37.8125 47.578125 
Q 36.03125 48 33.890625 48 
Q 26.265625 48 22.1875 43.046875 
Q 18.109375 38.09375 18.109375 28.8125 
L 18.109375 0 
L 9.078125 0 
L 9.078125 54.6875 
L 18.109375 54.6875 
L 18.109375 46.1875 
Q 20.953125 51.171875 25.484375 53.578125 
Q 30.03125 56 36.53125 56 
Q 37.453125 56 38.578125 55.875 
Q 39.703125 55.765625 41.0625 55.515625 
z
" id="DejaVuSans-72"/>
      <path d="M 45.40625 27.984375 
Q 45.40625 37.75 41.375 43.109375 
Q 37.359375 48.484375 30.078125 48.484375 
Q 22.859375 48.484375 18.828125 43.109375 
Q 14.796875 37.75 14.796875 27.984375 
Q 14.796875 18.265625 18.828125 12.890625 
Q 22.859375 7.515625 30.078125 7.515625 
Q 37.359375 7.515625 41.375 12.890625 
Q 45.40625 18.265625 45.40625 27.984375 
z
M 54.390625 6.78125 
Q 54.390625 -7.171875 48.1875 -13.984375 
Q 42 -20.796875 29.203125 -20.796875 
Q 24.46875 -20.796875 20.265625 -20.09375 
Q 16.0625 -19.390625 12.109375 -17.921875 
L 12.109375 -9.1875 
Q 16.0625 -11.328125 19.921875 -12.34375 
Q 23.78125 -13.375 27.78125 -13.375 
Q 36.625 -13.375 41.015625 -8.765625 
Q 45.40625 -4.15625 45.40625 5.171875 
L 45.40625 9.625 
Q 42.625 4.78125 38.28125 2.390625 
Q 33.9375 0 27.875 0 
Q 17.828125 0 11.671875 7.65625 
Q 5.515625 15.328125 5.515625 27.984375 
Q 5.515625 40.671875 11.671875 48.328125 
Q 17.828125 56 27.875 56 
Q 33.9375 56 38.28125 53.609375 
Q 42.625 51.21875 45.40625 46.390625 
L 45.40625 54.6875 
L 54.390625 54.6875 
z
" id="DejaVuSans-67"/>
      <path d="M 32.171875 -5.078125 
Q 28.375 -14.84375 24.75 -17.8125 
Q 21.140625 -20.796875 15.09375 -20.796875 
L 7.90625 -20.796875 
L 7.90625 -13.28125 
L 13.1875 -13.28125 
Q 16.890625 -13.28125 18.9375 -11.515625 
Q 21 -9.765625 23.484375 -3.21875 
L 25.09375 0.875 
L 2.984375 54.6875 
L 12.5 54.6875 
L 29.59375 11.921875 
L 46.6875 54.6875 
L 56.203125 54.6875 
z
" id="DejaVuSans-79"/>
      <path d="M 9.078125 75.984375 
L 18.109375 75.984375 
L 18.109375 31.109375 
L 44.921875 54.6875 
L 56.390625 54.6875 
L 27.390625 29.109375 
L 57.625 0 
L 45.90625 0 
L 18.109375 26.703125 
L 18.109375 0 
L 9.078125 0 
z
" id="DejaVuSans-6b"/>
      <path d="M 34.28125 27.484375 
Q 23.390625 27.484375 19.1875 25 
Q 14.984375 22.515625 14.984375 16.5 
Q 14.984375 11.71875 18.140625 8.90625 
Q 21.296875 6.109375 26.703125 6.109375 
Q 34.1875 6.109375 38.703125 11.40625 
Q 43.21875 16.703125 43.21875 25.484375 
L 43.21875 27.484375 
z
M 52.203125 31.203125 
L 52.203125 0 
L 43.21875 0 
L 43.21875 8.296875 
Q 40.140625 3.328125 35.546875 0.953125 
Q 30.953125 -1.421875 24.3125 -1.421875 
Q 15.921875 -1.421875 10.953125 3.296875 
Q 6 8.015625 6 15.921875 
Q 6 25.140625 12.171875 29.828125 
Q 18.359375 34.515625 30.609375 34.515625 
L 43.21875 34.515625 
L 43.21875 35.40625 
Q 43.21875 41.609375 39.140625 45 
Q 35.0625 48.390625 27.6875 48.390625 
Q 23 48.390625 18.546875 47.265625 
Q 14.109375 46.140625 10.015625 43.890625 
L 10.015625 52.203125 
Q 14.9375 54.109375 19.578125 55.046875 
Q 24.21875 56 28.609375 56 
Q 40.484375 56 46.34375 49.84375 
Q 52.203125 43.703125 52.203125 31.203125 
z
" id="DejaVuSans-61"/>
      <path d="M 9.421875 75.984375 
L 18.40625 75.984375 
L 18.40625 0 
L 9.421875 0 
z
" id="DejaVuSans-6c"/>
      <path d="M 25.390625 72.90625 
L 33.6875 72.90625 
L 8.296875 -9.28125 
L 0 -9.28125 
z
" id="DejaVuSans-2f"/>
     </defs>
     <g transform="translate(31.795312 243.044406)rotate(-90)scale(0.1 -0.1)">
      <use xlink:href="#DejaVuSans-43"/>
      <use x="69.824219" xlink:href="#DejaVuSans-6f"/>
      <use x="131.005859" xlink:href="#DejaVuSans-68"/>
      <use x="194.384766" xlink:href="#DejaVuSans-65"/>
      <use x="255.908203" xlink:href="#DejaVuSans-73"/>
      <use x="308.007812" xlink:href="#DejaVuSans-69"/>
      <use x="335.791016" xlink:href="#DejaVuSans-76"/>
      <use x="394.970703" xlink:href="#DejaVuSans-65"/>
      <use x="456.494141" xlink:href="#DejaVuSans-20"/>
      <use x="488.28125" xlink:href="#DejaVuSans-65"/>
      <use x="549.804688" xlink:href="#DejaVuSans-6e"/>
      <use x="613.183594" xlink:href="#DejaVuSans-65"/>
      <use x="674.707031" xlink:href="#DejaVuSans-72"/>
      <use x="715.804688" xlink:href="#DejaVuSans-67"/>
      <use x="779.28125" xlink:href="#DejaVuSans-79"/>
      <use x="838.460938" xlink:href="#DejaVuSans-20"/>
      <use x="870.248047" xlink:href="#DejaVuSans-28"/>
      <use x="909.261719" xlink:href="#DejaVuSans-6b"/>
      <use x="967.171875" xlink:href="#DejaVuSans-63"/>
      <use x="1022.152344" xlink:href="#DejaVuSans-61"/>
      <use x="1083.431641" xlink:href="#DejaVuSans-6c"/>
      <use x="1111.214844" xlink:href="#DejaVuSans-2f"/>
      <use x="1144.90625" xlink:href="#DejaVuSans-6d"/>
      <use x="1242.318359" xlink:href="#DejaVuSans-6f"/>
      <use x="1303.5" xlink:href="#DejaVuSans-6c"/>
      <use x="1331.283203" xlink:href="#DejaVuSans-29"/>
     </g>
    </g>
   </g>
   <g id="line2d_13">
    <path clip-path="url(#p3572484722)" d="M 57.6 53.568 
L 58.231942 150.024629 
L 58.863885 209.92842 
L 59.495827 249.801079 
L 60.12777 270.079179 
L 60.759712 282.875893 
L 61.391655 286.944627 
L 62.023597 284.359554 
L 63.287482 289.552649 
L 63.919424 276.97495 
L 64.551367 286.906125 
L 65.183309 278.553982 
L 65.815252 281.853995 
L 66.447194 281.299198 
L 67.079137 270.266998 
L 68.343022 284.614914 
L 68.974964 284.424359 
L 69.606906 275.197468 
L 70.238849 276.112689 
L 71.502734 291.773697 
L 72.134676 289.017295 
L 72.766619 284.794992 
L 73.398561 282.655131 
L 74.030504 285.567381 
L 74.662446 292.221341 
L 75.294388 284.552308 
L 76.558273 281.779688 
L 77.190216 288.219292 
L 77.822158 283.1277 
L 78.454101 273.436627 
L 79.086043 268.619069 
L 79.717986 283.181124 
L 80.349928 283.906676 
L 80.981871 292.850608 
L 81.613813 288.674112 
L 82.245755 287.717493 
L 82.877698 291.654917 
L 83.50964 291.265006 
L 84.141583 286.553429 
L 84.773525 287.633554 
L 85.405468 282.897038 
L 86.03741 279.24718 
L 86.669353 279.392933 
L 87.301295 283.118319 
L 87.933237 285.153958 
L 88.56518 280.898736 
L 89.197122 281.943716 
L 89.829065 289.510378 
L 90.461007 283.976679 
L 91.09295 285.66385 
L 92.356835 280.776495 
L 93.620719 295.001042 
L 94.252662 282.924671 
L 94.884604 286.949134 
L 95.516547 285.590308 
L 96.148489 275.654995 
L 96.780432 277.329959 
L 97.412374 284.241175 
L 98.044317 273.342246 
L 98.676259 271.340615 
L 99.308201 277.812318 
L 99.940144 282.948924 
L 100.572086 283.775765 
L 101.204029 280.925175 
L 101.835971 286.126233 
L 102.467914 282.035178 
L 103.099856 284.225367 
L 103.731799 281.894287 
L 104.363741 280.188889 
L 104.995683 270.948895 
L 105.627626 279.514632 
L 106.259568 284.159966 
L 106.891511 286.629696 
L 107.523453 281.539648 
L 108.155396 282.817029 
L 108.787338 280.109491 
L 109.419281 281.076105 
L 110.051223 288.403435 
L 110.683165 279.394775 
L 111.315108 281.269211 
L 111.94705 277.992521 
L 112.578993 287.164634 
L 113.842878 291.771826 
L 114.47482 288.728612 
L 115.738705 286.170229 
L 116.370647 288.91277 
L 117.00259 285.14314 
L 117.634532 286.698721 
L 118.266475 291.130802 
L 118.898417 286.166214 
L 119.53036 277.496101 
L 120.794245 284.201468 
L 121.426187 280.002852 
L 122.058129 285.76555 
L 122.690072 282.918111 
L 123.322014 281.859784 
L 123.953957 286.987756 
L 124.585899 279.956389 
L 125.217842 282.916745 
L 125.849784 285.015777 
L 126.481727 282.21662 
L 127.113669 278.86053 
L 127.745612 281.499569 
L 128.377554 282.973995 
L 129.009496 277.00176 
L 129.641439 278.773807 
L 130.273381 292.22797 
L 130.905324 292.220919 
L 131.537266 292.841576 
L 132.169209 294.52193 
L 132.801151 282.736938 
L 133.433094 286.235756 
L 134.065036 285.807296 
L 134.696978 283.219173 
L 135.328921 289.128316 
L 135.960863 288.787237 
L 136.592806 283.35337 
L 137.224748 280.459642 
L 137.856691 279.323679 
L 139.752518 285.75181 
L 140.38446 290.114561 
L 141.016403 288.861571 
L 141.648345 281.846568 
L 142.280288 279.660819 
L 142.91223 280.000253 
L 143.544173 287.264182 
L 144.176115 281.833504 
L 144.808058 283.33384 
L 145.44 277.027916 
L 146.071942 283.774027 
L 146.703885 281.238776 
L 147.335827 284.372858 
L 147.96777 288.610036 
L 148.599712 284.827709 
L 149.231655 273.324423 
L 149.863597 282.352828 
L 150.49554 283.358892 
L 151.127482 279.961628 
L 151.759424 282.682695 
L 152.391367 283.588732 
L 153.023309 290.111374 
L 153.655252 290.218903 
L 154.287194 282.605651 
L 154.919137 295.488 
L 155.551079 276.966326 
L 156.183022 273.587009 
L 156.814964 273.639405 
L 157.446906 279.225112 
L 158.078849 282.653037 
L 158.710791 279.212106 
L 159.342734 279.917209 
L 159.974676 288.757599 
L 160.606619 287.165021 
L 161.238561 290.241295 
L 161.870504 285.838136 
L 162.502446 278.335726 
L 163.766331 280.947658 
L 164.398273 281.45195 
L 165.030216 276.370506 
L 165.662158 275.86626 
L 166.926043 284.19442 
L 167.557986 282.090779 
L 168.189928 283.427491 
L 168.821871 283.083776 
L 169.453813 283.066913 
L 170.085755 281.430095 
L 170.717698 291.949775 
L 171.34964 278.808121 
L 171.981583 279.073716 
L 172.613525 280.477567 
L 173.245468 273.874157 
L 173.87741 278.598411 
L 174.509353 280.860874 
L 175.141295 286.08621 
L 175.773237 281.515761 
L 177.037122 285.723838 
L 177.669065 286.909967 
L 178.301007 283.516916 
L 178.93295 285.655383 
L 179.564892 282.886326 
L 180.196835 282.775616 
L 180.828777 278.377921 
L 181.460719 285.399236 
L 182.092662 275.023124 
L 183.356547 287.376743 
L 183.988489 280.673712 
L 184.620432 282.035424 
L 185.252374 278.60593 
L 185.884317 287.634824 
L 186.516259 284.692308 
L 187.148201 274.677575 
L 187.780144 276.129354 
L 188.412086 277.957788 
L 189.044029 276.59148 
L 189.675971 277.651824 
L 190.307914 285.91374 
L 190.939856 282.574501 
L 191.571799 283.667518 
L 192.203741 287.776642 
L 192.835683 285.117321 
L 193.467626 285.583177 
L 194.099568 282.543282 
L 194.731511 282.959805 
L 195.363453 279.892277 
L 195.995396 284.518745 
L 196.627338 277.911714 
L 197.259281 277.118085 
L 197.891223 284.304384 
L 198.523165 285.099026 
L 199.155108 282.285615 
L 199.78705 285.101279 
L 200.418993 292.401098 
L 201.050935 288.825868 
L 201.682878 282.140174 
L 202.31482 281.27327 
L 202.946763 282.291333 
L 203.578705 282.083786 
L 204.210647 278.123746 
L 204.84259 278.795523 
L 205.474532 280.623009 
L 206.106475 287.187872 
L 206.738417 278.171958 
L 207.37036 281.49749 
L 208.002302 286.980609 
L 208.634245 285.19702 
L 209.266187 285.974658 
L 209.898129 284.619245 
L 210.530072 286.357028 
L 211.162014 277.110185 
L 211.793957 278.772991 
L 212.425899 278.393761 
L 213.057842 282.303993 
L 213.689784 284.75453 
L 214.321727 280.737987 
L 214.953669 287.31546 
L 216.217554 279.063624 
L 216.849496 286.218069 
L 217.481439 288.249005 
L 218.113381 279.481778 
L 218.745324 280.993884 
L 219.377266 285.239834 
L 220.641151 276.219288 
L 221.273094 278.429213 
L 221.905036 282.219126 
L 222.536978 288.111826 
L 223.168921 286.033524 
L 223.800863 278.983083 
L 224.432806 283.328801 
L 225.064748 281.263856 
L 225.696691 283.760831 
L 226.328633 278.747765 
L 226.960576 281.553148 
L 227.592518 276.321319 
L 228.22446 279.226038 
L 228.856403 276.1225 
L 229.488345 281.737194 
L 230.120288 277.638274 
L 230.75223 282.049545 
L 231.384173 279.216213 
L 232.016115 274.695926 
L 232.648058 281.857992 
L 233.911942 285.474218 
L 234.543885 292.612579 
L 235.175827 286.151014 
L 235.80777 295.338596 
L 236.439712 289.171197 
L 237.071655 292.436689 
L 237.703597 286.953781 
L 238.33554 283.814703 
L 238.967482 283.563282 
L 239.599424 288.994472 
L 240.231367 287.229492 
L 240.863309 288.092707 
L 241.495252 283.124105 
L 242.759137 284.205177 
L 244.023022 282.474564 
L 244.654964 286.255339 
L 245.286906 282.446763 
L 245.918849 281.504485 
L 247.182734 289.344817 
L 247.814676 286.893585 
L 248.446619 290.709749 
L 249.078561 284.107424 
L 249.710504 284.444409 
L 250.342446 278.624821 
L 250.974388 280.227264 
L 251.606331 281.35924 
L 252.238273 273.702547 
L 252.870216 283.228989 
L 253.502158 279.295392 
L 254.134101 283.096685 
L 254.766043 276.947669 
L 255.397986 276.587303 
L 256.029928 284.339125 
L 256.661871 279.304601 
L 257.293813 278.214953 
L 257.925755 281.782251 
L 258.557698 279.066831 
L 259.18964 279.632877 
L 259.821583 276.964822 
L 260.453525 278.265575 
L 261.085468 280.663321 
L 261.71741 280.656598 
L 262.349353 278.368923 
L 262.981295 287.335056 
L 263.613237 283.982601 
L 264.24518 280.028156 
L 264.877122 280.958929 
L 265.509065 278.619385 
L 266.141007 283.352695 
L 266.77295 275.583366 
L 267.404892 278.064699 
L 268.036835 281.494155 
L 268.668777 282.893955 
L 269.300719 283.684939 
L 269.932662 282.980818 
L 270.564604 282.807963 
L 271.196547 286.463495 
L 271.828489 285.934638 
L 272.460432 283.690642 
L 273.092374 286.337844 
L 273.724317 291.593404 
L 274.356259 285.381316 
L 274.988201 289.297526 
L 275.620144 287.560203 
L 276.252086 284.34527 
L 276.884029 282.807838 
L 277.515971 274.97412 
L 278.147914 287.382715 
L 278.779856 277.037424 
L 279.411799 280.113544 
L 280.043741 276.424375 
L 280.675683 284.256525 
L 281.307626 274.074106 
L 281.939568 280.34264 
L 282.571511 283.957611 
L 283.203453 280.80475 
L 283.835396 284.972783 
L 284.467338 279.932201 
L 285.099281 280.377329 
L 285.731223 279.045174 
L 286.363165 277.392424 
L 286.995108 279.55106 
L 287.62705 285.258462 
L 288.258993 281.570194 
L 288.890935 279.386736 
L 289.522878 273.381111 
L 290.15482 279.594869 
L 290.786763 289.385202 
L 291.418705 281.028475 
L 292.050647 281.285306 
L 292.68259 282.88783 
L 293.314532 282.387591 
L 293.946475 289.938126 
L 294.578417 286.046495 
L 295.21036 281.257786 
L 295.842302 285.596167 
L 296.474245 278.799577 
L 297.106187 276.325204 
L 297.738129 276.522037 
L 298.370072 279.124008 
L 299.002014 286.039734 
L 299.633957 290.222579 
L 300.265899 282.608972 
L 300.897842 286.225899 
L 302.161727 280.158156 
L 302.793669 289.746616 
L 303.425612 285.169844 
L 304.057554 290.554803 
L 304.689496 288.52674 
L 305.321439 282.611439 
L 305.953381 288.432547 
L 306.585324 288.240204 
L 307.217266 279.011939 
L 307.849209 276.72349 
L 308.481151 275.084236 
L 309.113094 276.16494 
L 309.745036 274.774097 
L 310.376978 279.131921 
L 311.008921 281.085812 
L 311.640863 288.850958 
L 312.272806 281.441186 
L 312.904748 287.265568 
L 314.168633 282.764364 
L 314.800576 282.487164 
L 315.432518 285.301363 
L 316.06446 284.498828 
L 316.696403 282.306361 
L 317.328345 279.432633 
L 317.960288 277.833159 
L 318.59223 274.703535 
L 319.224173 285.947485 
L 319.856115 284.36658 
L 320.488058 288.631874 
L 321.12 286.125463 
L 321.12 286.125463 
" style="fill:none;stroke:#1f77b4;stroke-linecap:square;stroke-width:1.5;"/>
   </g>
   <g id="patch_3">
    <path d="M 57.6 307.584 
L 57.6 41.472 
" style="fill:none;stroke:#000000;stroke-linecap:square;stroke-linejoin:miter;stroke-width:0.8;"/>
   </g>
   <g id="patch_4">
    <path d="M 321.12 307.584 
L 321.12 41.472 
" style="fill:none;stroke:#000000;stroke-linecap:square;stroke-linejoin:miter;stroke-width:0.8;"/>
   </g>
   <g id="patch_5">
    <path d="M 57.6 307.584 
L 321.12 307.584 
" style="fill:none;stroke:#000000;stroke-linecap:square;stroke-linejoin:miter;stroke-width:0.8;"/>
   </g>
   <g id="patch_6">
    <path d="M 57.6 41.472 
L 321.12 41.472 
" style="fill:none;stroke:#000000;stroke-linecap:square;stroke-linejoin:miter;stroke-width:0.8;"/>
   </g>
  </g>
  <g id="axes_2">
   <g id="patch_7">
    <path d="M 328.32 307.584 
L 414.72 307.584 
L 414.72 41.472 
L 328.32 41.472 
z
" style="fill:#ffffff;"/>
   </g>
   <g id="patch_8">
    <path clip-path="url(#pfe73a95f85)" d="M 328.32 291.8592 
L 410.605714 291.8592 
L 410.605714 274.9248 
L 328.32 274.9248 
z
" style="fill:#0000ff;"/>
   </g>
   <g id="patch_9">
    <path clip-path="url(#pfe73a95f85)" d="M 328.32 267.6672 
L 329.323484 267.6672 
L 329.323484 250.7328 
L 328.32 250.7328 
z
" style="fill:#0000ff;"/>
   </g>
   <g id="patch_10">
    <path clip-path="url(#pfe73a95f85)" d="M 328.32 243.4752 
L 328.32 243.4752 
L 328.32 226.5408 
L 328.32 226.5408 
z
" style="fill:#0000ff;"/>
   </g>
   <g id="patch_11">
    <path clip-path="url(#pfe73a95f85)" d="M 328.32 219.2832 
L 328.520697 219.2832 
L 328.520697 202.3488 
L 328.32 202.3488 
z
" style="fill:#0000ff;"/>
   </g>
   <g id="patch_12">
    <path clip-path="url(#pfe73a95f85)" d="M 328.32 195.0912 
L 328.32 195.0912 
L 328.32 178.1568 
L 328.32 178.1568 
z
" style="fill:#0000ff;"/>
   </g>
   <g id="patch_13">
    <path clip-path="url(#pfe73a95f85)" d="M 328.32 170.8992 
L 328.32 170.8992 
L 328.32 153.9648 
L 328.32 153.9648 
z
" style="fill:#0000ff;"/>
   </g>
   <g id="patch_14">
    <path clip-path="url(#pfe73a95f85)" d="M 328.32 146.7072 
L 328.520697 146.7072 
L 328.520697 129.7728 
L 328.32 129.7728 
z
" style="fill:#0000ff;"/>
   </g>
   <g id="patch_15">
    <path clip-path="url(#pfe73a95f85)" d="M 328.32 122.5152 
L 328.32 122.5152 
L 328.32 105.5808 
L 328.32 105.5808 
z
" style="fill:#0000ff;"/>
   </g>
   <g id="patch_16">
    <path clip-path="url(#pfe73a95f85)" d="M 328.32 98.3232 
L 328.32 98.3232 
L 328.32 81.3888 
L 328.32 81.3888 
z
" style="fill:#0000ff;"/>
   </g>
   <g id="patch_17">
    <path clip-path="url(#pfe73a95f85)" d="M 328.32 74.1312 
L 328.520697 74.1312 
L 328.520697 57.1968 
L 328.32 57.1968 
z
" style="fill:#0000ff;"/>
   </g>
   <g id="matplotlib.axis_3">
    <g id="ytick_8">
     <g id="line2d_14">
      <defs>
       <path d="M 0 0 
L -3.5 0 
" id="m54f4274065" style="stroke:#888888;stroke-width:0.8;"/>
      </defs>
      <g>
       <use style="fill:#888888;stroke:#888888;stroke-width:0.8;" x="328.32" xlink:href="#m54f4274065" y="306.798951"/>
      </g>
     </g>
    </g>
    <g id="ytick_9">
     <g id="line2d_15">
      <g>
       <use style="fill:#888888;stroke:#888888;stroke-width:0.8;" x="328.32" xlink:href="#m54f4274065" y="264.813712"/>
      </g>
     </g>
    </g>
    <g id="ytick_10">
     <g id="line2d_16">
      <g>
       <use style="fill:#888888;stroke:#888888;stroke-width:0.8;" x="328.32" xlink:href="#m54f4274065" y="222.828473"/>
      </g>
     </g>
    </g>
    <g id="ytick_11">
     <g id="line2d_17">
      <g>
       <use style="fill:#888888;stroke:#888888;stroke-width:0.8;" x="328.32" xlink:href="#m54f4274065" y="180.843234"/>
      </g>
     </g>
    </g>
    <g id="ytick_12">
     <g id="line2d_18">
      <g>
       <use style="fill:#888888;stroke:#888888;stroke-width:0.8;" x="328.32" xlink:href="#m54f4274065" y="138.857995"/>
      </g>
     </g>
    </g>
    <g id="ytick_13">
     <g id="line2d_19">
      <g>
       <use style="fill:#888888;stroke:#888888;stroke-width:0.8;" x="328.32" xlink:href="#m54f4274065" y="96.872756"/>
      </g>
     </g>
    </g>
    <g id="ytick_14">
     <g id="line2d_20">
      <g>
       <use style="fill:#888888;stroke:#888888;stroke-width:0.8;" x="328.32" xlink:href="#m54f4274065" y="54.887517"/>
      </g>
     </g>
    </g>
   </g>
   <g id="patch_18">
    <path d="M 328.32 307.584 
L 328.32 41.472 
" style="fill:none;stroke:#888888;stroke-linecap:square;stroke-linejoin:miter;stroke-width:0.8;"/>
   </g>
   <g id="patch_19">
    <path d="M 414.72 307.584 
L 414.72 41.472 
" style="fill:none;stroke:#888888;stroke-linecap:square;stroke-linejoin:miter;stroke-width:0.8;"/>
   </g>
   <g id="patch_20">
    <path d="M 328.32 307.584 
L 414.72 307.584 
" style="fill:none;stroke:#888888;stroke-linecap:square;stroke-linejoin:miter;stroke-width:0.8;"/>
   </g>
   <g id="patch_21">
    <path d="M 328.32 41.472 
L 414.72 41.472 
" style="fill:none;stroke:#888888;stroke-linecap:square;stroke-linejoin:miter;stroke-width:0.8;"/>
   </g>
  </g>
 </g>
 <defs>
  <clipPath id="p3572484722">
   <rect height="266.112" width="263.52" x="57.6" y="41.472"/>
  </clipPath>
  <clipPath id="pfe73a95f85">
   <rect height="266.112" width="86.4" x="328.32" y="41.472"/>
  </clipPath>
 </defs>
</svg>
